 0 1
 0.5 1.268130253109742
 1 1.61416737064498
 1.5 1.768344945593345
 2 1.614742559629077
 2.5 1.284025919816919
 3 0.9689845453571604
 3.5 0.7924227911393938
 4 0.9049796327367854
 4.5 4.018861877527022
 4.50026 7
