 0 1
 0.1 1.000675
 0.2 1.0136832746625
 0.3 1.037203767684494
 0.4 1.06977767061051
 0.5 1.110137172789632
 0.6000000000000001 1.157082098483974
 0.7000000000000001 1.209390308910139
 0.8 1.26575454895205
 0.9 1.324742508196863
 1 1.38477917629709
 1.1 1.444151583480828
 1.2 1.501035992278346
 1.3 1.55354673439622
 1.4 1.599804365186234
 1.5 1.638018892057438
 1.6 1.666581846487689
 1.7 1.684159285222595
 1.8 1.689776798518455
 1.9 1.682887578510895
 2 1.663415727783735
 2.1 1.63176924356265
 2.2 1.588820261187459
 2.3 1.535853760140252
 2.4 1.474489491080729
 2.5 1.406584826547988
 2.6 1.334128125670435
 2.7 1.259132781342122
 2.8 1.183541374380639
 2.9 1.109147514211195
 3 1.037540396119963
 3.1 0.9700743318622624
 3.2 0.9078629799227697
 3.3 0.8517960858716792
 3.4 0.8025754749476273
 3.5 0.7607669107311805
 3.6 0.7268652352717223
 3.7 0.7013718908750373
 3.8 0.684886495265965
 3.9 0.6782177554615604
 4 0.6825240990998637
 4.100000000000001 0.6995018860649728
 4.2 0.731650642997576
 4.3 0.782663520779296
 4.4 0.8580226692092909
 4.5 0.9659336062477359
 4.600000000000001 1.118828821946674
 4.7 1.335844692053205
 4.800000000000001 1.646996984872044
 4.9 2.100387255858576
 5 2.774946576756488
