\relax 
\providecommand\hyper@newdestlabel[2]{}
\catcode `"\active 
\catcode `<\active 
\catcode `>\active 
\@nameuse{es@quoting}
\providecommand\HyperFirstAtBeginDocument{\AtBeginDocument}
\HyperFirstAtBeginDocument{\ifx\hyper@anchor\@undefined
\global\let\oldcontentsline\contentsline
\gdef\contentsline#1#2#3#4{\oldcontentsline{#1}{#2}{#3}}
\global\let\oldnewlabel\newlabel
\gdef\newlabel#1#2{\newlabelxx{#1}#2}
\gdef\newlabelxx#1#2#3#4#5#6{\oldnewlabel{#1}{{#2}{#3}}}
\AtEndDocument{\ifx\hyper@anchor\@undefined
\let\contentsline\oldcontentsline
\let\newlabel\oldnewlabel
\fi}
\fi}
\global\let\hyper@last\relax 
\gdef\HyperFirstAtBeginDocument#1{#1}
\providecommand\HyField@AuxAddToFields[1]{}
\providecommand\HyField@AuxAddToCoFields[2]{}
\babel@aux{spanish}{}
\@writefile{toc}{\contentsline {chapter}{Resumen}{\es@scroman  {ii}}{Doc-Start}}
\citation{b5}
\@writefile{brf}{\backcite{b5}{{\es@scroman  {vii}}{(document)}{Doc-Start}}}
\citation{ar8}
\citation{ar8}
\citation{ar8}
\citation{ar6}
\citation{ar5}
\@writefile{brf}{\backcite{ar8}{{\es@scroman  {viii}}{(document)}{Doc-Start}}}
\@writefile{brf}{\backcite{ar8}{{\es@scroman  {viii}}{(document)}{Doc-Start}}}
\@writefile{brf}{\backcite{ar8}{{\es@scroman  {viii}}{(document)}{Doc-Start}}}
\@writefile{brf}{\backcite{ar6}{{\es@scroman  {viii}}{(document)}{Doc-Start}}}
\@writefile{brf}{\backcite{ar5}{{\es@scroman  {viii}}{(document)}{Doc-Start}}}
\citation{ar7}
\citation{a5}
\citation{arr7}
\citation{arr7}
\citation{b5}
\citation{b4}
\@writefile{brf}{\backcite{ar7}{{\es@scroman  {ix}}{(document)}{Doc-Start}}}
\@writefile{brf}{\backcite{a5}{{\es@scroman  {ix}}{(document)}{Doc-Start}}}
\@writefile{brf}{\backcite{arr7}{{\es@scroman  {ix}}{(document)}{Doc-Start}}}
\@writefile{brf}{\backcite{arr7}{{\es@scroman  {ix}}{(document)}{Doc-Start}}}
\@writefile{brf}{\backcite{b5}{{\es@scroman  {ix}}{(document)}{Doc-Start}}}
\@writefile{brf}{\backcite{b4}{{\es@scroman  {x}}{(document)}{Doc-Start}}}
\@writefile{toc}{\contentsline {chapter}{\numberline {1}Introducci\IeC {\'o}n}{1}{chapter.1}}
\@writefile{lof}{\addvspace {10\p@ }}
\@writefile{lot}{\addvspace {10\p@ }}
\@writefile{lof}{\contentsline {figure}{\numberline {1.0.1}{\ignorespaces Modelo de desarrollo de software por prototipos.\relax }}{2}{figure.caption.2}}
\providecommand*\caption@xref[2]{\@setref\relax\@undefined{#1}}
\newlabel{ejemplo1}{{1.0.1}{2}{Modelo de desarrollo de software por prototipos.\relax }{figure.caption.2}{}}
\citation{ar1}
\@writefile{toc}{\contentsline {chapter}{\numberline {2}El problema de valores iniciales en ecuaciones diferenciales ordinarias}{5}{chapter.2}}
\@writefile{lof}{\addvspace {10\p@ }}
\@writefile{lot}{\addvspace {10\p@ }}
\@writefile{brf}{\backcite{ar1}{{5}{2}{chapter.2}}}
\@writefile{toc}{\contentsline {section}{\numberline {2.1}Introducci\IeC {\'o}n}{5}{section.2.1}}
\citation{ar2}
\citation{ar4}
\citation{ar3}
\@writefile{toc}{\contentsline {section}{\numberline {2.2}Teor\IeC {\'\i }a}{6}{section.2.2}}
\newlabel{EcuacionPrimerGrado}{{2.1}{6}{Teoría}{equation.2.2.1}{}}
\newlabel{PVI1}{{2.2a}{6}{Teoría}{equation.2.2.2}{}}
\newlabel{PVI2}{{2.2b}{6}{Teoría}{equation.2.2.2}{}}
\newlabel{Integral}{{2.3}{6}{Teoría}{equation.2.2.3}{}}
\@writefile{brf}{\backcite{ar2}{{6}{2.2}{equation.2.2.3}}}
\@writefile{brf}{\backcite{ar4}{{6}{2.2}{equation.2.2.3}}}
\newlabel{CDLIP}{{2.2.1}{6}{Condición de Lipschitz \cite {ar3}}{Definicion.2.2.1}{}}
\@writefile{brf}{\backcite{ar3}{{6}{2.2.1}{Definicion.2.2.1}}}
\citation{a2}
\@writefile{brf}{\backcite{a2}{{7}{2.2.2}{teo.2.2.2}}}
\newlabel{ExistenciaUnicidad}{{2.2.2}{7}{Existencia y Unicidad}{equation.2.2.6}{}}
\@writefile{toc}{\contentsline {subsection}{\numberline {2.2.1}Ejemplos}{7}{subsection.2.2.1}}
\newlabel{ejemplo_capitulo3_1}{{2.2.3}{7}{}{teo.2.2.3}{}}
\newlabel{EcFun_1}{{2.7a}{7}{Ejemplos}{equation.2.2.7}{}}
\newlabel{EcFun}{{2.7b}{7}{Ejemplos}{equation.2.2.7}{}}
\newlabel{EDOSolucionLineal}{{2.8}{8}{Ejemplos}{equation.2.2.8}{}}
\newlabel{ejemplo_capitulo3_2}{{2.2.4}{8}{}{teo.2.2.4}{}}
\newlabel{parte1}{{2.12}{8}{Ejemplos}{equation.2.2.12}{}}
\newlabel{parte2}{{2.13}{8}{Ejemplos}{equation.2.2.13}{}}
\newlabel{EcuacionAMostrar}{{2.14}{9}{Ejemplos}{equation.2.2.14}{}}
\newlabel{ejemplo_capitulo3_3}{{2.2.5}{9}{}{teo.2.2.5}{}}
\newlabel{EcFun1}{{2.15b}{9}{Ejemplos}{equation.2.2.15}{}}
\citation{a2}
\@writefile{toc}{\contentsline {section}{\numberline {2.3}Problemas bien planteados}{10}{section.2.3}}
\@writefile{brf}{\backcite{a2}{{10}{2.3}{Definicion.2.3.1}}}
\newlabel{EcFun1}{{2.18b}{10}{Problemas bien planteados}{equation.2.3.18}{}}
\newlabel{ejemplo_capitulo3_4}{{2.3.1}{11}{}{teo.2.3.1}{}}
\newlabel{EcFun1}{{2.24b}{11}{Problemas bien planteados}{equation.2.3.24}{}}
\newlabel{ejemploCondicionDeFrontera}{{2.27}{11}{Problemas bien planteados}{equation.2.3.27}{}}
\newlabel{EcFun1}{{2.32b}{12}{Problemas bien planteados}{equation.2.3.32}{}}
\@writefile{lof}{\contentsline {figure}{\numberline {2.3.1}{\ignorespaces Soluci\IeC {\'o}n al problema del ejemplo (\ref  {ejemplo_capitulo3_4}).\relax }}{13}{figure.caption.3}}
\newlabel{GraficasInestalesCap3}{{2.3.1}{13}{Solución al problema del ejemplo (\ref {ejemplo_capitulo3_4}).\relax }{figure.caption.3}{}}
\@writefile{toc}{\contentsline {chapter}{\numberline {3}M\IeC {\'e}todos num\IeC {\'e}ricos de un paso}{14}{chapter.3}}
\@writefile{lof}{\addvspace {10\p@ }}
\@writefile{lot}{\addvspace {10\p@ }}
\@writefile{toc}{\contentsline {section}{\numberline {3.1}Introducci\IeC {\'o}n}{14}{section.3.1}}
\newlabel{PVIDos}{{3.1}{14}{Introducción}{section.3.1}{}}
\newlabel{PVIprop1}{{3.1a}{14}{Introducción}{equation.3.1.1}{}}
\newlabel{PVIprop2}{{3.1b}{14}{Introducción}{equation.3.1.1}{}}
\citation{a9}
\citation{ar9}
\@writefile{brf}{\backcite{a9}{{15}{3.1}{equation.3.1.1}}}
\@writefile{brf}{\backcite{ar9}{{15}{3.1}{equation.3.1.1}}}
\@writefile{lof}{\contentsline {figure}{\numberline {3.1.1}{\ignorespaces Distancia homog\IeC {\'e}nea entre nodos.\relax }}{16}{figure.caption.5}}
\newlabel{Linea_de_puntos}{{3.1.1}{16}{Distancia homogénea entre nodos.\relax }{figure.caption.5}{}}
\citation{a1}
\@writefile{toc}{\contentsline {section}{\numberline {3.2}Error global y error local}{17}{section.3.2}}
\@writefile{brf}{\backcite{a1}{{17}{3.2}{equation.3.2.3}}}
\citation{a8}
\@writefile{lof}{\contentsline {figure}{\numberline {3.2.1}{\ignorespaces Error local y error global.\relax }}{18}{figure.caption.6}}
\newlabel{error}{{3.2.1}{18}{Error local y error global.\relax }{figure.caption.6}{}}
\@writefile{toc}{\contentsline {section}{\numberline {3.3}Propiedades importantes de los m\IeC {\'e}todos}{18}{section.3.3}}
\@writefile{toc}{\contentsline {subsection}{\numberline {3.3.1}Criterio para analizar los m\IeC {\'e}todos}{18}{subsection.3.3.1}}
\@writefile{brf}{\backcite{a8}{{18}{3.3.1}{subsection.3.3.1}}}
\@writefile{toc}{\contentsline {subsection}{\numberline {3.3.2}Definiciones}{18}{subsection.3.3.2}}
\@writefile{toc}{\contentsline {section}{\numberline {3.4}M\IeC {\'e}todos num\IeC {\'e}ricos de un paso}{19}{section.3.4}}
\@writefile{lot}{\contentsline {table}{\numberline {3.4.1}{\ignorespaces M\IeC {\'e}todos Num\IeC {\'e}ricos de un paso.\relax }}{19}{table.caption.7}}
\newlabel{tabla:primera}{{3.4.1}{19}{Métodos Numéricos de un paso.\relax }{table.caption.7}{}}
\citation{ar8}
\citation{ar8}
\citation{ar8}
\@writefile{toc}{\contentsline {subsection}{\numberline {3.4.1}Estabilidad Num\IeC {\'e}rica}{20}{subsection.3.4.1}}
\@writefile{brf}{\backcite{ar8}{{20}{3.4.1}{equation.3.4.6}}}
\@writefile{lof}{\contentsline {figure}{\numberline {3.4.1}{\ignorespaces Estabilidad anal\IeC {\'\i }tica y num\IeC {\'e}rica \cite  {ar8}.\relax }}{20}{figure.caption.8}}
\@writefile{brf}{\backcite{ar8}{{20}{3.4.1}{figure.caption.8}}}
\newlabel{DiagramaSintactico}{{3.4.1}{20}{Estabilidad analítica y numérica \cite {ar8}.\relax }{figure.caption.8}{}}
\newlabel{IneqIntegral}{{3.9}{21}{Estabilidad Numérica}{equation.3.4.9}{}}
\newlabel{LoratimoEcuacion}{{3.10}{21}{Estabilidad Numérica}{equation.3.4.10}{}}
\citation{ar8}
\citation{ar8}
\newlabel{ResultadoLogarimto}{{3.12}{22}{Estabilidad Numérica}{equation.3.4.12}{}}
\@writefile{toc}{\contentsline {subsection}{\numberline {3.4.2}A-estabilidad}{22}{subsection.3.4.2}}
\citation{b1}
\@writefile{lof}{\contentsline {figure}{\numberline {3.4.2}{\ignorespaces Estabilidad anal\IeC {\'\i }tica y num\IeC {\'e}rica total \cite  {ar8}.\relax }}{23}{figure.caption.9}}
\@writefile{brf}{\backcite{ar8}{{23}{3.4.2}{figure.caption.9}}}
\newlabel{FiguraEstabilidadAbsoluta}{{3.4.2}{23}{Estabilidad analítica y numérica total \cite {ar8}.\relax }{figure.caption.9}{}}
\@writefile{brf}{\backcite{b1}{{23}{3.4.2}{figure.caption.10}}}
\@writefile{lof}{\contentsline {figure}{\numberline {3.4.3}{\ignorespaces Estabilidad para pasos $h=1/2,\ 1/4\ y\ 1/6$.\relax }}{24}{figure.caption.10}}
\newlabel{GraficasdeEstabilidad}{{3.4.3}{24}{Estabilidad para pasos $h=1/2,\ 1/4\ y\ 1/6$.\relax }{figure.caption.10}{}}
\@writefile{toc}{\contentsline {section}{\numberline {3.5}M\IeC {\'e}todos de Taylor}{24}{section.3.5}}
\newlabel{Serie_de_Taylor}{{3.15}{24}{Métodos de Taylor}{equation.3.5.15}{}}
\newlabel{metodos_de_taylor}{{3.16}{24}{Métodos de Taylor}{equation.3.5.16}{}}
\newlabel{PVIprop1_2}{{3.17a}{24}{Métodos de Taylor}{equation.3.5.17alph1}{}}
\newlabel{PVIprop2_2}{{3.17b}{24}{Métodos de Taylor}{equation.3.5.17alph2}{}}
\newlabel{PVIDosOTRO}{{3.17}{24}{Métodos de Taylor}{equation.3.5.17alph2}{}}
\newlabel{metodos_de_taylor_particulares}{{3.18}{24}{Métodos de Taylor}{equation.3.5.18}{}}
\citation{a2}
\citation{a2}
\newlabel{Condicion_de_Lipschitz_para_Derivadas}{{3.20}{25}{Métodos de Taylor}{equation.3.5.20}{}}
\newlabel{EcuacionParaDemostrar1}{{3.21}{25}{Métodos de Taylor}{equation.3.5.21}{}}
\@writefile{brf}{\backcite{a2}{{25}{3.5.1}{teo.3.5.1}}}
\newlabel{lemaImportante}{{3.5.1}{25}{}{equation.3.5.23}{}}
\@writefile{brf}{\backcite{a2}{{25}{3.5.2}{teo.3.5.2}}}
\newlabel{ecuacionimportanteparademostrar}{{3.24}{25}{}{equation.3.5.24}{}}
\citation{a2}
\newlabel{EcuacionDeLaDemostracion}{{3.25}{26}{}{equation.3.5.25}{}}
\newlabel{ecuacionimportanteparademostrar1}{{3.26}{26}{}{equation.3.5.26}{}}
\newlabel{ecuacionimportanteparademostrar2}{{3.27}{26}{}{equation.3.5.27}{}}
\newlabel{ErrorGlobalTaylor}{{3.5.2}{26}{}{equation.3.5.27}{}}
\@writefile{brf}{\backcite{a2}{{26}{3.5}{equation.3.5.27}}}
\newlabel{EcuacionParaDemostrar}{{3.28}{26}{Métodos de Taylor}{equation.3.5.28}{}}
\newlabel{EcuacionImportante2}{{3.29}{27}{Métodos de Taylor}{equation.3.5.29}{}}
\@writefile{toc}{\contentsline {subsection}{\numberline {3.5.1}Un m\IeC {\'e}todo de orden dos}{27}{subsection.3.5.1}}
\newlabel{Taylor_OrdenDos}{{3.30a}{27}{Un método de orden dos}{equation.3.5.30alph1}{}}
\newlabel{TaylorDerivadaOrdenTres}{{3.31}{27}{Un método de orden dos}{equation.3.5.31}{}}
\newlabel{TAYLOR_METODO_ORDEN_DOS}{{3.32}{27}{Un método de orden dos}{equation.3.5.32}{}}
\@writefile{toc}{\contentsline {subsection}{\numberline {3.5.2}A-Estabilidad }{28}{subsection.3.5.2}}
\newlabel{ecuacion32profesor}{{3.33}{28}{A-Estabilidad}{equation.3.5.33}{}}
\newlabel{Analisis_estabilidad_metodo_orden_dos_taylor}{{3.35}{28}{A-Estabilidad}{equation.3.5.35}{}}
\newlabel{ecuacion_de_estabilidad}{{3.36}{28}{A-Estabilidad}{equation.3.5.36}{}}
\@writefile{lof}{\contentsline {figure}{\numberline {3.5.1}{\ignorespaces Regi\IeC {\'o}n de estabilidad para m\IeC {\'e}todo de Taylor de orden dos.\relax }}{29}{figure.caption.11}}
\newlabel{region_estabilidad_numerica_taylor}{{3.5.1}{29}{Región de estabilidad para método de Taylor de orden dos.\relax }{figure.caption.11}{}}
\newlabel{ejemplo_capitulo4_1}{{3.5.3}{29}{}{teo.3.5.3}{}}
\newlabel{ecuacion_referencia_profesor}{{3.37}{29}{A-Estabilidad}{teo.3.5.3}{}}
\newlabel{Metodo_numerico_taylor_orden_dos}{{3.38}{29}{A-Estabilidad}{equation.3.5.38}{}}
\@writefile{lof}{\contentsline {figure}{\numberline {3.5.2}{\ignorespaces Soluci\IeC {\'o}n de \ref  {ecuacion_referencia_profesor} y empleando el m\IeC {\'e}todo de Taylor de orden dos para pasos de $h=\frac  {1}{2},\ \frac  {1}{10}$ y $\frac  {1}{20}$, donde $Y(t)$ es la soluci\IeC {\'o}n exacta.\relax }}{30}{figure.caption.12}}
\newlabel{GRAFICO_METODO_DE_TAYLOR1}{{3.5.2}{30}{Solución de \ref {ecuacion_referencia_profesor} y empleando el método de Taylor de orden dos para pasos de $h=\frac {1}{2},\ \frac {1}{10}$ y $\frac {1}{20}$, donde $Y(t)$ es la solución exacta.\relax }{figure.caption.12}{}}
\citation{a2}
\@writefile{brf}{\backcite{a2}{{31}{3.5.2}{equation.3.5.39}}}
\@writefile{lof}{\contentsline {figure}{\numberline {3.5.3}{\ignorespaces Funci\IeC {\'o}n V(t).\relax }}{31}{figure.caption.13}}
\newlabel{FuncionV}{{3.5.3}{31}{Función V(t).\relax }{figure.caption.13}{}}
\@writefile{lot}{\contentsline {table}{\numberline {3.5.1}{\ignorespaces Tabla de resultados para el m\IeC {\'e}todo de Taylor de orden dos para el ejemplo (\ref  {ejemplo_capitulo4_1}).\relax }}{32}{table.caption.14}}
\newlabel{Tab1}{{3.5.1}{32}{Tabla de resultados para el método de Taylor de orden dos para el ejemplo (\ref {ejemplo_capitulo4_1}).\relax }{table.caption.14}{}}
\@writefile{toc}{\contentsline {section}{\numberline {3.6}M\IeC {\'e}todos de Euler}{33}{section.3.6}}
\@writefile{toc}{\contentsline {subsection}{\numberline {3.6.1}M\IeC {\'e}todo de Euler expl\IeC {\'\i }cito}{33}{subsection.3.6.1}}
\newlabel{MethodEuler}{{3.41}{33}{Método de Euler explícito}{equation.3.6.41}{}}
\newlabel{TaylorEuler}{{3.42}{33}{Método de Euler explícito}{equation.3.6.42}{}}
\newlabel{Expresion1}{{3.43}{33}{Método de Euler explícito}{equation.3.6.43}{}}
\newlabel{analisis_estabilidad_metodo_orden_uno_euler}{{3.45}{33}{Método de Euler explícito}{equation.3.6.45}{}}
\@writefile{lof}{\contentsline {figure}{\numberline {3.6.1}{\ignorespaces Regi\IeC {\'o}n de estabilidad para m\IeC {\'e}todo de Euler.\relax }}{34}{figure.caption.15}}
\newlabel{region_de_estabilidad_metodo_de_euler_hacia_adelante}{{3.6.1}{34}{Región de estabilidad para método de Euler.\relax }{figure.caption.15}{}}
\newlabel{ejemplo_capitulo4_2}{{3.6.1}{34}{}{teo.3.6.1}{}}
\@writefile{lof}{\contentsline {figure}{\numberline {3.6.2}{\ignorespaces Soluciones num\IeC {\'e}ricas usando el m\IeC {\'e}todo de Euler expl\IeC {\'\i }cito.\relax }}{35}{figure.caption.16}}
\newlabel{GraficaDeMetodoDeEulerExplicito}{{3.6.2}{35}{Soluciones numéricas usando el método de Euler explícito.\relax }{figure.caption.16}{}}
\@writefile{lof}{\contentsline {figure}{\numberline {3.6.3}{\ignorespaces Funci\IeC {\'o}n W(t).\relax }}{35}{figure.caption.17}}
\newlabel{FuncionW}{{3.6.3}{35}{Función W(t).\relax }{figure.caption.17}{}}
\newlabel{tablaUno}{{\caption@xref {tablaUno}{ on input line 1135}}{36}{Método de Euler explícito}{table.caption.18}{}}
\@writefile{lot}{\contentsline {table}{\numberline {3.6.1}{\ignorespaces Tabla de resultados para el m\IeC {\'e}todo de Euler expl\IeC {\'\i }cito.\relax }}{36}{table.caption.18}}
\@writefile{toc}{\contentsline {subsection}{\numberline {3.6.2}M\IeC {\'e}todo de Euler impl\IeC {\'\i }cito}{37}{subsection.3.6.2}}
\newlabel{EulerAtras}{{3.48}{37}{Método de Euler implícito}{equation.3.6.48}{}}
\newlabel{TaylorEulerAtras}{{3.49}{37}{Método de Euler implícito}{equation.3.6.49}{}}
\newlabel{TaylorDerivada}{{3.50}{37}{Método de Euler implícito}{equation.3.6.50}{}}
\newlabel{TaylorEulerAtrasGeneral}{{3.51}{37}{Método de Euler implícito}{equation.3.6.51}{}}
\newlabel{aprox_del_metodo_de_euler_atras}{{3.52}{37}{Método de Euler implícito}{equation.3.6.52}{}}
\newlabel{Euler_hacia_atras}{{3.53}{37}{Método de Euler implícito}{equation.3.6.53}{}}
\newlabel{itera_metodo_de_euler_haci_atras}{{3.56}{38}{Método de Euler implícito}{equation.3.6.56}{}}
\newlabel{region_de_estabilidad1}{{3.57}{38}{Método de Euler implícito}{equation.3.6.57}{}}
\@writefile{lof}{\contentsline {figure}{\numberline {3.6.4}{\ignorespaces Regi\IeC {\'o}n de estabilidad para Euler hacia atr\IeC {\'a}s.\relax }}{38}{figure.caption.19}}
\newlabel{region_de_estabilidad_metodo_de_euler_hacia_atras}{{3.6.4}{38}{Región de estabilidad para Euler hacia atrás.\relax }{figure.caption.19}{}}
\citation{a2}
\newlabel{corrector_predictor_euler}{{3.58}{39}{Método de Euler implícito}{equation.3.6.58}{}}
\newlabel{punto_fijo}{{3.59}{39}{Método de Euler implícito}{equation.3.6.59}{}}
\@writefile{brf}{\backcite{a2}{{39}{3.6.2}{equation.3.6.60}}}
\@writefile{lof}{\contentsline {figure}{\numberline {3.6.5}{\ignorespaces Soluci\IeC {\'o}n empleando el m\IeC {\'e}todo de Euler hacia atr\IeC {\'a}s para pasos de $h=0.5,(0.1),(0.01)$, donde $Y(t)$ es la soluci\IeC {\'o}n exacta.\relax }}{40}{figure.caption.20}}
\newlabel{Grafico_metodo_de_euler_hacia_atras}{{3.6.5}{40}{Solución empleando el método de Euler hacia atrás para pasos de $h=0.5,(0.1),(0.01)$, donde $Y(t)$ es la solución exacta.\relax }{figure.caption.20}{}}
\newlabel{tablaUno}{{\caption@xref {tablaUno}{ on input line 1421}}{41}{Método de Euler implícito}{table.caption.21}{}}
\@writefile{lot}{\contentsline {table}{\numberline {3.6.2}{\ignorespaces Tabla de resultados para el m\IeC {\'e}todo de Euler impl\IeC {\'\i }cito.\relax }}{41}{table.caption.21}}
\newlabel{TablaEulerImplicito}{{3.6.2}{41}{Tabla de resultados para el método de Euler implícito.\relax }{table.caption.21}{}}
\@writefile{toc}{\contentsline {section}{\numberline {3.7}M\IeC {\'e}todos de Runge-Kutta}{42}{section.3.7}}
\newlabel{Metodos_de_Runge_Kutta_0}{{3.62}{42}{Métodos de Runge-Kutta}{equation.3.7.62}{}}
\newlabel{Metodos_de_Runge_Kutta_1}{{3.63}{42}{Métodos de Runge-Kutta}{equation.3.7.63}{}}
\newlabel{Metodos_de_Runge_Kutta_2}{{3.64}{42}{Métodos de Runge-Kutta}{equation.3.7.64}{}}
\newlabel{RK2}{{3.66}{43}{Métodos de Runge-Kutta}{equation.3.7.66}{}}
\@writefile{toc}{\contentsline {subsection}{\numberline {3.7.1}Un m\IeC {\'e}todo de RK de orden dos}{44}{subsection.3.7.1}}
\newlabel{RK2_2}{{3.73b}{45}{Un método de RK de orden dos}{equation.3.7.73alph2}{}}
\@writefile{lof}{\contentsline {figure}{\numberline {3.7.1}{\ignorespaces Soluci\IeC {\'o}n empleando el m\IeC {\'e}todo de Runge Kutta de orden dos.\relax }}{45}{figure.caption.22}}
\newlabel{GRAFICO_METODO_DE_RUNGE_KUTTA}{{3.7.1}{45}{Solución empleando el método de Runge Kutta de orden dos.\relax }{figure.caption.22}{}}
\newlabel{tablaUno}{{\caption@xref {tablaUno}{ on input line 1681}}{46}{Un método de RK de orden dos}{table.caption.23}{}}
\@writefile{lot}{\contentsline {table}{\numberline {3.7.1}{\ignorespaces Tabla de resultados para el m\IeC {\'e}todo de Runge Kutta de orden dos.\relax }}{46}{table.caption.23}}
\newlabel{TablaRungeKutta2}{{3.7.1}{46}{Tabla de resultados para el método de Runge Kutta de orden dos.\relax }{table.caption.23}{}}
\citation{ar8}
\citation{ar8}
\citation{ar8}
\citation{ar8}
\@writefile{toc}{\contentsline {subsection}{\numberline {3.7.2}Cero estabilidad}{47}{subsection.3.7.2}}
\newlabel{metodo_magico}{{3.75}{47}{Cero estabilidad}{equation.3.7.75}{}}
\@writefile{brf}{\backcite{ar8}{{47}{3.7.1}{teo.3.7.1}}}
\newlabel{CondicionDeRaiz1}{{3.7.1}{47}{Cero estabilidad}{teo.3.7.1}{}}
\newlabel{CondicionDeRaiz}{{3.7.1}{47}{}{Definicion.3.7.1}{}}
\@writefile{brf}{\backcite{ar8}{{47}{3.7.1}{Definicion.3.7.1}}}
\@writefile{lof}{\contentsline {figure}{\numberline {3.7.2}{\ignorespaces Estabilidad anal\IeC {\'\i }tica y num\IeC {\'e}rica total \cite  {ar8}.\relax }}{47}{figure.caption.24}}
\@writefile{brf}{\backcite{ar8}{{47}{3.7.2}{figure.caption.24}}}
\newlabel{FiguraEstabilidadTotal}{{3.7.2}{47}{Estabilidad analítica y numérica total \cite {ar8}.\relax }{figure.caption.24}{}}
\@writefile{toc}{\contentsline {chapter}{\numberline {4}Desarrollo de aplicaciones para tel\IeC {\'e}fonos inteligentes}{49}{chapter.4}}
\@writefile{lof}{\addvspace {10\p@ }}
\@writefile{lot}{\addvspace {10\p@ }}
\newlabel{EcuacionDeSegundoGrado}{{4.1}{49}{Desarrollo de aplicaciones para teléfonos inteligentes}{equation.4.0.1}{}}
\citation{a5}
\citation{ar6}
\citation{ar6}
\citation{a6}
\citation{ar5}
\@writefile{toc}{\contentsline {section}{\numberline {4.1}Introducci\IeC {\'o}n}{50}{section.4.1}}
\@writefile{brf}{\backcite{a5}{{50}{4.1}{section.4.1}}}
\@writefile{lof}{\contentsline {figure}{\numberline {4.1.1}{\ignorespaces Popularidad de lenguajes de programaci\IeC {\'o}n en el mundo \cite  {ar6}.\relax }}{51}{figure.caption.25}}
\@writefile{brf}{\backcite{ar6}{{51}{4.1.1}{figure.caption.25}}}
\newlabel{LenguajesDeProgramacion}{{4.1.1}{51}{Popularidad de lenguajes de programación en el mundo \cite {ar6}.\relax }{figure.caption.25}{}}
\@writefile{toc}{\contentsline {section}{\numberline {4.2}Java}{51}{section.4.2}}
\@writefile{brf}{\backcite{a6}{{51}{4.2}{section.4.2}}}
\@writefile{brf}{\backcite{ar5}{{51}{4.2}{section.4.2}}}
\@writefile{toc}{\contentsline {subsection}{\numberline {4.2.1}Paradigmas de la programaci\IeC {\'o}n}{51}{subsection.4.2.1}}
\@writefile{toc}{\contentsline {subsection}{\numberline {4.2.2}Objetos}{52}{subsection.4.2.2}}
\citation{ar5}
\citation{ar5}
\@writefile{lof}{\contentsline {figure}{\numberline {4.2.1}{\ignorespaces Estructura general de un objeto \cite  {ar5}.\relax }}{53}{figure.caption.26}}
\@writefile{brf}{\backcite{ar5}{{53}{4.2.1}{figure.caption.26}}}
\newlabel{ObjetoDeJava}{{4.2.1}{53}{Estructura general de un objeto \cite {ar5}.\relax }{figure.caption.26}{}}
\@writefile{lof}{\contentsline {figure}{\numberline {4.2.2}{\ignorespaces Dise\IeC {\~n}o de objetos de la clase racional.\relax }}{54}{figure.caption.27}}
\newlabel{Objetogelatina}{{4.2.2}{54}{Diseño de objetos de la clase racional.\relax }{figure.caption.27}{}}
\@writefile{lof}{\contentsline {figure}{\numberline {4.2.3}{\ignorespaces Programa en Java para definir un objeto de tipo {\it  racional}.\relax }}{55}{figure.caption.28}}
\newlabel{Programa1}{{4.2.3}{55}{Programa en Java para definir un objeto de tipo {\it racional}.\relax }{figure.caption.28}{}}
\@writefile{lof}{\contentsline {figure}{\numberline {4.2.4}{\ignorespaces Programa en Java para definir un objeto de tipo {\tt  persona}.\relax }}{56}{figure.caption.29}}
\newlabel{Programa3}{{4.2.4}{56}{Programa en Java para definir un objeto de tipo {\tt persona}.\relax }{figure.caption.29}{}}
\@writefile{toc}{\contentsline {subsection}{\numberline {4.2.3}T\IeC {\'e}cnicas de la POO}{57}{subsection.4.2.3}}
\@writefile{lof}{\contentsline {figure}{\numberline {4.2.5}{\ignorespaces Herencia simple y herencia m\IeC {\'u}ltiple, respectivamente.\relax }}{58}{figure.caption.30}}
\newlabel{HerenciaSimpleYMultiple}{{4.2.5}{58}{Herencia simple y herencia múltiple, respectivamente.\relax }{figure.caption.30}{}}
\@writefile{lof}{\contentsline {figure}{\numberline {4.2.6}{\ignorespaces Ejemplo de herencia simple para dos clases.\relax }}{59}{figure.caption.31}}
\newlabel{EjemploDePolimorfismo}{{4.2.6}{59}{Ejemplo de herencia simple para dos clases.\relax }{figure.caption.31}{}}
\@writefile{lof}{\contentsline {figure}{\numberline {4.2.7}{\ignorespaces Programa en Java, polimorfismo.\relax }}{59}{figure.caption.32}}
\newlabel{Programa3_algo}{{4.2.7}{59}{Programa en Java, polimorfismo.\relax }{figure.caption.32}{}}
\@writefile{toc}{\contentsline {subsection}{\numberline {4.2.4}Una clase para resolver ecuaciones cuadr\IeC {\'a}ticas}{60}{subsection.4.2.4}}
\newlabel{solucionecuacioncuadratica}{{4.2}{60}{Una clase para resolver ecuaciones cuadráticas}{equation.4.2.2}{}}
\@writefile{lof}{\contentsline {figure}{\numberline {4.2.8}{\ignorespaces Programa en Java para definir un objeto de tipo {\tt  ecCuad}.\relax }}{60}{figure.caption.33}}
\newlabel{Programa4}{{4.2.8}{60}{Programa en Java para definir un objeto de tipo {\tt ecCuad}.\relax }{figure.caption.33}{}}
\citation{ar7}
\citation{ar7}
\@writefile{toc}{\contentsline {section}{\numberline {4.3}Android}{61}{section.4.3}}
\@writefile{lof}{\contentsline {figure}{\numberline {4.3.1}{\ignorespaces Popularidad de sistemas operativos en dispositivos m\IeC {\'o}viles \cite  {ar7}.\relax }}{61}{figure.caption.34}}
\@writefile{brf}{\backcite{ar7}{{61}{4.3.1}{figure.caption.34}}}
\newlabel{Lenguajes}{{4.3.1}{61}{Popularidad de sistemas operativos en dispositivos móviles \cite {ar7}.\relax }{figure.caption.34}{}}
\@writefile{toc}{\contentsline {subsection}{\numberline {4.3.1}Importancia de Android como sistema operativo}{61}{subsection.4.3.1}}
\citation{a5}
\citation{a5}
\@writefile{toc}{\contentsline {subsection}{\numberline {4.3.2}Arquitectura de Android}{62}{subsection.4.3.2}}
\@writefile{toc}{\contentsline {subsection}{\numberline {4.3.3}Versiones API}{62}{subsection.4.3.3}}
\@writefile{lof}{\contentsline {figure}{\numberline {4.3.2}{\ignorespaces Arquitectura de Android \cite  {a5}.\relax }}{63}{figure.caption.35}}
\@writefile{brf}{\backcite{a5}{{63}{4.3.2}{figure.caption.35}}}
\newlabel{ArquitecturaAndroid}{{4.3.2}{63}{Arquitectura de Android \cite {a5}.\relax }{figure.caption.35}{}}
\@writefile{toc}{\contentsline {subsection}{\numberline {4.3.4}Primer programa en Android Studio}{64}{subsection.4.3.4}}
\@writefile{lof}{\contentsline {figure}{\numberline {4.3.3}{\ignorespaces Iniciando programa en Android Studio.\relax }}{64}{figure.caption.36}}
\newlabel{PrimerPaso}{{4.3.3}{64}{Iniciando programa en Android Studio.\relax }{figure.caption.36}{}}
\@writefile{lof}{\contentsline {figure}{\numberline {4.3.4}{\ignorespaces Versi\IeC {\'o}n de Android.\relax }}{65}{figure.caption.37}}
\newlabel{SegundoPaso}{{4.3.4}{65}{Versión de Android.\relax }{figure.caption.37}{}}
\@writefile{lot}{\contentsline {table}{\numberline {4.3.1}{\ignorespaces Porcentaje de uso de versiones de Android en 2018.\relax }}{65}{table.caption.38}}
\newlabel{tablaVersionANDROID}{{4.3.1}{65}{Porcentaje de uso de versiones de Android en 2018.\relax }{table.caption.38}{}}
\@writefile{lof}{\contentsline {figure}{\numberline {4.3.5}{\ignorespaces Tipos de interfaz de usuario.\relax }}{66}{figure.caption.39}}
\newlabel{TercerPaso}{{4.3.5}{66}{Tipos de interfaz de usuario.\relax }{figure.caption.39}{}}
\@writefile{lof}{\contentsline {figure}{\numberline {4.3.6}{\ignorespaces Asignaci\IeC {\'o}n de nombres para la interfaz de usuario.\relax }}{66}{figure.caption.40}}
\newlabel{CuartoPaso}{{4.3.6}{66}{Asignación de nombres para la interfaz de usuario.\relax }{figure.caption.40}{}}
\@writefile{lof}{\contentsline {figure}{\numberline {4.3.7}{\ignorespaces Panorama general de programaci\IeC {\'o}n.\relax }}{67}{figure.caption.41}}
\newlabel{QuintoPaso}{{4.3.7}{67}{Panorama general de programación.\relax }{figure.caption.41}{}}
\@writefile{lof}{\contentsline {figure}{\numberline {4.3.8}{\ignorespaces Versi\IeC {\'o}n de Android.\relax }}{67}{figure.caption.42}}
\newlabel{SextoPaso}{{4.3.8}{67}{Versión de Android.\relax }{figure.caption.42}{}}
\@writefile{lof}{\contentsline {figure}{\numberline {4.3.9}{\ignorespaces Aplicaci\IeC {\'o}n del celular.\relax }}{67}{figure.caption.43}}
\newlabel{Septimopaso}{{4.3.9}{67}{Aplicación del celular.\relax }{figure.caption.43}{}}
\@writefile{toc}{\contentsline {subsection}{\numberline {4.3.5}Componentes de una aplicaci\IeC {\'o}n}{68}{subsection.4.3.5}}
\@writefile{toc}{\contentsline {subsection}{\numberline {4.3.6}Ciclo de vida de una aplicaci\IeC {\'o}n}{70}{subsection.4.3.6}}
\@writefile{lof}{\contentsline {figure}{\numberline {4.3.10}{\ignorespaces Ciclo de vida de una aplicaci\IeC {\'o}n.\relax }}{70}{figure.caption.44}}
\newlabel{OctavoPaso}{{4.3.10}{70}{Ciclo de vida de una aplicación.\relax }{figure.caption.44}{}}
\citation{a5}
\@writefile{toc}{\contentsline {subsection}{\numberline {4.3.7}Interfaz de usuario con archivos XML}{71}{subsection.4.3.7}}
\@writefile{brf}{\backcite{a5}{{71}{4.3.7}{subsection.4.3.7}}}
\@writefile{lof}{\contentsline {figure}{\numberline {4.3.11}{\ignorespaces Panorama general de programaci\IeC {\'o}n.\relax }}{71}{figure.caption.45}}
\newlabel{NovenoPaso1}{{4.3.11}{71}{Panorama general de programación.\relax }{figure.caption.45}{}}
\@writefile{toc}{\contentsline {section}{\numberline {4.4}Interfaz de usuario para resolver la ecuaci\IeC {\'o}n cuadr\IeC {\'a}tica}{72}{section.4.4}}
\@writefile{lof}{\contentsline {figure}{\numberline {4.4.1}{\ignorespaces Panorama general de programaci\IeC {\'o}n.\relax }}{72}{figure.caption.46}}
\newlabel{NovenoPaso}{{4.4.1}{72}{Panorama general de programación.\relax }{figure.caption.46}{}}
\@writefile{lof}{\contentsline {figure}{\numberline {4.4.2}{\ignorespaces Estructura para la aplicaci\IeC {\'o}n {\tt  EcCuadratica}.\relax }}{72}{figure.caption.47}}
\newlabel{ArbolBinarioDeLinearLayout}{{4.4.2}{72}{Estructura para la aplicación {\tt EcCuadratica}.\relax }{figure.caption.47}{}}
\@writefile{toc}{\contentsline {section}{\numberline {4.5}Acoplamiento entre la interfaz de usuario y el programa en Java}{74}{section.4.5}}
\@writefile{lof}{\contentsline {figure}{\numberline {4.5.1}{\ignorespaces Atributos que se incluyen para la aplicaci\IeC {\'o}n de la ecuaci\IeC {\'o}n cuadr\IeC {\'a}tica.\relax }}{74}{figure.caption.48}}
\newlabel{Programa_valores}{{4.5.1}{74}{Atributos que se incluyen para la aplicación de la ecuación cuadrática.\relax }{figure.caption.48}{}}
\@writefile{lof}{\contentsline {figure}{\numberline {4.5.2}{\ignorespaces Asignaci\IeC {\'o}n de vistas ({\tt  views}) para enlazar la interfaz de usuario.\relax }}{75}{figure.caption.49}}
\newlabel{Programa_valores1}{{4.5.2}{75}{Asignación de vistas ({\tt views}) para enlazar la interfaz de usuario.\relax }{figure.caption.49}{}}
\@writefile{lof}{\contentsline {figure}{\numberline {4.5.3}{\ignorespaces Lectura de vistas ({\tt  views}) para asignar valores de entrada.\relax }}{75}{figure.caption.50}}
\newlabel{ManejoDeVariablesDesdeXML}{{4.5.3}{75}{Lectura de vistas ({\tt views}) para asignar valores de entrada.\relax }{figure.caption.50}{}}
\@writefile{lof}{\contentsline {figure}{\numberline {4.5.4}{\ignorespaces Clase que resuelve el problema de la ecuaci\IeC {\'o}n cuadr\IeC {\'a}tica.\relax }}{76}{figure.caption.51}}
\newlabel{ClaseParaLaAppDeLaEcCuadratica}{{4.5.4}{76}{Clase que resuelve el problema de la ecuación cuadrática.\relax }{figure.caption.51}{}}
\@writefile{lof}{\contentsline {figure}{\numberline {4.5.5}{\ignorespaces Programa general para hacer funcionar la aplicaci\IeC {\'o}n de la ecuaci\IeC {\'o}n cuadr\IeC {\'a}tica.\relax }}{77}{figure.caption.52}}
\newlabel{AplicacionQueResuelveLaEcuacionCuadratica}{{4.5.5}{77}{Programa general para hacer funcionar la aplicación de la ecuación cuadrática.\relax }{figure.caption.52}{}}
\@writefile{toc}{\contentsline {chapter}{\numberline {5}An\IeC {\'a}lisis y dise\IeC {\~n}o del sistema}{78}{chapter.5}}
\@writefile{lof}{\addvspace {10\p@ }}
\@writefile{lot}{\addvspace {10\p@ }}
\@writefile{toc}{\contentsline {section}{\numberline {5.1}Plan r\IeC {\'a}pido}{78}{section.5.1}}
\citation{arr7}
\citation{arr7}
\citation{arr7}
\citation{arr7}
\@writefile{lof}{\contentsline {figure}{\numberline {5.1.1}{\ignorespaces Aplicaci\IeC {\'o}n {\it  DE Solver} \cite  {arr7}.\relax }}{79}{figure.caption.53}}
\@writefile{brf}{\backcite{arr7}{{79}{5.1.1}{figure.caption.53}}}
\@writefile{lof}{\contentsline {subfigure}{\numberline{(a)}{\ignorespaces {Editor}}}{79}{subfigure.1.1}}
\@writefile{lof}{\contentsline {subfigure}{\numberline{(b)}{\ignorespaces {Men\IeC {\'u}}}}{79}{subfigure.1.2}}
\@writefile{lof}{\contentsline {subfigure}{\numberline{(c)}{\ignorespaces {Gr\IeC {\'a}fica}}}{79}{subfigure.1.3}}
\@writefile{lof}{\contentsline {figure}{\numberline {5.1.2}{\ignorespaces Aplicaci\IeC {\'o}n {\it  Diferential Solver} \cite  {arr7}.\relax }}{79}{figure.caption.54}}
\@writefile{brf}{\backcite{arr7}{{79}{5.1.2}{figure.caption.54}}}
\@writefile{lof}{\contentsline {subfigure}{\numberline{(a)}{\ignorespaces {Editor}}}{79}{subfigure.2.1}}
\@writefile{lof}{\contentsline {subfigure}{\numberline{(b)}{\ignorespaces {Men\IeC {\'u}}}}{79}{subfigure.2.2}}
\@writefile{lof}{\contentsline {subfigure}{\numberline{(c)}{\ignorespaces {Gr\IeC {\'a}fica}}}{79}{subfigure.2.3}}
\@writefile{toc}{\contentsline {section}{\numberline {5.2}Modelo de dise\IeC {\~n}o r\IeC {\'a}pido}{81}{section.5.2}}
\@writefile{toc}{\contentsline {section}{\numberline {5.3} An\IeC {\'a}lisis de un compilador}{81}{section.5.3}}
\@writefile{toc}{\contentsline {subsection}{\numberline {5.3.1}Terminolog\IeC {\'\i }a b\IeC {\'a}sica}{82}{subsection.5.3.1}}
\@writefile{toc}{\contentsline {subsection}{\numberline {5.3.2}Analizador L\IeC {\'e}xico}{84}{subsection.5.3.2}}
\citation{b5}
\citation{b5}
\citation{b5}
\citation{b5}
\citation{b5}
\@writefile{lof}{\contentsline {figure}{\numberline {5.3.1}{\ignorespaces Comunicaci\IeC {\'o}n entre el analizador l\IeC {\'e}xico, sint\IeC {\'a}ctico y nodos del \IeC {\'a}rbol binario \cite  {b5}.\relax }}{85}{figure.caption.56}}
\@writefile{brf}{\backcite{b5}{{85}{5.3.1}{figure.caption.56}}}
\newlabel{analizadorlexicosintactivo}{{5.3.1}{85}{Comunicación entre el analizador léxico, sintáctico y nodos del árbol binario \cite {b5}.\relax }{figure.caption.56}{}}
\@writefile{brf}{\backcite{b5}{{85}{5.3.2}{figure.caption.56}}}
\@writefile{lot}{\contentsline {table}{\numberline {5.3.1}{\ignorespaces Tabla de s\IeC {\'\i }mbolos \cite  {b5}.\relax }}{85}{table.caption.57}}
\@writefile{brf}{\backcite{b5}{{85}{5.3.1}{table.caption.57}}}
\newlabel{Def_expresion_regular}{{5.3.13}{86}{}{Item.69}{}}
\newlabel{CAP5_identificador}{{5.2}{86}{Analizador Léxico}{equation.5.3.2}{}}
\@writefile{lot}{\contentsline {table}{\numberline {5.3.2}{\ignorespaces Expresiones regulares para el analizador l\IeC {\'e}xico.\relax }}{87}{table.caption.59}}
\newlabel{er_capitulo5}{{5.3.2}{87}{Expresiones regulares para el analizador léxico.\relax }{table.caption.59}{}}
\newlabel{ejemplo1_capitulo5}{{5.3.1}{88}{}{teo.5.3.1}{}}
\@writefile{lof}{\contentsline {figure}{\numberline {5.3.2}{\ignorespaces Aut\IeC {\'o}mata del problema \ref  {ejemplo1_capitulo5}.\relax }}{88}{figure.caption.62}}
\newlabel{ejemplo2_capitulo5}{{5.3.2}{89}{}{teo.5.3.2}{}}
\@writefile{lof}{\contentsline {figure}{\numberline {5.3.3}{\ignorespaces Aut\IeC {\'o}mata finito del problema \ref  {ejemplo2_capitulo5}.\relax }}{89}{figure.caption.65}}
\@writefile{lot}{\contentsline {table}{\numberline {5.3.3}{\ignorespaces Ejemplo de comportamiento de la funci\IeC {\'o}n de transici\IeC {\'o}n extendida para la palabra $baba$ correspondiente al ejemplo \ref  {ejemplo2_capitulo5}.\relax }}{90}{table.caption.66}}
\citation{a7}
\@writefile{brf}{\backcite{a7}{{91}{5.3.20}{Definicion.5.3.20}}}
\newlabel{ejemplo3_capitulo5}{{5.3.3}{92}{}{teo.5.3.3}{}}
\@writefile{lof}{\contentsline {figure}{\numberline {5.3.4}{\ignorespaces Aut\IeC {\'o}mata finito del problema \ref  {ejemplo3_capitulo5}.\relax }}{92}{figure.caption.69}}
\@writefile{lot}{\contentsline {table}{\numberline {5.3.4}{\ignorespaces Ejemplo de comportamiento de la funci\IeC {\'o}n de transici\IeC {\'o}n extendida para la palabra $baba$ correspondiente al ejemplo \ref  {ejemplo3_capitulo5}.\relax }}{92}{table.caption.70}}
\newlabel{ejemplo4_capitulo5}{{5.3.4}{93}{}{teo.5.3.4}{}}
\@writefile{lof}{\contentsline {figure}{\numberline {5.3.5}{\ignorespaces Aut\IeC {\'o}mata del problema \ref  {ejemplo4_capitulo5}.\relax }}{93}{figure.caption.72}}
\@writefile{lof}{\contentsline {figure}{\numberline {5.3.6}{\ignorespaces AFD resultante de la Expresi\IeC {\'o}n Regular $l\cdot l^{*}$.\relax }}{97}{figure.caption.84}}
\@writefile{lof}{\contentsline {figure}{\numberline {5.3.7}{\ignorespaces AFD m\IeC {\'\i }nimo resultante de la Expresi\IeC {\'o}n Regular $l\cdot l^{*}$.\relax }}{97}{figure.caption.86}}
\newlabel{er_numero_capitulo5}{{5.5}{98}{Analizador Léxico}{equation.5.3.5}{}}
\@writefile{lof}{\contentsline {figure}{\numberline {5.3.8}{\ignorespaces AFN-$\varepsilon $ correspondiente a la expresi\IeC {\'o}n regular (\ref  {er_numero_capitulo5})\relax }}{98}{figure.caption.87}}
\newlabel{AFN_digito_capitulo5}{{5.3.8}{98}{AFN-$\varepsilon $ correspondiente a la expresión regular (\ref {er_numero_capitulo5})\relax }{figure.caption.87}{}}
\@writefile{lof}{\contentsline {figure}{\numberline {5.3.9}{\ignorespaces AFD resultante de la Expresi\IeC {\'o}n Regular $d\cdot d^{*}(\varepsilon +.d\cdot d^{*})+.d\cdot d^{*}$.\relax }}{99}{figure.caption.90}}
\newlabel{automata_entero_real_capitulo5}{{5.3.9}{99}{AFD resultante de la Expresión Regular $d\cdot d^{*}(\varepsilon +.d\cdot d^{*})+.d\cdot d^{*}$.\relax }{figure.caption.90}{}}
\@writefile{lof}{\contentsline {figure}{\numberline {5.3.10}{\ignorespaces AFD que reconoce s\IeC {\'o}lo a un s\IeC {\'\i }mbolo de $\Sigma _{3} $.\relax }}{100}{figure.caption.92}}
\@writefile{lof}{\contentsline {figure}{\numberline {5.3.11}{\ignorespaces AFD m\IeC {\'\i }nimo resultante de la Expresi\IeC {\'o}n Regular $l\cdot l^{*}$.\relax }}{101}{figure.caption.93}}
\@writefile{toc}{\contentsline {subsection}{\numberline {5.3.3}Analizador sint\IeC {\'a}ctico}{102}{subsection.5.3.3}}
\citation{b4}
\citation{b3}
\@writefile{brf}{\backcite{b4}{{103}{5.3.3}{table.caption.95}}}
\@writefile{brf}{\backcite{b3}{{103}{5.3.25}{Definicion.5.3.25}}}
\citation{b6}
\@writefile{brf}{\backcite{b6}{{104}{5.3.26}{Definicion.5.3.26}}}
\citation{b4}
\citation{b4}
\citation{b4}
\citation{b4}
\@writefile{brf}{\backcite{b4}{{107}{5.3.31}{Definicion.5.3.31}}}
\newlabel{gramatica_op1}{{5.6}{107}{}{equation.5.3.6}{}}
\@writefile{lof}{\contentsline {figure}{\numberline {5.3.12}{\ignorespaces \IeC {\'A}rboles de derivaci\IeC {\'o}n para la expresi\IeC {\'o}n $a+a*a$ usando la gram\IeC {\'a}tica (\ref  {gramatica_op1}), \cite  {b4}.\relax }}{107}{figure.caption.103}}
\@writefile{brf}{\backcite{b4}{{107}{5.3.12}{figure.caption.103}}}
\newlabel{arboles_derivacion_ejemplo1}{{5.3.12}{107}{Árboles de derivación para la expresión $a+a*a$ usando la gramática (\ref {gramatica_op1}), \cite {b4}.\relax }{figure.caption.103}{}}
\newlabel{ejemplo_gramatica_operaciones}{{5.3.9}{107}{}{figure.caption.103}{}}
\@writefile{brf}{\backcite{b4}{{107}{5.3.10}{teo.5.3.10}}}
\newlabel{teorema_gramatica_no_ambigua}{{5.3.10}{107}{\cite {b4}}{table.caption.104}{}}
\@writefile{lof}{\contentsline {figure}{\numberline {5.3.13}{\ignorespaces \IeC {\'A}rbol de derivaci\IeC {\'o}n para la expresi\IeC {\'o}n $a+a*a$ usando la gram\IeC {\'a}tica del teorema (\ref  {teorema_gramatica_no_ambigua}).\relax }}{108}{figure.caption.105}}
\newlabel{arboles_derivacion_ejemplo2}{{5.3.13}{108}{Árbol de derivación para la expresión $a+a*a$ usando la gramática del teorema (\ref {teorema_gramatica_no_ambigua}).\relax }{figure.caption.105}{}}
\citation{b6}
\@writefile{lof}{\contentsline {figure}{\numberline {5.3.14}{\ignorespaces Dos \IeC {\'a}rboles de derivaci\IeC {\'o}n correspondientes a la decisi\IeC {\'o}n de iniciar por el s\IeC {\'\i }mbolo no terminal $A$ o $B$.\relax }}{109}{figure.caption.107}}
\newlabel{ejemplo_bifurcacion_gramatica}{{5.3.14}{109}{Dos árboles de derivación correspondientes a la decisión de iniciar por el símbolo no terminal $A$ o $B$.\relax }{figure.caption.107}{}}
\@writefile{brf}{\backcite{b6}{{109}{5.3.32}{Definicion.5.3.32}}}
\citation{b6}
\newlabel{ejemplo_cap5_vacio}{{5.3.12}{111}{}{figure.caption.110}{}}
\@writefile{brf}{\backcite{b6}{{111}{5.3.33}{Definicion.5.3.33}}}
\citation{b5}
\@writefile{brf}{\backcite{b5}{{113}{5.3.3}{equation.5.3.11}}}
\@writefile{lof}{\contentsline {figure}{\numberline {5.3.15}{\ignorespaces $S::=\ T\ \{\ +T\ |\ -T\ \} $\relax }}{114}{figure.caption.114}}
\@writefile{lof}{\contentsline {figure}{\numberline {5.3.16}{\ignorespaces $T::=\ F\ \{\ *F\ |\ /F\ \} $\relax }}{114}{figure.caption.115}}
\@writefile{lof}{\contentsline {figure}{\numberline {5.3.17}{\ignorespaces $F::=\ P\ |\ (S)\ |\ -F\ |\ +F$\relax }}{114}{figure.caption.116}}
\@writefile{lof}{\contentsline {figure}{\numberline {5.3.18}{\ignorespaces $P::=\ num\ |\ id(S)\ |\ var$\relax }}{114}{figure.caption.117}}
\@writefile{toc}{\contentsline {subsection}{\numberline {5.3.4}Algoritmo para decidir si una palabra est\IeC {\'a} en un lenguaje $w\in L(G)$}{115}{subsection.5.3.4}}
\newlabel{ec1_cap5}{{5.13}{115}{Algoritmo para decidir si una palabra está en un lenguaje $w\in L(G)$}{equation.5.3.13}{}}
\newlabel{ec1_cap5}{{5.14}{115}{Algoritmo para decidir si una palabra está en un lenguaje $w\in L(G)$}{equation.5.3.14}{}}
\@writefile{toc}{\contentsline {subsection}{\numberline {5.3.5}Ejemplo de gram\IeC {\'a}tica para programar}{116}{subsection.5.3.5}}
\@writefile{lof}{\contentsline {figure}{\numberline {5.3.19}{\ignorespaces Proceso para almacenar un conjunto de operaciones aritm\IeC {\'e}ticas como una funci\IeC {\'o}n en la estructura de \IeC {\'a}rbol binario.\relax }}{122}{figure.caption.119}}
\newlabel{arboles_binarios_aritmeticos}{{5.3.19}{122}{Proceso para almacenar un conjunto de operaciones aritméticas como una función en la estructura de árbol binario.\relax }{figure.caption.119}{}}
\@writefile{toc}{\contentsline {section}{\numberline {5.4}Interfaz de usuario en XML}{123}{section.5.4}}
\@writefile{lof}{\contentsline {figure}{\numberline {5.4.1}{\ignorespaces Interfaz de usuario usando ninjaMock.\relax }}{123}{figure.caption.120}}
\@writefile{toc}{\contentsline {section}{\numberline {5.5}Pseudoc\IeC {\'o}digo para programar los m\IeC {\'e}todos num\IeC {\'e}ricos a fin de resolver el PVI}{124}{section.5.5}}
\@writefile{toc}{\contentsline {chapter}{\numberline {6}Dise\IeC {\~n}o de la aplicaci\IeC {\'o}n y su uso }{126}{chapter.6}}
\@writefile{lof}{\addvspace {10\p@ }}
\@writefile{lot}{\addvspace {10\p@ }}
\@writefile{toc}{\contentsline {section}{\numberline {6.1}Etapas de dise\IeC {\~n}o de la aplicaci\IeC {\'o}n: c\IeC {\'o}digo Java}{126}{section.6.1}}
\@writefile{toc}{\contentsline {subsection}{\numberline {6.1.1}Clase \textit  {Methods}}{126}{subsection.6.1.1}}
\newlabel{PVICAP6}{{6.1}{127}{Clase \textit {Methods}}{equation.6.1.1alph2}{}}
\@writefile{lof}{\contentsline {figure}{\numberline {6.1.1}{\ignorespaces Funciones y variables de la clase {\tt  Methods}.\relax }}{127}{figure.caption.121}}
\newlabel{ClaseMethods_imp}{{6.1.1}{127}{Funciones y variables de la clase {\tt Methods}.\relax }{figure.caption.121}{}}
\@writefile{toc}{\contentsline {subsection}{\numberline {6.1.2}Clase \textit  {p1alex}}{128}{subsection.6.1.2}}
\@writefile{lof}{\contentsline {figure}{\numberline {6.1.2}{\ignorespaces Gram\IeC {\'a}tica libre de contexto.\relax }}{129}{figure.caption.122}}
\newlabel{GLC1}{{6.1.2}{129}{Gramática libre de contexto.\relax }{figure.caption.122}{}}
\@writefile{lof}{\contentsline {figure}{\numberline {6.1.3}{\ignorespaces Gram\IeC {\'a}tica libre de contexto.\relax }}{129}{figure.caption.123}}
\newlabel{GLC2}{{6.1.3}{129}{Gramática libre de contexto.\relax }{figure.caption.123}{}}
\@writefile{toc}{\contentsline {subsection}{\numberline {6.1.3}Clase \textit  {graficador}}{129}{subsection.6.1.3}}
\@writefile{toc}{\contentsline {subsection}{\numberline {6.1.4}Clase \textit  {principal}}{129}{subsection.6.1.4}}
\@writefile{lof}{\contentsline {figure}{\numberline {6.1.4}{\ignorespaces Como ingresar datos al ejecutar la clase {\tt  principal}.\relax }}{130}{figure.caption.124}}
\newlabel{ClaseMethods}{{6.1.4}{130}{Como ingresar datos al ejecutar la clase {\tt principal}.\relax }{figure.caption.124}{}}
\@writefile{lof}{\contentsline {figure}{\numberline {6.1.5}{\ignorespaces Resultado de la gr\IeC {\'a}fica en formato PostScript.\relax }}{130}{figure.caption.125}}
\newlabel{JavaEjemploPS}{{6.1.5}{130}{Resultado de la gráfica en formato PostScript.\relax }{figure.caption.125}{}}
\@writefile{lof}{\contentsline {figure}{\numberline {6.1.6}{\ignorespaces \IeC {\'A}rbol binario correspondiente a la ecuaci\IeC {\'o}n diferencial usando Graphviz.\relax }}{131}{figure.caption.126}}
\newlabel{Arbol_binario_graphviz}{{6.1.6}{131}{Árbol binario correspondiente a la ecuación diferencial usando Graphviz.\relax }{figure.caption.126}{}}
\@writefile{lof}{\contentsline {figure}{\numberline {6.1.7}{\ignorespaces Ejemplo de error al ejecutar la clase {\tt  principal}.\relax }}{131}{figure.caption.127}}
\newlabel{ClaseMethods}{{6.1.7}{131}{Ejemplo de error al ejecutar la clase {\tt principal}.\relax }{figure.caption.127}{}}
\citation{ar10}
\@writefile{toc}{\contentsline {subsection}{\numberline {6.1.5}Algunos ejemplos realizados con las clases}{132}{subsection.6.1.5}}
\@writefile{brf}{\backcite{ar10}{{132}{6.1.5}{subsection.6.1.5}}}
\@writefile{lof}{\contentsline {figure}{\numberline {6.1.8}{\ignorespaces Soluci\IeC {\'o}n al PVI usando la terminal.\relax }}{132}{figure.caption.128}}
\newlabel{ClaseMethods}{{6.1.8}{132}{Solución al PVI usando la terminal.\relax }{figure.caption.128}{}}
\@writefile{lof}{\contentsline {figure}{\numberline {6.1.9}{\ignorespaces Resultado de la gr\IeC {\'a}fica en formato PostScript.\relax }}{132}{figure.caption.129}}
\newlabel{ClaseJavaEjemplo1}{{6.1.9}{132}{Resultado de la gráfica en formato PostScript.\relax }{figure.caption.129}{}}
\@writefile{toc}{\contentsline {section}{\numberline {6.2}Etapas de dise\IeC {\~n}o de la aplicaci\IeC {\'o}n: archivo XML}{133}{section.6.2}}
\@writefile{lof}{\contentsline {figure}{\numberline {6.2.1}{\ignorespaces Formulario de la primera aplicaci\IeC {\'o}n.\relax }}{133}{figure.caption.130}}
\newlabel{APP1}{{6.2.1}{133}{Formulario de la primera aplicación.\relax }{figure.caption.130}{}}
\@writefile{lof}{\contentsline {figure}{\numberline {6.2.2}{\ignorespaces Gr\IeC {\'a}fica correspondiente al formulario de la primera aplicaci\IeC {\'o}n.\relax }}{133}{figure.caption.131}}
\newlabel{APP2}{{6.2.2}{133}{Gráfica correspondiente al formulario de la primera aplicación.\relax }{figure.caption.131}{}}
\@writefile{lof}{\contentsline {figure}{\numberline {6.2.3}{\ignorespaces Variables para lanzar aplicaci\IeC {\'o}n y agregar a la memoria.\relax }}{134}{figure.caption.132}}
\newlabel{Intent}{{6.2.3}{134}{Variables para lanzar aplicación y agregar a la memoria.\relax }{figure.caption.132}{}}
\@writefile{lof}{\contentsline {figure}{\numberline {6.2.4}{\ignorespaces Regreso de variables para generar la gr\IeC {\'a}fica.\relax }}{135}{figure.caption.133}}
\newlabel{IntentBueno}{{6.2.4}{135}{Regreso de variables para generar la gráfica.\relax }{figure.caption.133}{}}
\@writefile{lof}{\contentsline {figure}{\numberline {6.2.5}{\ignorespaces Segunda versi\IeC {\'o}n de la interfaz de usuario.\relax }}{135}{figure.caption.134}}
\newlabel{APP3}{{6.2.5}{135}{Segunda versión de la interfaz de usuario.\relax }{figure.caption.134}{}}
\citation{arr8}
\@writefile{lof}{\contentsline {figure}{\numberline {6.2.6}{\ignorespaces Funci\IeC {\'o}n que permite reaccionar dependiendo del bot\IeC {\'o}n que es presionado.\relax }}{136}{figure.caption.135}}
\newlabel{RadioGroup}{{6.2.6}{136}{Función que permite reaccionar dependiendo del botón que es presionado.\relax }{figure.caption.135}{}}
\@writefile{brf}{\backcite{arr8}{{136}{6.2}{figure.caption.136}}}
\newlabel{f:Disenio1}{{6.2.7a}{137}{Subfigure 6 6.2.7a}{subfigure.6.2.7.1}{}}
\newlabel{sub@f:Disenio1}{{(a)}{a}{Subfigure 6 6.2.7a\relax }{subfigure.6.2.7.1}{}}
\newlabel{f:Disenio2}{{6.2.7b}{137}{Subfigure 6 6.2.7b}{subfigure.6.2.7.2}{}}
\newlabel{sub@f:Disenio2}{{(b)}{b}{Subfigure 6 6.2.7b\relax }{subfigure.6.2.7.2}{}}
\newlabel{f:Disenio3}{{6.2.7c}{137}{Subfigure 6 6.2.7c}{subfigure.6.2.7.3}{}}
\newlabel{sub@f:Disenio3}{{(c)}{c}{Subfigure 6 6.2.7c\relax }{subfigure.6.2.7.3}{}}
\newlabel{f:Disenio4}{{6.2.7d}{137}{Subfigure 6 6.2.7d}{subfigure.6.2.7.4}{}}
\newlabel{sub@f:Disenio4}{{(d)}{d}{Subfigure 6 6.2.7d\relax }{subfigure.6.2.7.4}{}}
\@writefile{lof}{\contentsline {figure}{\numberline {6.2.7}{\ignorespaces Opciones para el logotipo de la aplicaci\IeC {\'o}n.\relax }}{137}{figure.caption.136}}
\newlabel{Logotipo}{{6.2.7}{137}{Opciones para el logotipo de la aplicación.\relax }{figure.caption.136}{}}
\@writefile{lof}{\contentsline {subfigure}{\numberline{(a)}{\ignorespaces {Dise\IeC {\~n}o 1}}}{137}{subfigure.7.1}}
\@writefile{lof}{\contentsline {subfigure}{\numberline{(b)}{\ignorespaces {Dise\IeC {\~n}o 2}}}{137}{subfigure.7.2}}
\@writefile{lof}{\contentsline {subfigure}{\numberline{(c)}{\ignorespaces {Dise\IeC {\~n}o 3}}}{137}{subfigure.7.3}}
\@writefile{lof}{\contentsline {subfigure}{\numberline{(d)}{\ignorespaces {Dise\IeC {\~n}o 4}}}{137}{subfigure.7.4}}
\newlabel{f:intro}{{6.2.8a}{137}{Subfigure 6 6.2.8a}{subfigure.6.2.8.1}{}}
\newlabel{sub@f:intro}{{(a)}{a}{Subfigure 6 6.2.8a\relax }{subfigure.6.2.8.1}{}}
\newlabel{f:menu}{{6.2.8b}{137}{Subfigure 6 6.2.8b}{subfigure.6.2.8.2}{}}
\newlabel{sub@f:menu}{{(b)}{b}{Subfigure 6 6.2.8b\relax }{subfigure.6.2.8.2}{}}
\newlabel{f:solver}{{6.2.8c}{137}{Subfigure 6 6.2.8c}{subfigure.6.2.8.3}{}}
\newlabel{sub@f:solver}{{(c)}{c}{Subfigure 6 6.2.8c\relax }{subfigure.6.2.8.3}{}}
\newlabel{f:grafica}{{6.2.8d}{137}{Subfigure 6 6.2.8d}{subfigure.6.2.8.4}{}}
\newlabel{sub@f:grafica}{{(d)}{d}{Subfigure 6 6.2.8d\relax }{subfigure.6.2.8.4}{}}
\@writefile{lof}{\contentsline {figure}{\numberline {6.2.8}{\ignorespaces Aplicaci\IeC {\'o}n modelo final.\relax }}{137}{figure.caption.137}}
\newlabel{AppFinal}{{6.2.8}{137}{Aplicación modelo final.\relax }{figure.caption.137}{}}
\@writefile{lof}{\contentsline {subfigure}{\numberline{(a)}{\ignorespaces {Introducci\IeC {\'o}n}}}{137}{subfigure.8.1}}
\@writefile{lof}{\contentsline {subfigure}{\numberline{(b)}{\ignorespaces {Menu principal}}}{137}{subfigure.8.2}}
\@writefile{lof}{\contentsline {subfigure}{\numberline{(c)}{\ignorespaces {Solucionador EDO}}}{137}{subfigure.8.3}}
\@writefile{lof}{\contentsline {subfigure}{\numberline{(d)}{\ignorespaces {Gr\IeC {\'a}fica}}}{137}{subfigure.8.4}}
\@writefile{lof}{\contentsline {figure}{\numberline {6.2.9}{\ignorespaces Estructura de la animaci\IeC {\'o}n.\relax }}{138}{figure.caption.138}}
\newlabel{Conjunto1}{{6.2.9}{138}{Estructura de la animación.\relax }{figure.caption.138}{}}
\@writefile{lof}{\contentsline {figure}{\numberline {6.2.10}{\ignorespaces Estructura del men\IeC {\'u}.\relax }}{138}{figure.caption.139}}
\newlabel{Conjunto01}{{6.2.10}{138}{Estructura del menú.\relax }{figure.caption.139}{}}
\@writefile{lof}{\contentsline {figure}{\numberline {6.2.11}{\ignorespaces Estructura de la interfaz para graficar.\relax }}{139}{figure.caption.140}}
\newlabel{Conjunto02}{{6.2.11}{139}{Estructura de la interfaz para graficar.\relax }{figure.caption.140}{}}
\@writefile{toc}{\contentsline {section}{\numberline {6.3}Etapas de dise\IeC {\~n}o de la aplicaci\IeC {\'o}n: incorporaci\IeC {\'o}n de c\IeC {\'o}digos Android Studio}{139}{section.6.3}}
\@writefile{lof}{\contentsline {figure}{\numberline {6.3.1}{\ignorespaces Estructura de la animaci\IeC {\'o}n.\relax }}{139}{figure.caption.141}}
\newlabel{Conjunto2_1}{{6.3.1}{139}{Estructura de la animación.\relax }{figure.caption.141}{}}
\@writefile{lof}{\contentsline {figure}{\numberline {6.3.2}{\ignorespaces Estructura de la animaci\IeC {\'o}n.\relax }}{140}{figure.caption.142}}
\newlabel{Conjunto2_2}{{6.3.2}{140}{Estructura de la animación.\relax }{figure.caption.142}{}}
\@writefile{lof}{\contentsline {figure}{\numberline {6.3.3}{\ignorespaces Estructura del men\IeC {\'u}.\relax }}{140}{figure.caption.143}}
\newlabel{Conjunto3_1}{{6.3.3}{140}{Estructura del menú.\relax }{figure.caption.143}{}}
\@writefile{lof}{\contentsline {figure}{\numberline {6.3.4}{\ignorespaces Estructura del men\IeC {\'u}.\relax }}{141}{figure.caption.144}}
\newlabel{Conjunto3_2}{{6.3.4}{141}{Estructura del menú.\relax }{figure.caption.144}{}}
\@writefile{lof}{\contentsline {figure}{\numberline {6.3.5}{\ignorespaces Estructura del formulario.\relax }}{141}{figure.caption.145}}
\newlabel{resolvedor_ode_num_1_1}{{6.3.5}{141}{Estructura del formulario.\relax }{figure.caption.145}{}}
\@writefile{lof}{\contentsline {figure}{\numberline {6.3.6}{\ignorespaces Estructura del formulario.\relax }}{142}{figure.caption.146}}
\newlabel{resolvedor_ode_num_1_2}{{6.3.6}{142}{Estructura del formulario.\relax }{figure.caption.146}{}}
\@writefile{lof}{\contentsline {figure}{\numberline {6.3.7}{\ignorespaces Estructura del formulario.\relax }}{143}{figure.caption.147}}
\newlabel{resolvedor_ode_num_1_2_1}{{6.3.7}{143}{Estructura del formulario.\relax }{figure.caption.147}{}}
\@writefile{lof}{\contentsline {figure}{\numberline {6.3.8}{\ignorespaces Estructura del formulario.\relax }}{144}{figure.caption.148}}
\newlabel{resolvedor_ode_num_2}{{6.3.8}{144}{Estructura del formulario.\relax }{figure.caption.148}{}}
\@writefile{lof}{\contentsline {figure}{\numberline {6.3.9}{\ignorespaces Estructura del formulario.\relax }}{145}{figure.caption.149}}
\newlabel{resolvedor_ode_num_2}{{6.3.9}{145}{Estructura del formulario.\relax }{figure.caption.149}{}}
\@writefile{lof}{\contentsline {figure}{\numberline {6.3.10}{\ignorespaces Estructura del formulario.\relax }}{146}{figure.caption.150}}
\newlabel{resolvedor_ode_num_2}{{6.3.10}{146}{Estructura del formulario.\relax }{figure.caption.150}{}}
\@writefile{lof}{\contentsline {figure}{\numberline {6.3.11}{\ignorespaces Estructura del graficador.\relax }}{147}{figure.caption.151}}
\newlabel{resolvedor_ode_num_3}{{6.3.11}{147}{Estructura del graficador.\relax }{figure.caption.151}{}}
\@writefile{lof}{\contentsline {figure}{\numberline {6.3.12}{\ignorespaces Estructura del graficador.\relax }}{148}{figure.caption.152}}
\newlabel{resolvedor_ode_num_3}{{6.3.12}{148}{Estructura del graficador.\relax }{figure.caption.152}{}}
\@writefile{lof}{\contentsline {figure}{\numberline {6.3.13}{\ignorespaces Estructura del graficador.\relax }}{149}{figure.caption.153}}
\newlabel{resolvedor_ode_num_3}{{6.3.13}{149}{Estructura del graficador.\relax }{figure.caption.153}{}}
\@writefile{lof}{\contentsline {figure}{\numberline {6.3.14}{\ignorespaces Estructura del graficador.\relax }}{150}{figure.caption.154}}
\newlabel{resolvedor_ode_num_3}{{6.3.14}{150}{Estructura del graficador.\relax }{figure.caption.154}{}}
\@writefile{lof}{\contentsline {figure}{\numberline {6.3.15}{\ignorespaces Estructura del graficador.\relax }}{151}{figure.caption.155}}
\newlabel{resolvedor_ode_num_3}{{6.3.15}{151}{Estructura del graficador.\relax }{figure.caption.155}{}}
\@writefile{lof}{\contentsline {figure}{\numberline {6.3.16}{\ignorespaces Estructura del graficador.\relax }}{152}{figure.caption.156}}
\newlabel{resolvedor_ode_num_3}{{6.3.16}{152}{Estructura del graficador.\relax }{figure.caption.156}{}}
\@writefile{lof}{\contentsline {figure}{\numberline {6.3.17}{\ignorespaces Estructura del graficador.\relax }}{153}{figure.caption.157}}
\newlabel{resolvedor_ode_num_3}{{6.3.17}{153}{Estructura del graficador.\relax }{figure.caption.157}{}}
\citation{a3}
\@writefile{toc}{\contentsline {section}{\numberline {6.4}Resultados de la aplicaci\IeC {\'o}n}{154}{section.6.4}}
\@writefile{brf}{\backcite{a3}{{154}{6.4}{section.6.4}}}
\newlabel{ejemplo_capitulo6_1}{{6.4.1}{154}{}{teo.6.4.1}{}}
\newlabel{EcFun_Cap6_01}{{6.5a}{154}{Resultados de la aplicación}{equation.6.4.5}{}}
\newlabel{EcFun_Cap6_02}{{6.5b}{154}{Resultados de la aplicación}{equation.6.4.5}{}}
\citation{a3}
\newlabel{f:intro}{{6.4.1a}{155}{Subfigure 6 6.4.1a}{subfigure.6.4.1.1}{}}
\newlabel{sub@f:intro}{{(a)}{a}{Subfigure 6 6.4.1a\relax }{subfigure.6.4.1.1}{}}
\newlabel{f:menu}{{6.4.1b}{155}{Subfigure 6 6.4.1b}{subfigure.6.4.1.2}{}}
\newlabel{sub@f:menu}{{(b)}{b}{Subfigure 6 6.4.1b\relax }{subfigure.6.4.1.2}{}}
\newlabel{f:solver}{{6.4.1c}{155}{Subfigure 6 6.4.1c}{subfigure.6.4.1.3}{}}
\newlabel{sub@f:solver}{{(c)}{c}{Subfigure 6 6.4.1c\relax }{subfigure.6.4.1.3}{}}
\newlabel{f:grafica}{{6.4.1d}{155}{Subfigure 6 6.4.1d}{subfigure.6.4.1.4}{}}
\newlabel{sub@f:grafica}{{(d)}{d}{Subfigure 6 6.4.1d\relax }{subfigure.6.4.1.4}{}}
\@writefile{lof}{\contentsline {figure}{\numberline {6.4.1}{\ignorespaces Aplicaci\IeC {\'o}n modelo final.\relax }}{155}{figure.caption.158}}
\newlabel{AppFinal}{{6.4.1}{155}{Aplicación modelo final.\relax }{figure.caption.158}{}}
\@writefile{lof}{\contentsline {subfigure}{\numberline{(a)}{\ignorespaces {Definici\IeC {\'o}n del PVI}}}{155}{subfigure.1.1}}
\@writefile{lof}{\contentsline {subfigure}{\numberline{(b)}{\ignorespaces {Funciones Extras}}}{155}{subfigure.1.2}}
\@writefile{lof}{\contentsline {subfigure}{\numberline{(c)}{\ignorespaces {Gr\IeC {\'a}fica Soluci\IeC {\'o}n}}}{155}{subfigure.1.3}}
\@writefile{lof}{\contentsline {subfigure}{\numberline{(d)}{\ignorespaces {Zoom de la gr\IeC {\'a}fica}}}{155}{subfigure.1.4}}
\@writefile{brf}{\backcite{a3}{{155}{6.4}{figure.caption.158}}}
\newlabel{ejemplo_capitulo6_2}{{6.4.2}{155}{}{teo.6.4.2}{}}
\newlabel{EcFun_Cap6_03}{{6.6a}{155}{Resultados de la aplicación}{equation.6.4.6}{}}
\newlabel{EcFun_Cap6_04}{{6.6b}{155}{Resultados de la aplicación}{equation.6.4.6}{}}
\newlabel{f:intro}{{6.4.2a}{155}{Subfigure 6 6.4.2a}{subfigure.6.4.2.1}{}}
\newlabel{sub@f:intro}{{(a)}{a}{Subfigure 6 6.4.2a\relax }{subfigure.6.4.2.1}{}}
\newlabel{f:menu}{{6.4.2b}{155}{Subfigure 6 6.4.2b}{subfigure.6.4.2.2}{}}
\newlabel{sub@f:menu}{{(b)}{b}{Subfigure 6 6.4.2b\relax }{subfigure.6.4.2.2}{}}
\newlabel{f:solver}{{6.4.2c}{155}{Subfigure 6 6.4.2c}{subfigure.6.4.2.3}{}}
\newlabel{sub@f:solver}{{(c)}{c}{Subfigure 6 6.4.2c\relax }{subfigure.6.4.2.3}{}}
\@writefile{lof}{\contentsline {figure}{\numberline {6.4.2}{\ignorespaces Aplicaci\IeC {\'o}n modelo final.\relax }}{155}{figure.caption.159}}
\newlabel{AppFinal}{{6.4.2}{155}{Aplicación modelo final.\relax }{figure.caption.159}{}}
\@writefile{lof}{\contentsline {subfigure}{\numberline{(a)}{\ignorespaces {Definici\IeC {\'o}n del PVI}}}{155}{subfigure.2.1}}
\@writefile{lof}{\contentsline {subfigure}{\numberline{(b)}{\ignorespaces {Ecuaciones Extras}}}{155}{subfigure.2.2}}
\@writefile{lof}{\contentsline {subfigure}{\numberline{(c)}{\ignorespaces {Gr\IeC {\'a}fica Soluci\IeC {\'o}n}}}{155}{subfigure.2.3}}
\newlabel{ejemplo_capitulo6_3}{{6.4.3}{156}{}{teo.6.4.3}{}}
\newlabel{EcFun_Cap6_05}{{6.7a}{156}{Resultados de la aplicación}{equation.6.4.7}{}}
\newlabel{EcFun_Cap6_06}{{6.7b}{156}{Resultados de la aplicación}{equation.6.4.7}{}}
\newlabel{f:intro}{{6.4.3a}{156}{Subfigure 6 6.4.3a}{subfigure.6.4.3.1}{}}
\newlabel{sub@f:intro}{{(a)}{a}{Subfigure 6 6.4.3a\relax }{subfigure.6.4.3.1}{}}
\newlabel{f:menu}{{6.4.3b}{156}{Subfigure 6 6.4.3b}{subfigure.6.4.3.2}{}}
\newlabel{sub@f:menu}{{(b)}{b}{Subfigure 6 6.4.3b\relax }{subfigure.6.4.3.2}{}}
\newlabel{f:solver}{{6.4.3c}{156}{Subfigure 6 6.4.3c}{subfigure.6.4.3.3}{}}
\newlabel{sub@f:solver}{{(c)}{c}{Subfigure 6 6.4.3c\relax }{subfigure.6.4.3.3}{}}
\newlabel{AppFinal}{{\caption@xref {AppFinal}{ on input line 1249}}{156}{Resultados de la aplicación}{subfigure.6.4.3.3}{}}
\@writefile{lof}{\contentsline {subfigure}{\numberline{(a)}{\ignorespaces {Definici\IeC {\'o}n del PVI}}}{156}{subfigure.3.1}}
\@writefile{lof}{\contentsline {subfigure}{\numberline{(b)}{\ignorespaces {Ecuaciones Extras}}}{156}{subfigure.3.2}}
\@writefile{lof}{\contentsline {subfigure}{\numberline{(c)}{\ignorespaces {Gr\IeC {\'a}fica Soluci\IeC {\'o}n}}}{156}{subfigure.3.3}}
\newlabel{ejemplo_capitulo6_3}{{6.4.4}{156}{}{teo.6.4.4}{}}
\newlabel{EcFun_Cap6_07}{{6.8a}{156}{Resultados de la aplicación}{equation.6.4.8}{}}
\newlabel{EcFun_Cap6_08}{{6.8b}{156}{Resultados de la aplicación}{equation.6.4.8}{}}
\newlabel{f:intro}{{6.4.3a}{156}{Subfigure 6 6.4.3a}{subfigure.6.4.3.1}{}}
\newlabel{sub@f:intro}{{(a)}{a}{Subfigure 6 6.4.3a\relax }{subfigure.6.4.3.1}{}}
\newlabel{f:menu}{{6.4.3b}{156}{Subfigure 6 6.4.3b}{subfigure.6.4.3.2}{}}
\newlabel{sub@f:menu}{{(b)}{b}{Subfigure 6 6.4.3b\relax }{subfigure.6.4.3.2}{}}
\newlabel{f:solver}{{6.4.3c}{156}{Subfigure 6 6.4.3c}{subfigure.6.4.3.3}{}}
\newlabel{sub@f:solver}{{(c)}{c}{Subfigure 6 6.4.3c\relax }{subfigure.6.4.3.3}{}}
\newlabel{AppFinal}{{\caption@xref {AppFinal}{ on input line 1281}}{156}{Resultados de la aplicación}{subfigure.6.4.3.3}{}}
\@writefile{lof}{\contentsline {subfigure}{\numberline{(a)}{\ignorespaces {Definici\IeC {\'o}n del PVI}}}{156}{subfigure.3.1}}
\@writefile{lof}{\contentsline {subfigure}{\numberline{(b)}{\ignorespaces {Ecuaciones Extras}}}{156}{subfigure.3.2}}
\@writefile{lof}{\contentsline {subfigure}{\numberline{(c)}{\ignorespaces {Gr\IeC {\'a}fica Soluci\IeC {\'o}n}}}{156}{subfigure.3.3}}
\newlabel{ejemplo_capitulo6_3}{{6.4.5}{157}{}{teo.6.4.5}{}}
\newlabel{EcFun_Cap6_05}{{6.9a}{157}{Resultados de la aplicación}{equation.6.4.9}{}}
\newlabel{EcFun_Cap6_06}{{6.9b}{157}{Resultados de la aplicación}{equation.6.4.9}{}}
\newlabel{f:solver}{{6.4.3a}{157}{Subfigure 6 6.4.3a}{subfigure.6.4.3.1}{}}
\newlabel{sub@f:solver}{{(a)}{a}{Subfigure 6 6.4.3a\relax }{subfigure.6.4.3.1}{}}
\newlabel{f:intro}{{6.4.3b}{157}{Subfigure 6 6.4.3b}{subfigure.6.4.3.2}{}}
\newlabel{sub@f:intro}{{(b)}{b}{Subfigure 6 6.4.3b\relax }{subfigure.6.4.3.2}{}}
\newlabel{f:menu}{{6.4.3c}{157}{Subfigure 6 6.4.3c}{subfigure.6.4.3.3}{}}
\newlabel{sub@f:menu}{{(c)}{c}{Subfigure 6 6.4.3c\relax }{subfigure.6.4.3.3}{}}
\newlabel{f:solver}{{6.4.3d}{157}{Subfigure 6 6.4.3d}{subfigure.6.4.3.4}{}}
\newlabel{sub@f:solver}{{(d)}{d}{Subfigure 6 6.4.3d\relax }{subfigure.6.4.3.4}{}}
\newlabel{AppFinal}{{\caption@xref {AppFinal}{ on input line 1317}}{157}{Resultados de la aplicación}{subfigure.6.4.3.4}{}}
\@writefile{lof}{\contentsline {subfigure}{\numberline{(a)}{\ignorespaces {Prueba de Fallos}}}{157}{subfigure.3.1}}
\@writefile{lof}{\contentsline {subfigure}{\numberline{(b)}{\ignorespaces {Definici\IeC {\'o}n del PVI}}}{157}{subfigure.3.2}}
\@writefile{lof}{\contentsline {subfigure}{\numberline{(c)}{\ignorespaces {Ecuaciones Extras}}}{157}{subfigure.3.3}}
\@writefile{lof}{\contentsline {subfigure}{\numberline{(d)}{\ignorespaces {Gr\IeC {\'a}fica Soluci\IeC {\'o}n}}}{157}{subfigure.3.4}}
\newlabel{ejemplo_capitulo6_3}{{6.4.6}{157}{}{teo.6.4.6}{}}
\newlabel{EcFun_Cap6_07}{{6.10a}{157}{Resultados de la aplicación}{equation.6.4.10}{}}
\newlabel{EcFun_Cap6_08}{{6.10b}{157}{Resultados de la aplicación}{equation.6.4.10}{}}
\newlabel{f:intro}{{6.4.3a}{157}{Subfigure 6 6.4.3a}{subfigure.6.4.3.1}{}}
\newlabel{sub@f:intro}{{(a)}{a}{Subfigure 6 6.4.3a\relax }{subfigure.6.4.3.1}{}}
\newlabel{f:menu}{{6.4.3b}{157}{Subfigure 6 6.4.3b}{subfigure.6.4.3.2}{}}
\newlabel{sub@f:menu}{{(b)}{b}{Subfigure 6 6.4.3b\relax }{subfigure.6.4.3.2}{}}
\newlabel{f:solver}{{6.4.3c}{157}{Subfigure 6 6.4.3c}{subfigure.6.4.3.3}{}}
\newlabel{sub@f:solver}{{(c)}{c}{Subfigure 6 6.4.3c\relax }{subfigure.6.4.3.3}{}}
\newlabel{AppFinal}{{\caption@xref {AppFinal}{ on input line 1349}}{157}{Resultados de la aplicación}{subfigure.6.4.3.3}{}}
\@writefile{lof}{\contentsline {subfigure}{\numberline{(a)}{\ignorespaces {Definici\IeC {\'o}n del PVI}}}{157}{subfigure.3.1}}
\@writefile{lof}{\contentsline {subfigure}{\numberline{(b)}{\ignorespaces {Ecuaciones Extras}}}{157}{subfigure.3.2}}
\@writefile{lof}{\contentsline {subfigure}{\numberline{(c)}{\ignorespaces {Gr\IeC {\'a}fica Soluci\IeC {\'o}n}}}{157}{subfigure.3.3}}
\newlabel{ejemplo_capitulo6_3}{{6.4.7}{158}{}{teo.6.4.7}{}}
\newlabel{EcFun_Cap6_05}{{6.11a}{158}{Resultados de la aplicación}{equation.6.4.11}{}}
\newlabel{EcFun_Cap6_06}{{6.11b}{158}{Resultados de la aplicación}{equation.6.4.11}{}}
\newlabel{f:intro}{{6.4.3a}{158}{Subfigure 6 6.4.3a}{subfigure.6.4.3.1}{}}
\newlabel{sub@f:intro}{{(a)}{a}{Subfigure 6 6.4.3a\relax }{subfigure.6.4.3.1}{}}
\newlabel{f:menu}{{6.4.3b}{158}{Subfigure 6 6.4.3b}{subfigure.6.4.3.2}{}}
\newlabel{sub@f:menu}{{(b)}{b}{Subfigure 6 6.4.3b\relax }{subfigure.6.4.3.2}{}}
\newlabel{f:solver}{{6.4.3c}{158}{Subfigure 6 6.4.3c}{subfigure.6.4.3.3}{}}
\newlabel{sub@f:solver}{{(c)}{c}{Subfigure 6 6.4.3c\relax }{subfigure.6.4.3.3}{}}
\newlabel{AppFinal}{{\caption@xref {AppFinal}{ on input line 1381}}{158}{Resultados de la aplicación}{subfigure.6.4.3.3}{}}
\@writefile{lof}{\contentsline {subfigure}{\numberline{(a)}{\ignorespaces {Definici\IeC {\'o}n del PVI}}}{158}{subfigure.3.1}}
\@writefile{lof}{\contentsline {subfigure}{\numberline{(b)}{\ignorespaces {Ecuaciones Extras}}}{158}{subfigure.3.2}}
\@writefile{lof}{\contentsline {subfigure}{\numberline{(c)}{\ignorespaces {Gr\IeC {\'a}fica Soluci\IeC {\'o}n}}}{158}{subfigure.3.3}}
\newlabel{ejemplo_capitulo6_3}{{6.4.8}{158}{}{teo.6.4.8}{}}
\newlabel{EcFun_Cap6_05}{{6.12a}{158}{Resultados de la aplicación}{equation.6.4.12}{}}
\newlabel{EcFun_Cap6_06}{{6.12b}{158}{Resultados de la aplicación}{equation.6.4.12}{}}
\newlabel{f:intro}{{6.4.3a}{158}{Subfigure 6 6.4.3a}{subfigure.6.4.3.1}{}}
\newlabel{sub@f:intro}{{(a)}{a}{Subfigure 6 6.4.3a\relax }{subfigure.6.4.3.1}{}}
\newlabel{f:menu}{{6.4.3b}{158}{Subfigure 6 6.4.3b}{subfigure.6.4.3.2}{}}
\newlabel{sub@f:menu}{{(b)}{b}{Subfigure 6 6.4.3b\relax }{subfigure.6.4.3.2}{}}
\newlabel{f:solver}{{6.4.3c}{158}{Subfigure 6 6.4.3c}{subfigure.6.4.3.3}{}}
\newlabel{sub@f:solver}{{(c)}{c}{Subfigure 6 6.4.3c\relax }{subfigure.6.4.3.3}{}}
\newlabel{AppFinal}{{\caption@xref {AppFinal}{ on input line 1414}}{158}{Resultados de la aplicación}{subfigure.6.4.3.3}{}}
\@writefile{lof}{\contentsline {subfigure}{\numberline{(a)}{\ignorespaces {Definici\IeC {\'o}n del PVI}}}{158}{subfigure.3.1}}
\@writefile{lof}{\contentsline {subfigure}{\numberline{(b)}{\ignorespaces {Ecuaciones Extras}}}{158}{subfigure.3.2}}
\@writefile{lof}{\contentsline {subfigure}{\numberline{(c)}{\ignorespaces {Gr\IeC {\'a}fica Soluci\IeC {\'o}n}}}{158}{subfigure.3.3}}
\newlabel{ejemplo_capitulo6_3}{{6.4.9}{159}{}{teo.6.4.9}{}}
\newlabel{EcFun_Cap6_05}{{6.13a}{159}{Resultados de la aplicación}{equation.6.4.13}{}}
\newlabel{EcFun_Cap6_06}{{6.13b}{159}{Resultados de la aplicación}{equation.6.4.13}{}}
\newlabel{f:intro}{{6.4.3a}{159}{Subfigure 6 6.4.3a}{subfigure.6.4.3.1}{}}
\newlabel{sub@f:intro}{{(a)}{a}{Subfigure 6 6.4.3a\relax }{subfigure.6.4.3.1}{}}
\newlabel{f:menu}{{6.4.3b}{159}{Subfigure 6 6.4.3b}{subfigure.6.4.3.2}{}}
\newlabel{sub@f:menu}{{(b)}{b}{Subfigure 6 6.4.3b\relax }{subfigure.6.4.3.2}{}}
\newlabel{f:solver}{{6.4.3c}{159}{Subfigure 6 6.4.3c}{subfigure.6.4.3.3}{}}
\newlabel{sub@f:solver}{{(c)}{c}{Subfigure 6 6.4.3c\relax }{subfigure.6.4.3.3}{}}
\newlabel{AppFinal}{{\caption@xref {AppFinal}{ on input line 1448}}{159}{Resultados de la aplicación}{subfigure.6.4.3.3}{}}
\@writefile{lof}{\contentsline {subfigure}{\numberline{(a)}{\ignorespaces {Definici\IeC {\'o}n del PVI}}}{159}{subfigure.3.1}}
\@writefile{lof}{\contentsline {subfigure}{\numberline{(b)}{\ignorespaces {Ecuaciones Extras}}}{159}{subfigure.3.2}}
\@writefile{lof}{\contentsline {subfigure}{\numberline{(c)}{\ignorespaces {Gr\IeC {\'a}fica Soluci\IeC {\'o}n}}}{159}{subfigure.3.3}}
\newlabel{ejemplo_capitulo6_3}{{6.4.10}{159}{}{teo.6.4.10}{}}
\newlabel{EcFun_Cap6_05}{{6.14a}{159}{Resultados de la aplicación}{equation.6.4.14}{}}
\newlabel{EcFun_Cap6_06}{{6.14b}{159}{Resultados de la aplicación}{equation.6.4.14}{}}
\newlabel{f:intro}{{6.4.3a}{159}{Subfigure 6 6.4.3a}{subfigure.6.4.3.1}{}}
\newlabel{sub@f:intro}{{(a)}{a}{Subfigure 6 6.4.3a\relax }{subfigure.6.4.3.1}{}}
\newlabel{f:solver}{{6.4.3b}{159}{Subfigure 6 6.4.3b}{subfigure.6.4.3.2}{}}
\newlabel{sub@f:solver}{{(b)}{b}{Subfigure 6 6.4.3b\relax }{subfigure.6.4.3.2}{}}
\newlabel{AppFinal}{{\caption@xref {AppFinal}{ on input line 1476}}{159}{Resultados de la aplicación}{subfigure.6.4.3.2}{}}
\@writefile{lof}{\contentsline {subfigure}{\numberline{(a)}{\ignorespaces {Definici\IeC {\'o}n del PVI}}}{159}{subfigure.3.1}}
\@writefile{lof}{\contentsline {subfigure}{\numberline{(b)}{\ignorespaces {Gr\IeC {\'a}fica Soluci\IeC {\'o}n}}}{159}{subfigure.3.2}}
\newlabel{ejemplo_capitulo6_3}{{6.4.11}{160}{}{teo.6.4.11}{}}
\newlabel{EcFun_Cap6_05}{{6.15a}{160}{Resultados de la aplicación}{equation.6.4.15}{}}
\newlabel{EcFun_Cap6_06}{{6.15b}{160}{Resultados de la aplicación}{equation.6.4.15}{}}
\newlabel{f:intro}{{6.4.3a}{160}{Subfigure 6 6.4.3a}{subfigure.6.4.3.1}{}}
\newlabel{sub@f:intro}{{(a)}{a}{Subfigure 6 6.4.3a\relax }{subfigure.6.4.3.1}{}}
\newlabel{f:menu}{{6.4.3b}{160}{Subfigure 6 6.4.3b}{subfigure.6.4.3.2}{}}
\newlabel{sub@f:menu}{{(b)}{b}{Subfigure 6 6.4.3b\relax }{subfigure.6.4.3.2}{}}
\newlabel{f:solver}{{6.4.3c}{160}{Subfigure 6 6.4.3c}{subfigure.6.4.3.3}{}}
\newlabel{sub@f:solver}{{(c)}{c}{Subfigure 6 6.4.3c\relax }{subfigure.6.4.3.3}{}}
\newlabel{AppFinal}{{\caption@xref {AppFinal}{ on input line 1511}}{160}{Resultados de la aplicación}{subfigure.6.4.3.3}{}}
\@writefile{lof}{\contentsline {subfigure}{\numberline{(a)}{\ignorespaces {Definici\IeC {\'o}n del PVI}}}{160}{subfigure.3.1}}
\@writefile{lof}{\contentsline {subfigure}{\numberline{(b)}{\ignorespaces {Ecuaciones Extras}}}{160}{subfigure.3.2}}
\@writefile{lof}{\contentsline {subfigure}{\numberline{(c)}{\ignorespaces {Gr\IeC {\'a}fica Soluci\IeC {\'o}n}}}{160}{subfigure.3.3}}
\newlabel{ejemplo_capitulo6_3}{{6.4.12}{160}{}{teo.6.4.12}{}}
\newlabel{EcFun_Cap6_05}{{6.16a}{160}{Resultados de la aplicación}{equation.6.4.16}{}}
\newlabel{EcFun_Cap6_06}{{6.16b}{160}{Resultados de la aplicación}{equation.6.4.16}{}}
\newlabel{f:intro}{{6.4.3a}{160}{Subfigure 6 6.4.3a}{subfigure.6.4.3.1}{}}
\newlabel{sub@f:intro}{{(a)}{a}{Subfigure 6 6.4.3a\relax }{subfigure.6.4.3.1}{}}
\newlabel{f:menu}{{6.4.3b}{160}{Subfigure 6 6.4.3b}{subfigure.6.4.3.2}{}}
\newlabel{sub@f:menu}{{(b)}{b}{Subfigure 6 6.4.3b\relax }{subfigure.6.4.3.2}{}}
\newlabel{f:solver}{{6.4.3c}{160}{Subfigure 6 6.4.3c}{subfigure.6.4.3.3}{}}
\newlabel{sub@f:solver}{{(c)}{c}{Subfigure 6 6.4.3c\relax }{subfigure.6.4.3.3}{}}
\newlabel{AppFinal}{{\caption@xref {AppFinal}{ on input line 1543}}{160}{Resultados de la aplicación}{subfigure.6.4.3.3}{}}
\@writefile{lof}{\contentsline {subfigure}{\numberline{(a)}{\ignorespaces {Definici\IeC {\'o}n del PVI}}}{160}{subfigure.3.1}}
\@writefile{lof}{\contentsline {subfigure}{\numberline{(b)}{\ignorespaces {Ecuaciones Extras}}}{160}{subfigure.3.2}}
\@writefile{lof}{\contentsline {subfigure}{\numberline{(c)}{\ignorespaces {Gr\IeC {\'a}fica Soluci\IeC {\'o}n}}}{160}{subfigure.3.3}}
\newlabel{ejemplo_capitulo6_3}{{6.4.13}{161}{}{teo.6.4.13}{}}
\newlabel{EcFun_Cap6_05}{{6.17a}{161}{Resultados de la aplicación}{equation.6.4.17}{}}
\newlabel{EcFun_Cap6_06}{{6.17b}{161}{Resultados de la aplicación}{equation.6.4.17}{}}
\newlabel{f:intro}{{6.4.3a}{161}{Subfigure 6 6.4.3a}{subfigure.6.4.3.1}{}}
\newlabel{sub@f:intro}{{(a)}{a}{Subfigure 6 6.4.3a\relax }{subfigure.6.4.3.1}{}}
\newlabel{f:menu}{{6.4.3b}{161}{Subfigure 6 6.4.3b}{subfigure.6.4.3.2}{}}
\newlabel{sub@f:menu}{{(b)}{b}{Subfigure 6 6.4.3b\relax }{subfigure.6.4.3.2}{}}
\newlabel{f:solver}{{6.4.3c}{161}{Subfigure 6 6.4.3c}{subfigure.6.4.3.3}{}}
\newlabel{sub@f:solver}{{(c)}{c}{Subfigure 6 6.4.3c\relax }{subfigure.6.4.3.3}{}}
\newlabel{f:solver}{{6.4.3d}{161}{Subfigure 6 6.4.3d}{subfigure.6.4.3.4}{}}
\newlabel{sub@f:solver}{{(d)}{d}{Subfigure 6 6.4.3d\relax }{subfigure.6.4.3.4}{}}
\newlabel{AppFinal}{{\caption@xref {AppFinal}{ on input line 1581}}{161}{Resultados de la aplicación}{subfigure.6.4.3.4}{}}
\@writefile{lof}{\contentsline {subfigure}{\numberline{(a)}{\ignorespaces {Definici\IeC {\'o}n del PVI}}}{161}{subfigure.3.1}}
\@writefile{lof}{\contentsline {subfigure}{\numberline{(b)}{\ignorespaces {Ecuaciones Extras}}}{161}{subfigure.3.2}}
\@writefile{lof}{\contentsline {subfigure}{\numberline{(c)}{\ignorespaces {Gr\IeC {\'a}fica Soluci\IeC {\'o}n}}}{161}{subfigure.3.3}}
\@writefile{lof}{\contentsline {subfigure}{\numberline{(d)}{\ignorespaces {Gr\IeC {\'a}fica Extendida}}}{161}{subfigure.3.4}}
\newlabel{ejemplo_capitulo6_3}{{6.4.14}{161}{}{teo.6.4.14}{}}
\newlabel{EcFun_Cap6_05}{{6.18a}{161}{Resultados de la aplicación}{equation.6.4.18}{}}
\newlabel{EcFun_Cap6_06}{{6.18b}{161}{Resultados de la aplicación}{equation.6.4.18}{}}
\newlabel{f:intro}{{6.4.3a}{161}{Subfigure 6 6.4.3a}{subfigure.6.4.3.1}{}}
\newlabel{sub@f:intro}{{(a)}{a}{Subfigure 6 6.4.3a\relax }{subfigure.6.4.3.1}{}}
\newlabel{f:menu}{{6.4.3b}{161}{Subfigure 6 6.4.3b}{subfigure.6.4.3.2}{}}
\newlabel{sub@f:menu}{{(b)}{b}{Subfigure 6 6.4.3b\relax }{subfigure.6.4.3.2}{}}
\newlabel{f:solver}{{6.4.3c}{161}{Subfigure 6 6.4.3c}{subfigure.6.4.3.3}{}}
\newlabel{sub@f:solver}{{(c)}{c}{Subfigure 6 6.4.3c\relax }{subfigure.6.4.3.3}{}}
\newlabel{AppFinal}{{\caption@xref {AppFinal}{ on input line 1615}}{161}{Resultados de la aplicación}{subfigure.6.4.3.3}{}}
\@writefile{lof}{\contentsline {subfigure}{\numberline{(a)}{\ignorespaces {Definici\IeC {\'o}n del PVI}}}{161}{subfigure.3.1}}
\@writefile{lof}{\contentsline {subfigure}{\numberline{(b)}{\ignorespaces {Ecuaciones Extras}}}{161}{subfigure.3.2}}
\@writefile{lof}{\contentsline {subfigure}{\numberline{(c)}{\ignorespaces {Gr\IeC {\'a}fica Soluci\IeC {\'o}n}}}{161}{subfigure.3.3}}
\newlabel{ejemplo_capitulo6_3}{{6.4.15}{162}{}{teo.6.4.15}{}}
\newlabel{EcFun_Cap6_05}{{6.19a}{162}{Resultados de la aplicación}{equation.6.4.19}{}}
\newlabel{EcFun_Cap6_06}{{6.19b}{162}{Resultados de la aplicación}{equation.6.4.19}{}}
\newlabel{f:intro}{{6.4.3a}{162}{Subfigure 6 6.4.3a}{subfigure.6.4.3.1}{}}
\newlabel{sub@f:intro}{{(a)}{a}{Subfigure 6 6.4.3a\relax }{subfigure.6.4.3.1}{}}
\newlabel{f:menu}{{6.4.3b}{162}{Subfigure 6 6.4.3b}{subfigure.6.4.3.2}{}}
\newlabel{sub@f:menu}{{(b)}{b}{Subfigure 6 6.4.3b\relax }{subfigure.6.4.3.2}{}}
\newlabel{f:solver}{{6.4.3c}{162}{Subfigure 6 6.4.3c}{subfigure.6.4.3.3}{}}
\newlabel{sub@f:solver}{{(c)}{c}{Subfigure 6 6.4.3c\relax }{subfigure.6.4.3.3}{}}
\newlabel{AppFinal}{{\caption@xref {AppFinal}{ on input line 1650}}{162}{Resultados de la aplicación}{subfigure.6.4.3.3}{}}
\@writefile{lof}{\contentsline {subfigure}{\numberline{(a)}{\ignorespaces {Definici\IeC {\'o}n del PVI}}}{162}{subfigure.3.1}}
\@writefile{lof}{\contentsline {subfigure}{\numberline{(b)}{\ignorespaces {Ecuaciones Extras}}}{162}{subfigure.3.2}}
\@writefile{lof}{\contentsline {subfigure}{\numberline{(c)}{\ignorespaces {Gr\IeC {\'a}fica Soluci\IeC {\'o}n}}}{162}{subfigure.3.3}}
\newlabel{ejemplo_capitulo6_3}{{6.4.16}{162}{}{teo.6.4.16}{}}
\newlabel{EcFun_Cap6_05}{{6.20a}{162}{Resultados de la aplicación}{equation.6.4.20}{}}
\newlabel{EcFun_Cap6_06}{{6.20b}{162}{Resultados de la aplicación}{equation.6.4.20}{}}
\newlabel{f:intro}{{6.4.3a}{162}{Subfigure 6 6.4.3a}{subfigure.6.4.3.1}{}}
\newlabel{sub@f:intro}{{(a)}{a}{Subfigure 6 6.4.3a\relax }{subfigure.6.4.3.1}{}}
\newlabel{f:menu}{{6.4.3b}{162}{Subfigure 6 6.4.3b}{subfigure.6.4.3.2}{}}
\newlabel{sub@f:menu}{{(b)}{b}{Subfigure 6 6.4.3b\relax }{subfigure.6.4.3.2}{}}
\newlabel{f:solver}{{6.4.3c}{162}{Subfigure 6 6.4.3c}{subfigure.6.4.3.3}{}}
\newlabel{sub@f:solver}{{(c)}{c}{Subfigure 6 6.4.3c\relax }{subfigure.6.4.3.3}{}}
\newlabel{AppFinal}{{\caption@xref {AppFinal}{ on input line 1683}}{162}{Resultados de la aplicación}{subfigure.6.4.3.3}{}}
\@writefile{lof}{\contentsline {subfigure}{\numberline{(a)}{\ignorespaces {Definici\IeC {\'o}n del PVI}}}{162}{subfigure.3.1}}
\@writefile{lof}{\contentsline {subfigure}{\numberline{(b)}{\ignorespaces {Ecuaciones Extras}}}{162}{subfigure.3.2}}
\@writefile{lof}{\contentsline {subfigure}{\numberline{(c)}{\ignorespaces {Gr\IeC {\'a}fica Soluci\IeC {\'o}n}}}{162}{subfigure.3.3}}
\@writefile{toc}{\contentsline {chapter}{Conclusiones}{162}{subfigure.6.4.3.3}}
\@writefile{toc}{\contentsline {chapter}{Trabajos futuros}{163}{Item.126}}
\@writefile{toc}{\contentsline {part}{Ap\'{e}ndice}{164}{Item.135}}
\citation{a5}
\@writefile{toc}{\contentsline {chapter}{\numberline {A}Instalaci\IeC {\'o}n de programas}{165}{appendix.Alph1}}
\@writefile{lof}{\addvspace {10\p@ }}
\@writefile{lot}{\addvspace {10\p@ }}
\newlabel{ApencideA}{{A}{165}{Instalación de programas}{appendix.Alph1}{}}
\@writefile{toc}{\contentsline {section}{\numberline {A.1}Instalar JDK para ejecutar c\IeC {\'o}digo en lenguaje Java}{165}{section.Alph1.1}}
\@writefile{toc}{\contentsline {section}{\numberline {A.2}Instalaci\IeC {\'o}n de Android Studio}{165}{section.Alph1.2}}
\@writefile{brf}{\backcite{a5}{{165}{A.2}{section.Alph1.2}}}
\@writefile{toc}{\contentsline {chapter}{\numberline {B}Teoremas}{166}{appendix.Alph2}}
\@writefile{lof}{\addvspace {10\p@ }}
\@writefile{lot}{\addvspace {10\p@ }}
\@writefile{toc}{\contentsline {subsection}{\numberline {B.0.1}Teorema del valor medio}{166}{subsection.Alph2.0.1}}
\newlabel{TeoremaDelValorMedioDerivada}{{B.0.1}{166}{Teorema del valor medio}{equation.Alph2.0.1}{}}
\@writefile{toc}{\contentsline {subsection}{\numberline {B.0.2}Teorema del valor medio del c\IeC {\'a}lculo integral}{166}{subsection.Alph2.0.2}}
\newlabel{TeoremaDelValorMedioIntegral}{{B.0.2}{166}{}{equation.Alph2.0.2}{}}
\@writefile{toc}{\contentsline {subsection}{\numberline {B.0.3}Teorema de Taylor}{166}{subsection.Alph2.0.3}}
\citation{ar8}
\citation{b2}
\bibstyle{apalike}
\bibdata{p/bibliografia}
\newlabel{Teorema_de_Taylor}{{B.0.3}{167}{Teorema de Taylor una variable}{equation.Alph2.0.3}{}}
\@writefile{toc}{\contentsline {subsection}{\numberline {B.0.4}Cero estabilidad}{167}{subsection.Alph2.0.4}}
\@writefile{brf}{\backcite{ar8}{{167}{B.0.1}{Definicion.Alph2.0.1}}}
\newlabel{CeroEstabilidad}{{B.0.1}{167}{Cero estabilidad \cite {ar8}}{equation.B.0.5alph2}{}}
\@writefile{toc}{\contentsline {subsection}{\numberline {B.0.5}Teorema de Picard }{167}{subsection.Alph2.0.5}}
\@writefile{brf}{\backcite{b2}{{167}{B.0.5}{teo.Alph2.0.5}}}
\newlabel{TeoPicard}{{B.0.5}{167}{Teorema de Picard \cite {b2}}{equation.Alph2.0.7}{}}
\@writefile{toc}{\contentsline {chapter}{Bibliograf\IeC {\'\i }a}{167}{equation.Alph2.0.7}}
\bibcite{b5}{{1}{2008}{{Alfred V.~Aho}}{{}}}
\bibcite{ar1}{{2}{2009}{{Bell}}{{}}}
\bibcite{a9}{{3}{1996}{{Butcher}}{{}}}
\bibcite{ar6}{{4}{2016}{{Carbonnelle}}{{}}}
\bibcite{a6}{{5}{2011}{{Ceballos}}{{}}}
\bibcite{ar4}{{6}{1971}{{Coddington}}{{}}}
\bibcite{a3}{{7}{2000}{{E.~Boyce}}{{}}}
\bibcite{ar5}{{8}{2002}{{Eckel}}{{}}}
\bibcite{b2}{{9}{2003}{{Endre~S\IeC {\"u}li}}{{}}}
\bibcite{a8}{{10}{1966}{{Eugene~Isaacson}}{{}}}
\bibcite{ar3}{{11}{2007}{{Fil\IeC {\'\i }ppov}}{{}}}
\bibcite{ar7}{{12}{1999}{{GlobalStats}}{{}}}
\bibcite{arr7}{{13}{2008}{{Google}}{{}}}
\bibcite{b1}{{14}{2010}{{Griffits}}{{}}}
\bibcite{a7}{{15}{2002}{{J.~E.~Hopcroft}}{{}}}
\bibcite{a2}{{16}{2009}{{Kendall E.~Atkinson}}{{}}}
\bibcite{a1}{{17}{1997}{{L.~F.~Shampine}}{{}}}
\bibcite{ar8}{{18}{1991}{{Lambert}}{{}}}
\bibcite{b3}{{19}{2008}{{Levelt}}{{}}}
\bibcite{b4}{{20}{2003}{{Martin}}{{}}}
\bibcite{ar2}{{21}{1969}{{Piskunov}}{{}}}
\bibcite{ar10}{{22}{2012}{{Richard C.~DiPrima}}{{}}}
\bibcite{ar9}{{23}{1972}{{Sheid}}{{}}}
\bibcite{arr8}{{24}{2008}{{shutterstock}}{{}}}
\bibcite{a5}{{25}{2016}{{Tom\IeC {\'a}s}}{{}}}
\bibcite{b6}{{26}{1976}{{Wirth}}{{}}}
