\babel@toc {spanish}{}
\addvspace {10\p@ }
\contentsline {figure}{\numberline {1.0.1}{\ignorespaces Modelo de desarrollo de software por prototipos.\relax }}{2}{figure.caption.2}
\addvspace {10\p@ }
\contentsline {figure}{\numberline {2.3.1}{\ignorespaces Soluci\IeC {\'o}n al problema del ejemplo (\ref {ejemplo_capitulo3_4}).\relax }}{13}{figure.caption.3}
\addvspace {10\p@ }
\contentsline {figure}{\numberline {3.1.1}{\ignorespaces Distancia homog\IeC {\'e}nea entre nodos.\relax }}{16}{figure.caption.5}
\contentsline {figure}{\numberline {3.2.1}{\ignorespaces Error local y error global.\relax }}{18}{figure.caption.6}
\contentsline {figure}{\numberline {3.4.1}{\ignorespaces Estabilidad anal\IeC {\'\i }tica y num\IeC {\'e}rica \cite {ar8}.\relax }}{20}{figure.caption.8}
\contentsline {figure}{\numberline {3.4.2}{\ignorespaces Estabilidad anal\IeC {\'\i }tica y num\IeC {\'e}rica total \cite {ar8}.\relax }}{23}{figure.caption.9}
\contentsline {figure}{\numberline {3.4.3}{\ignorespaces Estabilidad para pasos $h=1/2,\ 1/4\ y\ 1/6$.\relax }}{24}{figure.caption.10}
\contentsline {figure}{\numberline {3.5.1}{\ignorespaces Regi\IeC {\'o}n de estabilidad para m\IeC {\'e}todo de Taylor de orden dos.\relax }}{29}{figure.caption.11}
\contentsline {figure}{\numberline {3.5.2}{\ignorespaces Soluci\IeC {\'o}n de \ref {ecuacion_referencia_profesor} y empleando el m\IeC {\'e}todo de Taylor de orden dos para pasos de $h=\frac {1}{2},\ \frac {1}{10}$ y $\frac {1}{20}$, donde $Y(t)$ es la soluci\IeC {\'o}n exacta.\relax }}{30}{figure.caption.12}
\contentsline {figure}{\numberline {3.5.3}{\ignorespaces Funci\IeC {\'o}n V(t).\relax }}{31}{figure.caption.13}
\contentsline {figure}{\numberline {3.6.1}{\ignorespaces Regi\IeC {\'o}n de estabilidad para m\IeC {\'e}todo de Euler.\relax }}{34}{figure.caption.15}
\contentsline {figure}{\numberline {3.6.2}{\ignorespaces Soluciones num\IeC {\'e}ricas usando el m\IeC {\'e}todo de Euler expl\IeC {\'\i }cito.\relax }}{35}{figure.caption.16}
\contentsline {figure}{\numberline {3.6.3}{\ignorespaces Funci\IeC {\'o}n W(t).\relax }}{35}{figure.caption.17}
\contentsline {figure}{\numberline {3.6.4}{\ignorespaces Regi\IeC {\'o}n de estabilidad para Euler hacia atr\IeC {\'a}s.\relax }}{38}{figure.caption.19}
\contentsline {figure}{\numberline {3.6.5}{\ignorespaces Soluci\IeC {\'o}n empleando el m\IeC {\'e}todo de Euler hacia atr\IeC {\'a}s para pasos de $h=0.5,(0.1),(0.01)$, donde $Y(t)$ es la soluci\IeC {\'o}n exacta.\relax }}{40}{figure.caption.20}
\contentsline {figure}{\numberline {3.7.1}{\ignorespaces Soluci\IeC {\'o}n empleando el m\IeC {\'e}todo de Runge Kutta de orden dos.\relax }}{45}{figure.caption.22}
\contentsline {figure}{\numberline {3.7.2}{\ignorespaces Estabilidad anal\IeC {\'\i }tica y num\IeC {\'e}rica total \cite {ar8}.\relax }}{47}{figure.caption.24}
\addvspace {10\p@ }
\contentsline {figure}{\numberline {4.1.1}{\ignorespaces Popularidad de lenguajes de programaci\IeC {\'o}n en el mundo \cite {ar6}.\relax }}{51}{figure.caption.25}
\contentsline {figure}{\numberline {4.2.1}{\ignorespaces Estructura general de un objeto \cite {ar5}.\relax }}{53}{figure.caption.26}
\contentsline {figure}{\numberline {4.2.2}{\ignorespaces Dise\IeC {\~n}o de objetos de la clase racional.\relax }}{54}{figure.caption.27}
\contentsline {figure}{\numberline {4.2.3}{\ignorespaces Programa en Java para definir un objeto de tipo {\it racional}.\relax }}{55}{figure.caption.28}
\contentsline {figure}{\numberline {4.2.4}{\ignorespaces Programa en Java para definir un objeto de tipo {\tt persona}.\relax }}{56}{figure.caption.29}
\contentsline {figure}{\numberline {4.2.5}{\ignorespaces Herencia simple y herencia m\IeC {\'u}ltiple, respectivamente.\relax }}{58}{figure.caption.30}
\contentsline {figure}{\numberline {4.2.6}{\ignorespaces Ejemplo de herencia simple para dos clases.\relax }}{59}{figure.caption.31}
\contentsline {figure}{\numberline {4.2.7}{\ignorespaces Programa en Java, polimorfismo.\relax }}{59}{figure.caption.32}
\contentsline {figure}{\numberline {4.2.8}{\ignorespaces Programa en Java para definir un objeto de tipo {\tt ecCuad}.\relax }}{60}{figure.caption.33}
\contentsline {figure}{\numberline {4.3.1}{\ignorespaces Popularidad de sistemas operativos en dispositivos m\IeC {\'o}viles \cite {ar7}.\relax }}{61}{figure.caption.34}
\contentsline {figure}{\numberline {4.3.2}{\ignorespaces Arquitectura de Android \cite {a5}.\relax }}{63}{figure.caption.35}
\contentsline {figure}{\numberline {4.3.3}{\ignorespaces Iniciando programa en Android Studio.\relax }}{64}{figure.caption.36}
\contentsline {figure}{\numberline {4.3.4}{\ignorespaces Versi\IeC {\'o}n de Android.\relax }}{65}{figure.caption.37}
\contentsline {figure}{\numberline {4.3.5}{\ignorespaces Tipos de interfaz de usuario.\relax }}{66}{figure.caption.39}
\contentsline {figure}{\numberline {4.3.6}{\ignorespaces Asignaci\IeC {\'o}n de nombres para la interfaz de usuario.\relax }}{66}{figure.caption.40}
\contentsline {figure}{\numberline {4.3.7}{\ignorespaces Panorama general de programaci\IeC {\'o}n.\relax }}{67}{figure.caption.41}
\contentsline {figure}{\numberline {4.3.8}{\ignorespaces Versi\IeC {\'o}n de Android.\relax }}{67}{figure.caption.42}
\contentsline {figure}{\numberline {4.3.9}{\ignorespaces Aplicaci\IeC {\'o}n del celular.\relax }}{67}{figure.caption.43}
\contentsline {figure}{\numberline {4.3.10}{\ignorespaces Ciclo de vida de una aplicaci\IeC {\'o}n.\relax }}{70}{figure.caption.44}
\contentsline {figure}{\numberline {4.3.11}{\ignorespaces Panorama general de programaci\IeC {\'o}n.\relax }}{71}{figure.caption.45}
\contentsline {figure}{\numberline {4.4.1}{\ignorespaces Panorama general de programaci\IeC {\'o}n.\relax }}{72}{figure.caption.46}
\contentsline {figure}{\numberline {4.4.2}{\ignorespaces Estructura para la aplicaci\IeC {\'o}n {\tt EcCuadratica}.\relax }}{72}{figure.caption.47}
\contentsline {figure}{\numberline {4.5.1}{\ignorespaces Atributos que se incluyen para la aplicaci\IeC {\'o}n de la ecuaci\IeC {\'o}n cuadr\IeC {\'a}tica.\relax }}{74}{figure.caption.48}
\contentsline {figure}{\numberline {4.5.2}{\ignorespaces Asignaci\IeC {\'o}n de vistas ({\tt views}) para enlazar la interfaz de usuario.\relax }}{75}{figure.caption.49}
\contentsline {figure}{\numberline {4.5.3}{\ignorespaces Lectura de vistas ({\tt views}) para asignar valores de entrada.\relax }}{75}{figure.caption.50}
\contentsline {figure}{\numberline {4.5.4}{\ignorespaces Clase que resuelve el problema de la ecuaci\IeC {\'o}n cuadr\IeC {\'a}tica.\relax }}{76}{figure.caption.51}
\contentsline {figure}{\numberline {4.5.5}{\ignorespaces Programa general para hacer funcionar la aplicaci\IeC {\'o}n de la ecuaci\IeC {\'o}n cuadr\IeC {\'a}tica.\relax }}{77}{figure.caption.52}
\addvspace {10\p@ }
\contentsline {figure}{\numberline {5.1.1}{\ignorespaces Aplicaci\IeC {\'o}n {\it DE Solver} \cite {arr7}.\relax }}{79}{figure.caption.53}
\contentsline {subfigure}{\numberline {(a)}{\ignorespaces {Editor}}}{79}{subfigure.1.1}
\contentsline {subfigure}{\numberline {(b)}{\ignorespaces {Men\IeC {\'u}}}}{79}{subfigure.1.2}
\contentsline {subfigure}{\numberline {(c)}{\ignorespaces {Gr\IeC {\'a}fica}}}{79}{subfigure.1.3}
\contentsline {figure}{\numberline {5.1.2}{\ignorespaces Aplicaci\IeC {\'o}n {\it Diferential Solver} \cite {arr7}.\relax }}{79}{figure.caption.54}
\contentsline {subfigure}{\numberline {(a)}{\ignorespaces {Editor}}}{79}{subfigure.2.1}
\contentsline {subfigure}{\numberline {(b)}{\ignorespaces {Men\IeC {\'u}}}}{79}{subfigure.2.2}
\contentsline {subfigure}{\numberline {(c)}{\ignorespaces {Gr\IeC {\'a}fica}}}{79}{subfigure.2.3}
\contentsline {figure}{\numberline {5.3.1}{\ignorespaces Comunicaci\IeC {\'o}n entre el analizador l\IeC {\'e}xico, sint\IeC {\'a}ctico y nodos del \IeC {\'a}rbol binario \cite {b5}.\relax }}{85}{figure.caption.56}
\contentsline {figure}{\numberline {5.3.2}{\ignorespaces Aut\IeC {\'o}mata del problema \ref {ejemplo1_capitulo5}.\relax }}{88}{figure.caption.62}
\contentsline {figure}{\numberline {5.3.3}{\ignorespaces Aut\IeC {\'o}mata finito del problema \ref {ejemplo2_capitulo5}.\relax }}{89}{figure.caption.65}
\contentsline {figure}{\numberline {5.3.4}{\ignorespaces Aut\IeC {\'o}mata finito del problema \ref {ejemplo3_capitulo5}.\relax }}{92}{figure.caption.69}
\contentsline {figure}{\numberline {5.3.5}{\ignorespaces Aut\IeC {\'o}mata del problema \ref {ejemplo4_capitulo5}.\relax }}{93}{figure.caption.72}
\contentsline {figure}{\numberline {5.3.6}{\ignorespaces AFD resultante de la Expresi\IeC {\'o}n Regular $l\cdot l^{*}$.\relax }}{97}{figure.caption.84}
\contentsline {figure}{\numberline {5.3.7}{\ignorespaces AFD m\IeC {\'\i }nimo resultante de la Expresi\IeC {\'o}n Regular $l\cdot l^{*}$.\relax }}{97}{figure.caption.86}
\contentsline {figure}{\numberline {5.3.8}{\ignorespaces AFN-$\varepsilon $ correspondiente a la expresi\IeC {\'o}n regular (\ref {er_numero_capitulo5})\relax }}{98}{figure.caption.87}
\contentsline {figure}{\numberline {5.3.9}{\ignorespaces AFD resultante de la Expresi\IeC {\'o}n Regular $d\cdot d^{*}(\varepsilon +.d\cdot d^{*})+.d\cdot d^{*}$.\relax }}{99}{figure.caption.90}
\contentsline {figure}{\numberline {5.3.10}{\ignorespaces AFD que reconoce s\IeC {\'o}lo a un s\IeC {\'\i }mbolo de $\Sigma _{3} $.\relax }}{100}{figure.caption.92}
\contentsline {figure}{\numberline {5.3.11}{\ignorespaces AFD m\IeC {\'\i }nimo resultante de la Expresi\IeC {\'o}n Regular $l\cdot l^{*}$.\relax }}{101}{figure.caption.93}
\contentsline {figure}{\numberline {5.3.12}{\ignorespaces \IeC {\'A}rboles de derivaci\IeC {\'o}n para la expresi\IeC {\'o}n $a+a*a$ usando la gram\IeC {\'a}tica (\ref {gramatica_op1}), \cite {b4}.\relax }}{107}{figure.caption.103}
\contentsline {figure}{\numberline {5.3.13}{\ignorespaces \IeC {\'A}rbol de derivaci\IeC {\'o}n para la expresi\IeC {\'o}n $a+a*a$ usando la gram\IeC {\'a}tica del teorema (\ref {teorema_gramatica_no_ambigua}).\relax }}{108}{figure.caption.105}
\contentsline {figure}{\numberline {5.3.14}{\ignorespaces Dos \IeC {\'a}rboles de derivaci\IeC {\'o}n correspondientes a la decisi\IeC {\'o}n de iniciar por el s\IeC {\'\i }mbolo no terminal $A$ o $B$.\relax }}{109}{figure.caption.107}
\contentsline {figure}{\numberline {5.3.15}{\ignorespaces $S::=\ T\ \{\ +T\ |\ -T\ \} $\relax }}{114}{figure.caption.114}
\contentsline {figure}{\numberline {5.3.16}{\ignorespaces $T::=\ F\ \{\ *F\ |\ /F\ \} $\relax }}{114}{figure.caption.115}
\contentsline {figure}{\numberline {5.3.17}{\ignorespaces $F::=\ P\ |\ (S)\ |\ -F\ |\ +F$\relax }}{114}{figure.caption.116}
\contentsline {figure}{\numberline {5.3.18}{\ignorespaces $P::=\ num\ |\ id(S)\ |\ var$\relax }}{114}{figure.caption.117}
\contentsline {figure}{\numberline {5.3.19}{\ignorespaces Proceso para almacenar un conjunto de operaciones aritm\IeC {\'e}ticas como una funci\IeC {\'o}n en la estructura de \IeC {\'a}rbol binario.\relax }}{122}{figure.caption.119}
\contentsline {figure}{\numberline {5.4.1}{\ignorespaces Interfaz de usuario usando ninjaMock.\relax }}{123}{figure.caption.120}
\addvspace {10\p@ }
\contentsline {figure}{\numberline {6.1.1}{\ignorespaces Funciones y variables de la clase {\tt Methods}.\relax }}{127}{figure.caption.121}
\contentsline {figure}{\numberline {6.1.2}{\ignorespaces Gram\IeC {\'a}tica libre de contexto.\relax }}{129}{figure.caption.122}
\contentsline {figure}{\numberline {6.1.3}{\ignorespaces Gram\IeC {\'a}tica libre de contexto.\relax }}{129}{figure.caption.123}
\contentsline {figure}{\numberline {6.1.4}{\ignorespaces Como ingresar datos al ejecutar la clase {\tt principal}.\relax }}{130}{figure.caption.124}
\contentsline {figure}{\numberline {6.1.5}{\ignorespaces Resultado de la gr\IeC {\'a}fica en formato PostScript.\relax }}{130}{figure.caption.125}
\contentsline {figure}{\numberline {6.1.6}{\ignorespaces \IeC {\'A}rbol binario correspondiente a la ecuaci\IeC {\'o}n diferencial usando Graphviz.\relax }}{131}{figure.caption.126}
\contentsline {figure}{\numberline {6.1.7}{\ignorespaces Ejemplo de error al ejecutar la clase {\tt principal}.\relax }}{131}{figure.caption.127}
\contentsline {figure}{\numberline {6.1.8}{\ignorespaces Soluci\IeC {\'o}n al PVI usando la terminal.\relax }}{132}{figure.caption.128}
\contentsline {figure}{\numberline {6.1.9}{\ignorespaces Resultado de la gr\IeC {\'a}fica en formato PostScript.\relax }}{132}{figure.caption.129}
\contentsline {figure}{\numberline {6.2.1}{\ignorespaces Formulario de la primera aplicaci\IeC {\'o}n.\relax }}{133}{figure.caption.130}
\contentsline {figure}{\numberline {6.2.2}{\ignorespaces Gr\IeC {\'a}fica correspondiente al formulario de la primera aplicaci\IeC {\'o}n.\relax }}{133}{figure.caption.131}
\contentsline {figure}{\numberline {6.2.3}{\ignorespaces Variables para lanzar aplicaci\IeC {\'o}n y agregar a la memoria.\relax }}{134}{figure.caption.132}
\contentsline {figure}{\numberline {6.2.4}{\ignorespaces Regreso de variables para generar la gr\IeC {\'a}fica.\relax }}{135}{figure.caption.133}
\contentsline {figure}{\numberline {6.2.5}{\ignorespaces Segunda versi\IeC {\'o}n de la interfaz de usuario.\relax }}{135}{figure.caption.134}
\contentsline {figure}{\numberline {6.2.6}{\ignorespaces Funci\IeC {\'o}n que permite reaccionar dependiendo del bot\IeC {\'o}n que es presionado.\relax }}{136}{figure.caption.135}
\contentsline {figure}{\numberline {6.2.7}{\ignorespaces Opciones para el logotipo de la aplicaci\IeC {\'o}n.\relax }}{137}{figure.caption.136}
\contentsline {subfigure}{\numberline {(a)}{\ignorespaces {Dise\IeC {\~n}o 1}}}{137}{subfigure.7.1}
\contentsline {subfigure}{\numberline {(b)}{\ignorespaces {Dise\IeC {\~n}o 2}}}{137}{subfigure.7.2}
\contentsline {subfigure}{\numberline {(c)}{\ignorespaces {Dise\IeC {\~n}o 3}}}{137}{subfigure.7.3}
\contentsline {subfigure}{\numberline {(d)}{\ignorespaces {Dise\IeC {\~n}o 4}}}{137}{subfigure.7.4}
\contentsline {figure}{\numberline {6.2.8}{\ignorespaces Aplicaci\IeC {\'o}n modelo final.\relax }}{137}{figure.caption.137}
\contentsline {subfigure}{\numberline {(a)}{\ignorespaces {Introducci\IeC {\'o}n}}}{137}{subfigure.8.1}
\contentsline {subfigure}{\numberline {(b)}{\ignorespaces {Menu principal}}}{137}{subfigure.8.2}
\contentsline {subfigure}{\numberline {(c)}{\ignorespaces {Solucionador EDO}}}{137}{subfigure.8.3}
\contentsline {subfigure}{\numberline {(d)}{\ignorespaces {Gr\IeC {\'a}fica}}}{137}{subfigure.8.4}
\contentsline {figure}{\numberline {6.2.9}{\ignorespaces Estructura de la animaci\IeC {\'o}n.\relax }}{138}{figure.caption.138}
\contentsline {figure}{\numberline {6.2.10}{\ignorespaces Estructura del men\IeC {\'u}.\relax }}{138}{figure.caption.139}
\contentsline {figure}{\numberline {6.2.11}{\ignorespaces Estructura de la interfaz para graficar.\relax }}{139}{figure.caption.140}
\contentsline {figure}{\numberline {6.3.1}{\ignorespaces Estructura de la animaci\IeC {\'o}n.\relax }}{139}{figure.caption.141}
\contentsline {figure}{\numberline {6.3.2}{\ignorespaces Estructura de la animaci\IeC {\'o}n.\relax }}{140}{figure.caption.142}
\contentsline {figure}{\numberline {6.3.3}{\ignorespaces Estructura del men\IeC {\'u}.\relax }}{140}{figure.caption.143}
\contentsline {figure}{\numberline {6.3.4}{\ignorespaces Estructura del men\IeC {\'u}.\relax }}{141}{figure.caption.144}
\contentsline {figure}{\numberline {6.3.5}{\ignorespaces Estructura del formulario.\relax }}{141}{figure.caption.145}
\contentsline {figure}{\numberline {6.3.6}{\ignorespaces Estructura del formulario.\relax }}{142}{figure.caption.146}
\contentsline {figure}{\numberline {6.3.7}{\ignorespaces Estructura del formulario.\relax }}{143}{figure.caption.147}
\contentsline {figure}{\numberline {6.3.8}{\ignorespaces Estructura del formulario.\relax }}{144}{figure.caption.148}
\contentsline {figure}{\numberline {6.3.9}{\ignorespaces Estructura del formulario.\relax }}{145}{figure.caption.149}
\contentsline {figure}{\numberline {6.3.10}{\ignorespaces Estructura del formulario.\relax }}{146}{figure.caption.150}
\contentsline {figure}{\numberline {6.3.11}{\ignorespaces Estructura del graficador.\relax }}{147}{figure.caption.151}
\contentsline {figure}{\numberline {6.3.12}{\ignorespaces Estructura del graficador.\relax }}{148}{figure.caption.152}
\contentsline {figure}{\numberline {6.3.13}{\ignorespaces Estructura del graficador.\relax }}{149}{figure.caption.153}
\contentsline {figure}{\numberline {6.3.14}{\ignorespaces Estructura del graficador.\relax }}{150}{figure.caption.154}
\contentsline {figure}{\numberline {6.3.15}{\ignorespaces Estructura del graficador.\relax }}{151}{figure.caption.155}
\contentsline {figure}{\numberline {6.3.16}{\ignorespaces Estructura del graficador.\relax }}{152}{figure.caption.156}
\contentsline {figure}{\numberline {6.3.17}{\ignorespaces Estructura del graficador.\relax }}{153}{figure.caption.157}
\contentsline {figure}{\numberline {6.4.1}{\ignorespaces Aplicaci\IeC {\'o}n modelo final.\relax }}{155}{figure.caption.158}
\contentsline {subfigure}{\numberline {(a)}{\ignorespaces {Definici\IeC {\'o}n del PVI}}}{155}{subfigure.1.1}
\contentsline {subfigure}{\numberline {(b)}{\ignorespaces {Funciones Extras}}}{155}{subfigure.1.2}
\contentsline {subfigure}{\numberline {(c)}{\ignorespaces {Gr\IeC {\'a}fica Soluci\IeC {\'o}n}}}{155}{subfigure.1.3}
\contentsline {subfigure}{\numberline {(d)}{\ignorespaces {Zoom de la gr\IeC {\'a}fica}}}{155}{subfigure.1.4}
\contentsline {figure}{\numberline {6.4.2}{\ignorespaces Aplicaci\IeC {\'o}n modelo final.\relax }}{155}{figure.caption.159}
\contentsline {subfigure}{\numberline {(a)}{\ignorespaces {Definici\IeC {\'o}n del PVI}}}{155}{subfigure.2.1}
\contentsline {subfigure}{\numberline {(b)}{\ignorespaces {Ecuaciones Extras}}}{155}{subfigure.2.2}
\contentsline {subfigure}{\numberline {(c)}{\ignorespaces {Gr\IeC {\'a}fica Soluci\IeC {\'o}n}}}{155}{subfigure.2.3}
\contentsline {subfigure}{\numberline {(a)}{\ignorespaces {Definici\IeC {\'o}n del PVI}}}{156}{subfigure.3.1}
\contentsline {subfigure}{\numberline {(b)}{\ignorespaces {Ecuaciones Extras}}}{156}{subfigure.3.2}
\contentsline {subfigure}{\numberline {(c)}{\ignorespaces {Gr\IeC {\'a}fica Soluci\IeC {\'o}n}}}{156}{subfigure.3.3}
\contentsline {subfigure}{\numberline {(a)}{\ignorespaces {Definici\IeC {\'o}n del PVI}}}{156}{subfigure.3.1}
\contentsline {subfigure}{\numberline {(b)}{\ignorespaces {Ecuaciones Extras}}}{156}{subfigure.3.2}
\contentsline {subfigure}{\numberline {(c)}{\ignorespaces {Gr\IeC {\'a}fica Soluci\IeC {\'o}n}}}{156}{subfigure.3.3}
\contentsline {subfigure}{\numberline {(a)}{\ignorespaces {Prueba de Fallos}}}{157}{subfigure.3.1}
\contentsline {subfigure}{\numberline {(b)}{\ignorespaces {Definici\IeC {\'o}n del PVI}}}{157}{subfigure.3.2}
\contentsline {subfigure}{\numberline {(c)}{\ignorespaces {Ecuaciones Extras}}}{157}{subfigure.3.3}
\contentsline {subfigure}{\numberline {(d)}{\ignorespaces {Gr\IeC {\'a}fica Soluci\IeC {\'o}n}}}{157}{subfigure.3.4}
\contentsline {subfigure}{\numberline {(a)}{\ignorespaces {Definici\IeC {\'o}n del PVI}}}{157}{subfigure.3.1}
\contentsline {subfigure}{\numberline {(b)}{\ignorespaces {Ecuaciones Extras}}}{157}{subfigure.3.2}
\contentsline {subfigure}{\numberline {(c)}{\ignorespaces {Gr\IeC {\'a}fica Soluci\IeC {\'o}n}}}{157}{subfigure.3.3}
\contentsline {subfigure}{\numberline {(a)}{\ignorespaces {Definici\IeC {\'o}n del PVI}}}{158}{subfigure.3.1}
\contentsline {subfigure}{\numberline {(b)}{\ignorespaces {Ecuaciones Extras}}}{158}{subfigure.3.2}
\contentsline {subfigure}{\numberline {(c)}{\ignorespaces {Gr\IeC {\'a}fica Soluci\IeC {\'o}n}}}{158}{subfigure.3.3}
\contentsline {subfigure}{\numberline {(a)}{\ignorespaces {Definici\IeC {\'o}n del PVI}}}{158}{subfigure.3.1}
\contentsline {subfigure}{\numberline {(b)}{\ignorespaces {Ecuaciones Extras}}}{158}{subfigure.3.2}
\contentsline {subfigure}{\numberline {(c)}{\ignorespaces {Gr\IeC {\'a}fica Soluci\IeC {\'o}n}}}{158}{subfigure.3.3}
\contentsline {subfigure}{\numberline {(a)}{\ignorespaces {Definici\IeC {\'o}n del PVI}}}{159}{subfigure.3.1}
\contentsline {subfigure}{\numberline {(b)}{\ignorespaces {Ecuaciones Extras}}}{159}{subfigure.3.2}
\contentsline {subfigure}{\numberline {(c)}{\ignorespaces {Gr\IeC {\'a}fica Soluci\IeC {\'o}n}}}{159}{subfigure.3.3}
\contentsline {subfigure}{\numberline {(a)}{\ignorespaces {Definici\IeC {\'o}n del PVI}}}{159}{subfigure.3.1}
\contentsline {subfigure}{\numberline {(b)}{\ignorespaces {Gr\IeC {\'a}fica Soluci\IeC {\'o}n}}}{159}{subfigure.3.2}
\contentsline {subfigure}{\numberline {(a)}{\ignorespaces {Definici\IeC {\'o}n del PVI}}}{160}{subfigure.3.1}
\contentsline {subfigure}{\numberline {(b)}{\ignorespaces {Ecuaciones Extras}}}{160}{subfigure.3.2}
\contentsline {subfigure}{\numberline {(c)}{\ignorespaces {Gr\IeC {\'a}fica Soluci\IeC {\'o}n}}}{160}{subfigure.3.3}
\contentsline {subfigure}{\numberline {(a)}{\ignorespaces {Definici\IeC {\'o}n del PVI}}}{160}{subfigure.3.1}
\contentsline {subfigure}{\numberline {(b)}{\ignorespaces {Ecuaciones Extras}}}{160}{subfigure.3.2}
\contentsline {subfigure}{\numberline {(c)}{\ignorespaces {Gr\IeC {\'a}fica Soluci\IeC {\'o}n}}}{160}{subfigure.3.3}
\contentsline {subfigure}{\numberline {(a)}{\ignorespaces {Definici\IeC {\'o}n del PVI}}}{161}{subfigure.3.1}
\contentsline {subfigure}{\numberline {(b)}{\ignorespaces {Ecuaciones Extras}}}{161}{subfigure.3.2}
\contentsline {subfigure}{\numberline {(c)}{\ignorespaces {Gr\IeC {\'a}fica Soluci\IeC {\'o}n}}}{161}{subfigure.3.3}
\contentsline {subfigure}{\numberline {(d)}{\ignorespaces {Gr\IeC {\'a}fica Extendida}}}{161}{subfigure.3.4}
\contentsline {subfigure}{\numberline {(a)}{\ignorespaces {Definici\IeC {\'o}n del PVI}}}{161}{subfigure.3.1}
\contentsline {subfigure}{\numberline {(b)}{\ignorespaces {Ecuaciones Extras}}}{161}{subfigure.3.2}
\contentsline {subfigure}{\numberline {(c)}{\ignorespaces {Gr\IeC {\'a}fica Soluci\IeC {\'o}n}}}{161}{subfigure.3.3}
\contentsline {subfigure}{\numberline {(a)}{\ignorespaces {Definici\IeC {\'o}n del PVI}}}{162}{subfigure.3.1}
\contentsline {subfigure}{\numberline {(b)}{\ignorespaces {Ecuaciones Extras}}}{162}{subfigure.3.2}
\contentsline {subfigure}{\numberline {(c)}{\ignorespaces {Gr\IeC {\'a}fica Soluci\IeC {\'o}n}}}{162}{subfigure.3.3}
\contentsline {subfigure}{\numberline {(a)}{\ignorespaces {Definici\IeC {\'o}n del PVI}}}{162}{subfigure.3.1}
\contentsline {subfigure}{\numberline {(b)}{\ignorespaces {Ecuaciones Extras}}}{162}{subfigure.3.2}
\contentsline {subfigure}{\numberline {(c)}{\ignorespaces {Gr\IeC {\'a}fica Soluci\IeC {\'o}n}}}{162}{subfigure.3.3}
\addvspace {10\p@ }
\addvspace {10\p@ }
