\babel@toc {spanish}{}
\addvspace {10\p@ }
\addvspace {10\p@ }
\addvspace {10\p@ }
\contentsline {table}{\numberline {3.4.1}{\ignorespaces M\IeC {\'e}todos Num\IeC {\'e}ricos de un paso.\relax }}{19}{table.caption.7}
\contentsline {table}{\numberline {3.5.1}{\ignorespaces Tabla de resultados para el m\IeC {\'e}todo de Taylor de orden dos para el ejemplo (\ref {ejemplo_capitulo4_1}).\relax }}{32}{table.caption.14}
\contentsline {table}{\numberline {3.6.1}{\ignorespaces Tabla de resultados para el m\IeC {\'e}todo de Euler expl\IeC {\'\i }cito.\relax }}{36}{table.caption.18}
\contentsline {table}{\numberline {3.6.2}{\ignorespaces Tabla de resultados para el m\IeC {\'e}todo de Euler impl\IeC {\'\i }cito.\relax }}{41}{table.caption.21}
\contentsline {table}{\numberline {3.7.1}{\ignorespaces Tabla de resultados para el m\IeC {\'e}todo de Runge Kutta de orden dos.\relax }}{46}{table.caption.23}
\addvspace {10\p@ }
\contentsline {table}{\numberline {4.3.1}{\ignorespaces Porcentaje de uso de versiones de Android en 2018.\relax }}{65}{table.caption.38}
\addvspace {10\p@ }
\contentsline {table}{\numberline {5.3.1}{\ignorespaces Tabla de s\IeC {\'\i }mbolos \cite {b5}.\relax }}{85}{table.caption.57}
\contentsline {table}{\numberline {5.3.2}{\ignorespaces Expresiones regulares para el analizador l\IeC {\'e}xico.\relax }}{87}{table.caption.59}
\contentsline {table}{\numberline {5.3.3}{\ignorespaces Ejemplo de comportamiento de la funci\IeC {\'o}n de transici\IeC {\'o}n extendida para la palabra $baba$ correspondiente al ejemplo \ref {ejemplo2_capitulo5}.\relax }}{90}{table.caption.66}
\contentsline {table}{\numberline {5.3.4}{\ignorespaces Ejemplo de comportamiento de la funci\IeC {\'o}n de transici\IeC {\'o}n extendida para la palabra $baba$ correspondiente al ejemplo \ref {ejemplo3_capitulo5}.\relax }}{92}{table.caption.70}
\addvspace {10\p@ }
\addvspace {10\p@ }
\addvspace {10\p@ }
