# Created by Octave 4.0.0, Thu Mar 29 18:16:56 2018 CST <fernandod@fernandod-Lenovo-G560e>
# name: M
# type: matrix
# rows: 51
# columns: 2
 0 1
 0.1 1.0073877278125
 0.2 1.026231916101066
 0.3 1.055031770056758
 0.4 1.092506132132598
 0.5 1.137461845331189
 0.6000000000000001 1.188694965356478
 0.7000000000000001 1.244918259734018
 0.8 1.304712351417535
 0.9 1.366500161967731
 1 1.428545320921865
 1.1 1.488975120543516
 1.2 1.545827565192263
 1.3 1.597120295916443
 1.4 1.640936956159273
 1.5 1.675524287919125
 1.6 1.699391349271032
 1.7 1.711401151191182
 1.8 1.710845053259024
 1.9 1.697491584207887
 2 1.671603883957569
 2.1 1.633923383739618
 2.2 1.585621151722812
 2.3 1.52822194792931
 2.4 1.46350890209512
 2.5 1.393418445073927
 2.6 1.319935504544577
 2.7 1.244998081084036
 2.8 1.170418426424613
 2.9 1.097825565795657
 3 1.02863129904681
 3.1 0.9640194958444931
 3.2 0.9049567789264497
 3.3 0.8522217470609281
 3.4 0.80644978988895
 3.5 0.7681912798614497
 3.6 0.7379824713589793
 3.7 0.7164308428120375
 3.8 0.7043201029533921
 3.9 0.7027451760001335
 4 0.7132952490413671
 4.100000000000001 0.7383154229027041
 4.2 0.7812984027902661
 4.3 0.8474940258836183
 4.4 0.94488969089649
 4.5 1.08583526635165
 4.600000000000001 1.28981481375003
 4.7 1.588314203570728
 4.800000000000001 2.033632468451388
 4.9 2.715350537340714
 5 3.792174960835415


