# Created by Octave 4.0.0, Sun Jun 10 16:05:37 2018 CDT <fernandod@fernandod-Lenovo-G560e>
# name: M1
# type: matrix
# rows: 11
# columns: 2
 0 1
 0.5 1.1711931953125
 1 1.499467414111363
 1.5 1.799422105662063
 2 1.812671844575927
 2.5 1.480883803065957
 3 1.054177087792904
 3.5 0.7697238804047439
 4 0.6990133539848923
 4.5 0.9642344479299245
 5 2.44011498810312


