# Created by Octave 4.0.0, Sat Mar 31 23:05:08 2018 CST <fernandod@fernandod-Lenovo-G560e>
# name: M
# type: matrix
# rows: 51
# columns: 2
 0 1
 0.1 1.013170685229564
 0.2 1.024445067584395
 0.3 1.046550433880607
 0.4 1.0778680786166
 0.5 1.117012853671136
 0.6000000000000001 1.162698802028056
 0.7000000000000001 1.213644181805058
 0.8 1.268506239638251
 0.9 1.325840897911359
 1 1.384085214105797
 1.1 1.441561723871295
 1.2 1.496503969078964
 1.3 1.547101889666074
 1.4 1.59156454633935
 1.5 1.6281960856031
 1.6 1.655479244538228
 1.7 1.672159334391376
 1.8 1.67732084728068
 1.9 1.670448850601848
 2 1.651468310075829
 2.1 1.620756402794027
 2.2 1.579125563510248
 2.3 1.527778114871653
 2.4 1.468236429054078
 2.5 1.402255197975534
 2.6 1.331724165121057
 2.7 1.258570354737213
 2.8 1.184668378484279
 2.9 1.111765958130526
 3 1.041429687341428
 3.1 0.9750136680180059
 3.2 0.9136514090394994
 3.3 0.8582696200223596
 3.4 0.8096215198338125
 3.5 0.7683371503873511
 3.6 0.7349890041560617
 3.7 0.7101730888754524
 3.8 0.694608497002041
 3.9 0.6892629676696999
 4 0.6955185852329726
 4.100000000000001 0.7154021514969879
 4.2 0.751921731033634
 4.3 0.8095796960500108
 4.4 0.8951832812679903
 4.5 1.019165411989129
 4.600000000000001 1.197799191345994
 4.7 1.457015192734907
 4.800000000000001 1.839169558215601
 4.9 2.415398980443022
 5 3.308871468519363


