%!PS-Adobe-3.0 EPSF-3.0
%%Title: /home/fernando/Desktop/ts_new/imagenes/be_graph.eps
%%Creator: matplotlib version 2.1.1, http://matplotlib.org/
%%CreationDate: Mon Jan 20 10:19:46 2020
%%Orientation: portrait
%%BoundingBox: -161 151 773 640
%%EndComments
%%BeginProlog
/mpldict 8 dict def
mpldict begin
/m { moveto } bind def
/l { lineto } bind def
/r { rlineto } bind def
/c { curveto } bind def
/cl { closepath } bind def
/box {
m
1 index 0 r
0 exch r
neg 0 r
cl
} bind def
/clipbox {
box
clip
newpath
} bind def
%!PS-Adobe-3.0 Resource-Font
%%Title: DejaVu Sans
%%Copyright: Copyright (c) 2003 by Bitstream, Inc. All Rights Reserved. Copyright (c) 2006 by Tavmjong Bah. All Rights Reserved. DejaVu changes are in public domain 
%%Creator: Converted from TrueType to type 3 by PPR
25 dict begin
/_d{bind def}bind def
/_m{moveto}_d
/_l{lineto}_d
/_cl{closepath eofill}_d
/_c{curveto}_d
/_sc{7 -1 roll{setcachedevice}{pop pop pop pop pop pop}ifelse}_d
/_e{exec}_d
/FontName /DejaVuSans def
/PaintType 0 def
/FontMatrix[.001 0 0 .001 0 0]def
/FontBBox[-1021 -463 1793 1232]def
/FontType 3 def
/Encoding [ /parenleft /parenright /period /zero /one /two /three /four /five /six /seven /equal /Y /h /t ] def
/FontInfo 10 dict dup begin
/FamilyName (DejaVu Sans) def
/FullName (DejaVu Sans) def
/Notice (Copyright (c) 2003 by Bitstream, Inc. All Rights Reserved. Copyright (c) 2006 by Tavmjong Bah. All Rights Reserved. DejaVu changes are in public domain ) def
/Weight (Book) def
/Version (Version 2.35) def
/ItalicAngle 0.0 def
/isFixedPitch false def
/UnderlinePosition -130 def
/UnderlineThickness 90 def
end readonly def
/CharStrings 16 dict dup begin
/.notdef 0 def
/parenleft{390 0 86 -131 310 759 _sc
310 759 _m
266 683 234 609 213 536 _c
191 463 181 389 181 314 _c
181 238 191 164 213 91 _c
234 17 266 -56 310 -131 _c
232 -131 _l
183 -54 146 20 122 94 _c
98 168 86 241 86 314 _c
86 386 98 459 122 533 _c
146 607 182 682 232 759 _c
310 759 _l
_cl}_d
/parenright{390 0 80 -131 304 759 _sc
80 759 _m
158 759 _l
206 682 243 607 267 533 _c
291 459 304 386 304 314 _c
304 241 291 168 267 94 _c
243 20 206 -54 158 -131 _c
80 -131 _l
123 -56 155 17 177 91 _c
198 164 209 238 209 314 _c
209 389 198 463 177 536 _c
155 609 123 683 80 759 _c
_cl}_d
/period{318 0 107 0 210 124 _sc
107 124 _m
210 124 _l
210 0 _l
107 0 _l
107 124 _l
_cl}_d
/zero{636 0 66 -13 570 742 _sc
318 664 _m
267 664 229 639 203 589 _c
177 539 165 464 165 364 _c
165 264 177 189 203 139 _c
229 89 267 64 318 64 _c
369 64 407 89 433 139 _c
458 189 471 264 471 364 _c
471 464 458 539 433 589 _c
407 639 369 664 318 664 _c
318 742 _m
399 742 461 709 505 645 _c
548 580 570 486 570 364 _c
570 241 548 147 505 83 _c
461 19 399 -13 318 -13 _c
236 -13 173 19 130 83 _c
87 147 66 241 66 364 _c
66 486 87 580 130 645 _c
173 709 236 742 318 742 _c
_cl}_d
/one{636 0 110 0 544 729 _sc
124 83 _m
285 83 _l
285 639 _l
110 604 _l
110 694 _l
284 729 _l
383 729 _l
383 83 _l
544 83 _l
544 0 _l
124 0 _l
124 83 _l
_cl}_d
/two{{636 0 73 0 536 742 _sc
192 83 _m
536 83 _l
536 0 _l
73 0 _l
73 83 _l
110 121 161 173 226 239 _c
290 304 331 346 348 365 _c
380 400 402 430 414 455 _c
426 479 433 504 433 528 _c
433 566 419 598 392 622 _c
365 646 330 659 286 659 _c
255 659 222 653 188 643 _c
154 632 117 616 78 594 _c
78 694 _l
118 710 155 722 189 730 _c
223 738 255 742 284 742 _c
}_e{359 742 419 723 464 685 _c
509 647 532 597 532 534 _c
532 504 526 475 515 449 _c
504 422 484 390 454 354 _c
446 344 420 317 376 272 _c
332 227 271 164 192 83 _c
_cl}_e}_d
/three{{636 0 76 -13 556 742 _sc
406 393 _m
453 383 490 362 516 330 _c
542 298 556 258 556 212 _c
556 140 531 84 482 45 _c
432 6 362 -13 271 -13 _c
240 -13 208 -10 176 -4 _c
144 1 110 10 76 22 _c
76 117 _l
103 101 133 89 166 81 _c
198 73 232 69 268 69 _c
330 69 377 81 409 105 _c
441 129 458 165 458 212 _c
458 254 443 288 413 312 _c
383 336 341 349 287 349 _c
}_e{202 349 _l
202 430 _l
291 430 _l
339 430 376 439 402 459 _c
428 478 441 506 441 543 _c
441 580 427 609 401 629 _c
374 649 336 659 287 659 _c
260 659 231 656 200 650 _c
169 644 135 635 98 623 _c
98 711 _l
135 721 170 729 203 734 _c
235 739 266 742 296 742 _c
370 742 429 725 473 691 _c
517 657 539 611 539 553 _c
539 513 527 479 504 451 _c
481 423 448 403 406 393 _c
_cl}_e}_d
/four{636 0 49 0 580 729 _sc
378 643 _m
129 254 _l
378 254 _l
378 643 _l
352 729 _m
476 729 _l
476 254 _l
580 254 _l
580 172 _l
476 172 _l
476 0 _l
378 0 _l
378 172 _l
49 172 _l
49 267 _l
352 729 _l
_cl}_d
/five{{636 0 77 -13 549 729 _sc
108 729 _m
495 729 _l
495 646 _l
198 646 _l
198 467 _l
212 472 227 476 241 478 _c
255 480 270 482 284 482 _c
365 482 429 459 477 415 _c
525 370 549 310 549 234 _c
549 155 524 94 475 51 _c
426 8 357 -13 269 -13 _c
238 -13 207 -10 175 -6 _c
143 -1 111 6 77 17 _c
77 116 _l
106 100 136 88 168 80 _c
199 72 232 69 267 69 _c
}_e{323 69 368 83 401 113 _c
433 143 450 183 450 234 _c
450 284 433 324 401 354 _c
368 384 323 399 267 399 _c
241 399 214 396 188 390 _c
162 384 135 375 108 363 _c
108 729 _l
_cl}_e}_d
/six{{636 0 70 -13 573 742 _sc
330 404 _m
286 404 251 388 225 358 _c
199 328 186 286 186 234 _c
186 181 199 139 225 109 _c
251 79 286 64 330 64 _c
374 64 409 79 435 109 _c
461 139 474 181 474 234 _c
474 286 461 328 435 358 _c
409 388 374 404 330 404 _c
526 713 _m
526 623 _l
501 635 476 644 451 650 _c
425 656 400 659 376 659 _c
310 659 260 637 226 593 _c
}_e{192 549 172 482 168 394 _c
187 422 211 444 240 459 _c
269 474 301 482 336 482 _c
409 482 467 459 509 415 _c
551 371 573 310 573 234 _c
573 159 550 99 506 54 _c
462 9 403 -13 330 -13 _c
246 -13 181 19 137 83 _c
92 147 70 241 70 364 _c
70 479 97 571 152 639 _c
206 707 280 742 372 742 _c
396 742 421 739 447 735 _c
472 730 498 723 526 713 _c
_cl}_e}_d
/seven{636 0 82 0 551 729 _sc
82 729 _m
551 729 _l
551 687 _l
286 0 _l
183 0 _l
432 646 _l
82 646 _l
82 729 _l
_cl}_d
/equal{838 0 106 172 732 454 _sc
106 454 _m
732 454 _l
732 372 _l
106 372 _l
106 454 _l
106 255 _m
732 255 _l
732 172 _l
106 172 _l
106 255 _l
_cl}_d
/Y{611 0 -1 0 613 729 _sc
-1 729 _m
104 729 _l
306 429 _l
507 729 _l
613 729 _l
355 347 _l
355 0 _l
256 0 _l
256 347 _l
-1 729 _l
_cl}_d
/h{634 0 91 0 549 760 _sc
549 330 _m
549 0 _l
459 0 _l
459 327 _l
459 379 448 417 428 443 _c
408 469 378 482 338 482 _c
289 482 251 466 223 435 _c
195 404 181 362 181 309 _c
181 0 _l
91 0 _l
91 760 _l
181 760 _l
181 462 _l
202 494 227 519 257 535 _c
286 551 320 560 358 560 _c
420 560 468 540 500 501 _c
532 462 549 405 549 330 _c
_cl}_d
/t{392 0 27 0 368 702 _sc
183 702 _m
183 547 _l
368 547 _l
368 477 _l
183 477 _l
183 180 _l
183 135 189 106 201 94 _c
213 81 238 75 276 75 _c
368 75 _l
368 0 _l
276 0 _l
206 0 158 13 132 39 _c
106 65 93 112 93 180 _c
93 477 _l
27 477 _l
27 547 _l
93 547 _l
93 702 _l
183 702 _l
_cl}_d
end readonly def

/BuildGlyph
 {exch begin
 CharStrings exch
 2 copy known not{pop /.notdef}if
 true 3 1 roll get exec
 end}_d

/BuildChar {
 1 index /Encoding get exch get
 1 index /BuildGlyph get exec
}_d

FontName currentdict end definefont pop
end
%%EndProlog
mpldict begin
-161.64 151.56 translate
935.28 488.88 0 0 clipbox
gsave
0 0 m
935.28 0 l
935.28 488.88 l
0 488.88 l
cl
1.000 setgray
fill
grestore
gsave
42.310286 43.068 m
919.692 43.068 l
919.692 469.092 l
42.310286 469.092 l
cl
1.000 setgray
fill
grestore
0.800 setlinewidth
1 setlinejoin
0 setlinecap
[] 0 setdash
0.000 setgray
gsave
/o {
gsave
newpath
translate
0.8 setlinewidth
1 setlinejoin
0 setlinecap
0 0 m
0 -3.5 l

gsave
0.000 setgray
fill
grestore
stroke
grestore
} bind def
82.1913 43.068 o
grestore
/DejaVuSans findfont
10.000 scalefont
setfont
gsave
79.011585 28.474250 translate
0.000000 rotate
0.000000 0.000000 m /zero glyphshow
grestore
gsave
/o {
gsave
newpath
translate
0.8 setlinewidth
1 setlinejoin
0 setlinecap
0 0 m
0 -3.5 l

gsave
0.000 setgray
fill
grestore
stroke
grestore
} bind def
241.715 43.068 o
grestore
gsave
238.535533 28.474250 translate
0.000000 rotate
0.000000 0.000000 m /one glyphshow
grestore
gsave
/o {
gsave
newpath
translate
0.8 setlinewidth
1 setlinejoin
0 setlinecap
0 0 m
0 -3.5 l

gsave
0.000 setgray
fill
grestore
stroke
grestore
} bind def
401.239 43.068 o
grestore
gsave
398.059481 28.474250 translate
0.000000 rotate
0.000000 0.000000 m /two glyphshow
grestore
gsave
/o {
gsave
newpath
translate
0.8 setlinewidth
1 setlinejoin
0 setlinecap
0 0 m
0 -3.5 l

gsave
0.000 setgray
fill
grestore
stroke
grestore
} bind def
560.763 43.068 o
grestore
gsave
557.583429 28.474250 translate
0.000000 rotate
0.000000 0.000000 m /three glyphshow
grestore
gsave
/o {
gsave
newpath
translate
0.8 setlinewidth
1 setlinejoin
0 setlinecap
0 0 m
0 -3.5 l

gsave
0.000 setgray
fill
grestore
stroke
grestore
} bind def
720.287 43.068 o
grestore
gsave
717.107377 28.474250 translate
0.000000 rotate
0.000000 0.000000 m /four glyphshow
grestore
gsave
/o {
gsave
newpath
translate
0.8 setlinewidth
1 setlinejoin
0 setlinecap
0 0 m
0 -3.5 l

gsave
0.000 setgray
fill
grestore
stroke
grestore
} bind def
879.811 43.068 o
grestore
gsave
876.631325 28.474250 translate
0.000000 rotate
0.000000 0.000000 m /five glyphshow
grestore
gsave
479.040205 14.802375 translate
0.000000 rotate
0.000000 0.000000 m /t glyphshow
grestore
gsave
/o {
gsave
newpath
translate
0.8 setlinewidth
1 setlinejoin
0 setlinecap
0 0 m
-3.5 0 l

gsave
0.000 setgray
fill
grestore
stroke
grestore
} bind def
42.3103 80.6998 o
grestore
gsave
28.950911 76.902953 translate
0.000000 rotate
0.000000 0.000000 m /one glyphshow
grestore
gsave
/o {
gsave
newpath
translate
0.8 setlinewidth
1 setlinejoin
0 setlinecap
0 0 m
-3.5 0 l

gsave
0.000 setgray
fill
grestore
stroke
grestore
} bind def
42.3103 142.204 o
grestore
gsave
28.950911 138.407527 translate
0.000000 rotate
0.000000 0.000000 m /two glyphshow
grestore
gsave
/o {
gsave
newpath
translate
0.8 setlinewidth
1 setlinejoin
0 setlinecap
0 0 m
-3.5 0 l

gsave
0.000 setgray
fill
grestore
stroke
grestore
} bind def
42.3103 203.709 o
grestore
gsave
28.950911 199.912102 translate
0.000000 rotate
0.000000 0.000000 m /three glyphshow
grestore
gsave
/o {
gsave
newpath
translate
0.8 setlinewidth
1 setlinejoin
0 setlinecap
0 0 m
-3.5 0 l

gsave
0.000 setgray
fill
grestore
stroke
grestore
} bind def
42.3103 265.214 o
grestore
gsave
28.950911 261.416676 translate
0.000000 rotate
0.000000 0.000000 m /four glyphshow
grestore
gsave
/o {
gsave
newpath
translate
0.8 setlinewidth
1 setlinejoin
0 setlinecap
0 0 m
-3.5 0 l

gsave
0.000 setgray
fill
grestore
stroke
grestore
} bind def
42.3103 326.718 o
grestore
gsave
28.950911 322.921250 translate
0.000000 rotate
0.000000 0.000000 m /five glyphshow
grestore
gsave
/o {
gsave
newpath
translate
0.8 setlinewidth
1 setlinejoin
0 setlinecap
0 0 m
-3.5 0 l

gsave
0.000 setgray
fill
grestore
stroke
grestore
} bind def
42.3103 388.223 o
grestore
gsave
28.950911 384.425824 translate
0.000000 rotate
0.000000 0.000000 m /six glyphshow
grestore
gsave
/o {
gsave
newpath
translate
0.8 setlinewidth
1 setlinejoin
0 setlinecap
0 0 m
-3.5 0 l

gsave
0.000 setgray
fill
grestore
stroke
grestore
} bind def
42.3103 449.727 o
grestore
gsave
28.950911 445.930398 translate
0.000000 rotate
0.000000 0.000000 m /seven glyphshow
grestore
gsave
22.872786 253.025313 translate
90.000000 rotate
0.000000 0.000000 m /Y glyphshow
grestore
1.000 setlinewidth
gsave
877.4 426 42.31 43.07 clipbox
/o {
gsave
newpath
translate
1.0 setlinewidth
1 setlinejoin
0 setlinecap
0 -2.5 m
0.663008 -2.5 1.29895 -2.236584 1.767767 -1.767767 c
2.236584 -1.29895 2.5 -0.663008 2.5 0 c
2.5 0.663008 2.236584 1.29895 1.767767 1.767767 c
1.29895 2.236584 0.663008 2.5 0 2.5 c
-0.663008 2.5 -1.29895 2.236584 -1.767767 1.767767 c
-2.236584 1.29895 -2.5 0.663008 -2.5 0 c
-2.5 -0.663008 -2.236584 -1.29895 -1.767767 -1.767767 c
-1.29895 -2.236584 -0.663008 -2.5 0 -2.5 c
cl

gsave
0.000 setgray
fill
grestore
stroke
grestore
} bind def
82.1913 80.6998 o
161.953 97.1911 o
241.715 118.474 o
321.477 127.957 o
401.239 118.509 o
481.001 98.1687 o
560.763 78.7922 o
640.525 67.9329 o
720.287 74.8556 o
800.049 266.374 o
800.091 449.727 o
grestore
0.502 setgray
gsave
877.4 426 42.31 43.07 clipbox
/o {
gsave
newpath
translate
1.0 setlinewidth
1 setlinejoin
0 setlinecap
-5 -5 m
5 5 l
-5 5 m
5 -5 l

gsave
0.502 setgray
fill
grestore
stroke
grestore
} bind def
82.1913 80.6998 o
98.1437 81.5099 o
114.096 82.9901 o
130.048 85.0586 o
146.001 87.6408 o
161.953 90.663 o
177.906 94.0468 o
193.858 97.7059 o
209.81 101.544 o
225.763 105.453 o
241.715 109.317 o
257.668 113.012 o
273.62 116.413 o
289.572 119.397 o
305.525 121.849 o
321.477 123.67 o
337.43 124.784 o
353.382 125.137 o
369.334 124.707 o
385.287 123.5 o
401.239 121.553 o
417.192 118.928 o
433.144 115.711 o
449.096 112.002 o
465.049 107.917 o
481.001 103.57 o
496.954 99.0797 o
512.906 94.5554 o
528.858 90.0987 o
544.811 85.7987 o
560.763 81.7322 o
576.716 77.9634 o
592.668 74.5452 o
608.62 71.5215 o
624.573 68.9307 o
640.525 66.8089 o
656.477 65.1955 o
672.43 64.1391 o
688.382 63.7057 o
704.335 63.9902 o
720.287 65.1328 o
736.239 67.3458 o
752.192 70.9546 o
768.144 76.4693 o
784.097 84.7087 o
800.049 97.0288 o
816.001 115.759 o
831.954 145.081 o
847.906 192.899 o
863.859 275.077 o
879.811 425.789 o
grestore
0.000 setgray
gsave
877.4 426 42.31 43.07 clipbox
/o {
gsave
newpath
translate
1.0 setlinewidth
1 setlinejoin
0 setlinecap
0 0 m
0 -5 l
0 0 m
4 2.5 l
0 0 m
-4 2.5 l

gsave
0.000 setgray
fill
grestore
stroke
grestore
} bind def
82.1913 80.6998 o
90.1675 80.9193 o
98.1437 81.3231 o
106.12 81.8986 o
114.096 82.6346 o
122.072 83.5205 o
130.048 84.5467 o
138.025 85.7037 o
146.001 86.9824 o
153.977 88.3735 o
161.953 89.8677 o
169.929 91.4554 o
177.906 93.1265 o
185.882 94.8703 o
193.858 96.6744 o
201.834 98.5286 o
209.81 100.42 o
217.787 102.337 o
225.763 104.264 o
233.739 106.188 o
241.715 108.095 o
249.691 109.968 o
257.668 111.792 o
265.644 113.552 o
273.62 115.232 o
281.596 116.817 o
289.572 118.292 o
297.549 119.643 o
305.525 120.858 o
313.501 121.922 o
321.477 122.826 o
329.453 123.558 o
337.43 124.112 o
345.406 124.479 o
353.382 124.655 o
361.358 124.636 o
369.334 124.421 o
377.311 124.012 o
385.287 123.409 o
393.263 122.617 o
401.239 121.642 o
409.215 120.493 o
417.192 119.177 o
425.168 117.706 o
433.144 116.091 o
441.12 114.345 o
449.096 112.481 o
457.073 110.514 o
465.049 108.459 o
473.025 106.33 o
481.001 104.14 o
488.977 101.907 o
496.954 99.6453 o
504.93 97.3684 o
512.906 95.0902 o
520.882 92.8236 o
528.858 90.5808 o
536.835 88.3733 o
544.811 86.2115 o
552.787 84.1052 o
560.763 82.0612 o
568.739 80.0895 o
576.716 78.1975 o
584.692 76.3919 o
592.668 74.6785 o
600.644 73.063 o
608.62 71.5502 o
616.596 70.1449 o
624.573 68.8515 o
632.549 67.6742 o
640.525 66.6175 o
648.501 65.686 o
656.477 64.8848 o
664.454 64.2194 o
672.43 63.6964 o
680.406 63.3234 o
688.382 63.1096 o
696.358 63.0659 o
704.335 63.2056 o
712.311 63.5449 o
720.287 64.1034 o
728.263 64.9053 o
736.239 65.9803 o
744.216 67.3649 o
752.192 69.1044 o
760.168 71.255 o
768.144 73.8869 o
776.12 77.0883 o
784.097 80.9705 o
792.073 85.6747 o
800.049 91.3878 o
808.025 98.341 o
816.001 106.84 o
823.978 117.286 o
831.954 130.212 o
839.93 146.331 o
847.906 166.622 o
855.882 192.409 o
863.859 225.54 o
871.835 268.614 o
879.811 325.354 o
grestore
0.800 setlinewidth
2 setlinecap
gsave
877.4 426 42.31 43.07 clipbox
82.191273 80.699828 m
98.143668 81.133048 l
114.096062 82.275241 l
130.048457 84.031808 l
146.000852 86.322335 l
161.953247 89.072254 l
177.905642 92.206651 l
193.858036 95.64576 l
209.810431 99.301958 l
225.762826 103.078219 l
241.715221 106.868041 l
257.667616 110.556881 l
273.62001 114.025039 l
289.572405 117.151857 l
305.5248 119.82094 l
321.477195 121.92601 l
337.42959 123.376856 l
353.381984 124.104804 l
369.334379 124.067148 l
385.286774 123.25004 l
401.239169 121.669504 l
417.191564 119.370444 l
433.143958 116.423722 l
449.096353 112.921621 l
465.048748 108.97214 l
481.001143 104.692704 l
496.953538 100.203873 l
512.905932 95.623593 l
528.858327 91.062424 l
544.810722 86.62003 l
560.763117 82.383074 l
576.715512 78.424507 l
592.667906 74.80417 l
608.620301 71.570525 l
624.572696 68.763358 l
640.525091 66.417333 l
656.477486 64.566364 l
672.429881 63.248919 l
688.382275 62.51461 l
704.33467 62.432727 l
720.287065 63.103914 l
736.23946 64.676977 l
752.191855 67.374269 l
768.144249 71.53152 l
784.096644 77.66255 l
800.049039 86.567729 l
816.001434 99.521431 l
831.953829 118.606331 l
847.906223 147.329633 l
863.858618 191.799702 l
879.811013 263.059463 l
stroke
grestore
0 setlinejoin
[] 0 setdash
gsave
42.310286 43.068 m
42.310286 469.092 l
stroke
grestore
gsave
919.692 43.068 m
919.692 469.092 l
stroke
grestore
gsave
42.310286 43.068 m
919.692 43.068 l
stroke
grestore
gsave
42.310286 469.092 m
919.692 469.092 l
stroke
grestore
1.000 setlinewidth
0 setlinecap
0.800 setgray
gsave
52.810286 369.0295 m
156.294661 369.0295 l
158.294661 369.0295 159.294661 370.0295 159.294661 372.0295 c
159.294661 458.592 l
159.294661 460.592 158.294661 461.592 156.294661 461.592 c
52.810286 461.592 l
50.810286 461.592 49.810286 460.592 49.810286 458.592 c
49.810286 372.0295 l
49.810286 370.0295 50.810286 369.0295 52.810286 369.0295 c
cl
gsave
1.000 setgray
fill
grestore
stroke
grestore
1 setlinejoin
[] 0 setdash
0.000 setgray
gsave
/o {
gsave
newpath
translate
1.0 setlinewidth
1 setlinejoin
0 setlinecap
0 -2.5 m
0.663008 -2.5 1.29895 -2.236584 1.767767 -1.767767 c
2.236584 -1.29895 2.5 -0.663008 2.5 0 c
2.5 0.663008 2.236584 1.29895 1.767767 1.767767 c
1.29895 2.236584 0.663008 2.5 0 2.5 c
-0.663008 2.5 -1.29895 2.236584 -1.767767 1.767767 c
-2.236584 1.29895 -2.5 0.663008 -2.5 0 c
-2.5 -0.663008 -2.236584 -1.29895 -1.767767 -1.767767 c
-1.29895 -2.236584 -0.663008 -2.5 0 -2.5 c
cl

gsave
0.000 setgray
fill
grestore
stroke
grestore
} bind def
70.8103 449.451 o
grestore
/DejaVuSans findfont
15.000 scalefont
setfont
gsave
97.810286 444.201375 translate
0.000000 rotate
0.000000 0.000000 m /h glyphshow
9.506836 0.000000 m /equal glyphshow
22.075195 0.000000 m /zero glyphshow
31.618652 0.000000 m /period glyphshow
36.386719 0.000000 m /five glyphshow
grestore
0.502 setgray
gsave
/o {
gsave
newpath
translate
1.0 setlinewidth
1 setlinejoin
0 setlinecap
-5 -5 m
5 5 l
-5 5 m
5 -5 l

gsave
0.502 setgray
fill
grestore
stroke
grestore
} bind def
70.8103 427.436 o
grestore
0.000 setgray
gsave
97.810286 422.185750 translate
0.000000 rotate
0.000000 0.000000 m /h glyphshow
9.506836 0.000000 m /equal glyphshow
22.075195 0.000000 m /zero glyphshow
31.618652 0.000000 m /period glyphshow
36.386719 0.000000 m /one glyphshow
grestore
gsave
/o {
gsave
newpath
translate
1.0 setlinewidth
1 setlinejoin
0 setlinecap
0 0 m
0 -5 l
0 0 m
4 2.5 l
0 0 m
-4 2.5 l

gsave
0.000 setgray
fill
grestore
stroke
grestore
} bind def
70.8103 405.42 o
grestore
gsave
97.810286 400.170125 translate
0.000000 rotate
0.000000 0.000000 m /h glyphshow
9.506836 0.000000 m /equal glyphshow
22.075195 0.000000 m /zero glyphshow
31.618652 0.000000 m /period glyphshow
36.386719 0.000000 m /zero glyphshow
45.930176 0.000000 m /five glyphshow
grestore
0.800 setlinewidth
2 setlinecap
gsave
55.810286 383.4045 m
85.810286 383.4045 l
stroke
grestore
gsave
97.810286 378.154500 translate
0.000000 rotate
0.000000 0.000000 m /Y glyphshow
9.162598 0.000000 m /parenleft glyphshow
15.014648 0.000000 m /t glyphshow
20.895996 0.000000 m /parenright glyphshow
grestore

end
showpage
