%!PS-Adobe-3.0 EPSF-3.0
%%Title: /home/fernando/Desktop/ts_new/imagenes/ec_cuad.eps
%%Creator: matplotlib version 2.1.1, http://matplotlib.org/
%%CreationDate: Wed Jan 22 19:24:45 2020
%%Orientation: portrait
%%BoundingBox: 75 223 536 568
%%EndComments
%%BeginProlog
/mpldict 9 dict def
mpldict begin
/m { moveto } bind def
/l { lineto } bind def
/r { rlineto } bind def
/c { curveto } bind def
/cl { closepath } bind def
/box {
m
1 index 0 r
0 exch r
neg 0 r
cl
} bind def
/clipbox {
box
clip
newpath
} bind def
%!PS-Adobe-3.0 Resource-Font
%%Title: DejaVu Sans
%%Copyright: Copyright (c) 2003 by Bitstream, Inc. All Rights Reserved. Copyright (c) 2006 by Tavmjong Bah. All Rights Reserved. DejaVu changes are in public domain 
%%Creator: Converted from TrueType to type 3 by PPR
25 dict begin
/_d{bind def}bind def
/_m{moveto}_d
/_l{lineto}_d
/_cl{closepath eofill}_d
/_c{curveto}_d
/_sc{7 -1 roll{setcachedevice}{pop pop pop pop pop pop}ifelse}_d
/_e{exec}_d
/FontName /DejaVuSans def
/PaintType 0 def
/FontMatrix[.001 0 0 .001 0 0]def
/FontBBox[-1021 -463 1793 1232]def
/FontType 3 def
/Encoding [ /plus /period /zero /one /two /three /four /five /seven /Y /t /minus ] def
/FontInfo 10 dict dup begin
/FamilyName (DejaVu Sans) def
/FullName (DejaVu Sans) def
/Notice (Copyright (c) 2003 by Bitstream, Inc. All Rights Reserved. Copyright (c) 2006 by Tavmjong Bah. All Rights Reserved. DejaVu changes are in public domain ) def
/Weight (Book) def
/Version (Version 2.35) def
/ItalicAngle 0.0 def
/isFixedPitch false def
/UnderlinePosition -130 def
/UnderlineThickness 90 def
end readonly def
/CharStrings 13 dict dup begin
/.notdef 0 def
/plus{838 0 106 0 732 627 _sc
460 627 _m
460 355 _l
732 355 _l
732 272 _l
460 272 _l
460 0 _l
378 0 _l
378 272 _l
106 272 _l
106 355 _l
378 355 _l
378 627 _l
460 627 _l
_cl}_d
/period{318 0 107 0 210 124 _sc
107 124 _m
210 124 _l
210 0 _l
107 0 _l
107 124 _l
_cl}_d
/zero{636 0 66 -13 570 742 _sc
318 664 _m
267 664 229 639 203 589 _c
177 539 165 464 165 364 _c
165 264 177 189 203 139 _c
229 89 267 64 318 64 _c
369 64 407 89 433 139 _c
458 189 471 264 471 364 _c
471 464 458 539 433 589 _c
407 639 369 664 318 664 _c
318 742 _m
399 742 461 709 505 645 _c
548 580 570 486 570 364 _c
570 241 548 147 505 83 _c
461 19 399 -13 318 -13 _c
236 -13 173 19 130 83 _c
87 147 66 241 66 364 _c
66 486 87 580 130 645 _c
173 709 236 742 318 742 _c
_cl}_d
/one{636 0 110 0 544 729 _sc
124 83 _m
285 83 _l
285 639 _l
110 604 _l
110 694 _l
284 729 _l
383 729 _l
383 83 _l
544 83 _l
544 0 _l
124 0 _l
124 83 _l
_cl}_d
/two{{636 0 73 0 536 742 _sc
192 83 _m
536 83 _l
536 0 _l
73 0 _l
73 83 _l
110 121 161 173 226 239 _c
290 304 331 346 348 365 _c
380 400 402 430 414 455 _c
426 479 433 504 433 528 _c
433 566 419 598 392 622 _c
365 646 330 659 286 659 _c
255 659 222 653 188 643 _c
154 632 117 616 78 594 _c
78 694 _l
118 710 155 722 189 730 _c
223 738 255 742 284 742 _c
}_e{359 742 419 723 464 685 _c
509 647 532 597 532 534 _c
532 504 526 475 515 449 _c
504 422 484 390 454 354 _c
446 344 420 317 376 272 _c
332 227 271 164 192 83 _c
_cl}_e}_d
/three{{636 0 76 -13 556 742 _sc
406 393 _m
453 383 490 362 516 330 _c
542 298 556 258 556 212 _c
556 140 531 84 482 45 _c
432 6 362 -13 271 -13 _c
240 -13 208 -10 176 -4 _c
144 1 110 10 76 22 _c
76 117 _l
103 101 133 89 166 81 _c
198 73 232 69 268 69 _c
330 69 377 81 409 105 _c
441 129 458 165 458 212 _c
458 254 443 288 413 312 _c
383 336 341 349 287 349 _c
}_e{202 349 _l
202 430 _l
291 430 _l
339 430 376 439 402 459 _c
428 478 441 506 441 543 _c
441 580 427 609 401 629 _c
374 649 336 659 287 659 _c
260 659 231 656 200 650 _c
169 644 135 635 98 623 _c
98 711 _l
135 721 170 729 203 734 _c
235 739 266 742 296 742 _c
370 742 429 725 473 691 _c
517 657 539 611 539 553 _c
539 513 527 479 504 451 _c
481 423 448 403 406 393 _c
_cl}_e}_d
/four{636 0 49 0 580 729 _sc
378 643 _m
129 254 _l
378 254 _l
378 643 _l
352 729 _m
476 729 _l
476 254 _l
580 254 _l
580 172 _l
476 172 _l
476 0 _l
378 0 _l
378 172 _l
49 172 _l
49 267 _l
352 729 _l
_cl}_d
/five{{636 0 77 -13 549 729 _sc
108 729 _m
495 729 _l
495 646 _l
198 646 _l
198 467 _l
212 472 227 476 241 478 _c
255 480 270 482 284 482 _c
365 482 429 459 477 415 _c
525 370 549 310 549 234 _c
549 155 524 94 475 51 _c
426 8 357 -13 269 -13 _c
238 -13 207 -10 175 -6 _c
143 -1 111 6 77 17 _c
77 116 _l
106 100 136 88 168 80 _c
199 72 232 69 267 69 _c
}_e{323 69 368 83 401 113 _c
433 143 450 183 450 234 _c
450 284 433 324 401 354 _c
368 384 323 399 267 399 _c
241 399 214 396 188 390 _c
162 384 135 375 108 363 _c
108 729 _l
_cl}_e}_d
/seven{636 0 82 0 551 729 _sc
82 729 _m
551 729 _l
551 687 _l
286 0 _l
183 0 _l
432 646 _l
82 646 _l
82 729 _l
_cl}_d
/Y{611 0 -1 0 613 729 _sc
-1 729 _m
104 729 _l
306 429 _l
507 729 _l
613 729 _l
355 347 _l
355 0 _l
256 0 _l
256 347 _l
-1 729 _l
_cl}_d
/t{392 0 27 0 368 702 _sc
183 702 _m
183 547 _l
368 547 _l
368 477 _l
183 477 _l
183 180 _l
183 135 189 106 201 94 _c
213 81 238 75 276 75 _c
368 75 _l
368 0 _l
276 0 _l
206 0 158 13 132 39 _c
106 65 93 112 93 180 _c
93 477 _l
27 477 _l
27 547 _l
93 547 _l
93 702 _l
183 702 _l
_cl}_d
/minus{838 0 106 272 732 355 _sc
106 355 _m
732 355 _l
732 272 _l
106 272 _l
106 355 _l
_cl}_d
end readonly def

/BuildGlyph
 {exch begin
 CharStrings exch
 2 copy known not{pop /.notdef}if
 true 3 1 roll get exec
 end}_d

/BuildChar {
 1 index /Encoding get exch get
 1 index /BuildGlyph get exec
}_d

FontName currentdict end definefont pop
%!PS-Adobe-3.0 Resource-Font
%%Title: DejaVu Sans Oblique
%%Copyright: Copyright (c) 2003 by Bitstream, Inc. All Rights Reserved. Copyright (c) 2006 by Tavmjong Bah. All Rights Reserved. DejaVu changes are in public domain 
%%Creator: Converted from TrueType to type 3 by PPR
25 dict begin
/_d{bind def}bind def
/_m{moveto}_d
/_l{lineto}_d
/_cl{closepath eofill}_d
/_c{curveto}_d
/_sc{7 -1 roll{setcachedevice}{pop pop pop pop pop pop}ifelse}_d
/_e{exec}_d
/FontName /DejaVuSans-Oblique def
/PaintType 0 def
/FontMatrix[.001 0 0 .001 0 0]def
/FontBBox[-1016 -350 1659 1068]def
/FontType 3 def
/Encoding [ /t ] def
/FontInfo 10 dict dup begin
/FamilyName (DejaVu Sans) def
/FullName (DejaVu Sans Oblique) def
/Notice (Copyright (c) 2003 by Bitstream, Inc. All Rights Reserved. Copyright (c) 2006 by Tavmjong Bah. All Rights Reserved. DejaVu changes are in public domain ) def
/Weight (Oblique) def
/Version (Version 2.35) def
/ItalicAngle -11.0 def
/isFixedPitch false def
/UnderlinePosition -130 def
/UnderlineThickness 90 def
end readonly def
/CharStrings 2 dict dup begin
/.notdef 0 def
/t{{392 0 64 0 423 702 _sc
423 547 _m
409 477 _l
230 477 _l
172 180 _l
170 169 168 160 167 152 _c
166 144 166 139 166 135 _c
166 114 172 99 185 89 _c
197 79 217 75 245 75 _c
336 75 _l
321 0 _l
235 0 _l
181 0 141 10 115 31 _c
89 52 76 84 76 126 _c
76 133 76 141 77 150 _c
78 159 80 169 82 180 _c
140 477 _l
64 477 _l
78 547 _l
153 547 _l
183 702 _l
}_e{273 702 _l
243 547 _l
423 547 _l
_cl}_e}_d
end readonly def

/BuildGlyph
 {exch begin
 CharStrings exch
 2 copy known not{pop /.notdef}if
 true 3 1 roll get exec
 end}_d

/BuildChar {
 1 index /Encoding get exch get
 1 index /BuildGlyph get exec
}_d

FontName currentdict end definefont pop
end
%%EndProlog
mpldict begin
75.6 223.2 translate
460.8 345.6 0 0 clipbox
gsave
0 0 m
460.8 0 l
460.8 345.6 l
0 345.6 l
cl
1.000 setgray
fill
grestore
gsave
44.982857 35.382857 m
452.022857 35.382857 l
452.022857 329.965714 l
44.982857 329.965714 l
cl
1.000 setgray
fill
grestore
0.800 setlinewidth
1 setlinejoin
0 setlinecap
[] 0 setdash
0.000 setgray
gsave
/o {
gsave
newpath
translate
0.8 setlinewidth
1 setlinejoin
0 setlinecap
0 0 m
0 -3.5 l

gsave
0.000 setgray
fill
grestore
stroke
grestore
} bind def
92.5887 35.3829 o
grestore
/DejaVuSans findfont
10.000 scalefont
setfont
gsave
77.268346 20.789107 translate
0.000000 rotate
0.000000 0.000000 m /minus glyphshow
8.378906 0.000000 m /zero glyphshow
14.741211 0.000000 m /period glyphshow
17.919922 0.000000 m /seven glyphshow
24.282227 0.000000 m /five glyphshow
grestore
gsave
/o {
gsave
newpath
translate
0.8 setlinewidth
1 setlinejoin
0 setlinecap
0 0 m
0 -3.5 l

gsave
0.000 setgray
fill
grestore
stroke
grestore
} bind def
144.56 35.3829 o
grestore
gsave
129.239746 20.789107 translate
0.000000 rotate
0.000000 0.000000 m /minus glyphshow
8.378906 0.000000 m /zero glyphshow
14.741211 0.000000 m /period glyphshow
17.919922 0.000000 m /five glyphshow
24.282227 0.000000 m /zero glyphshow
grestore
gsave
/o {
gsave
newpath
translate
0.8 setlinewidth
1 setlinejoin
0 setlinecap
0 0 m
0 -3.5 l

gsave
0.000 setgray
fill
grestore
stroke
grestore
} bind def
196.531 35.3829 o
grestore
gsave
181.211145 20.789107 translate
0.000000 rotate
0.000000 0.000000 m /minus glyphshow
8.378906 0.000000 m /zero glyphshow
14.741211 0.000000 m /period glyphshow
17.919922 0.000000 m /two glyphshow
24.282227 0.000000 m /five glyphshow
grestore
gsave
/o {
gsave
newpath
translate
0.8 setlinewidth
1 setlinejoin
0 setlinecap
0 0 m
0 -3.5 l

gsave
0.000 setgray
fill
grestore
stroke
grestore
} bind def
248.503 35.3829 o
grestore
gsave
237.370045 20.789107 translate
0.000000 rotate
0.000000 0.000000 m /zero glyphshow
6.362305 0.000000 m /period glyphshow
9.541016 0.000000 m /zero glyphshow
15.903320 0.000000 m /zero glyphshow
grestore
gsave
/o {
gsave
newpath
translate
0.8 setlinewidth
1 setlinejoin
0 setlinecap
0 0 m
0 -3.5 l

gsave
0.000 setgray
fill
grestore
stroke
grestore
} bind def
300.474 35.3829 o
grestore
gsave
289.341444 20.789107 translate
0.000000 rotate
0.000000 0.000000 m /zero glyphshow
6.362305 0.000000 m /period glyphshow
9.541016 0.000000 m /two glyphshow
15.903320 0.000000 m /five glyphshow
grestore
gsave
/o {
gsave
newpath
translate
0.8 setlinewidth
1 setlinejoin
0 setlinecap
0 0 m
0 -3.5 l

gsave
0.000 setgray
fill
grestore
stroke
grestore
} bind def
352.446 35.3829 o
grestore
gsave
341.312843 20.789107 translate
0.000000 rotate
0.000000 0.000000 m /zero glyphshow
6.362305 0.000000 m /period glyphshow
9.541016 0.000000 m /five glyphshow
15.903320 0.000000 m /zero glyphshow
grestore
gsave
/o {
gsave
newpath
translate
0.8 setlinewidth
1 setlinejoin
0 setlinecap
0 0 m
0 -3.5 l

gsave
0.000 setgray
fill
grestore
stroke
grestore
} bind def
404.417 35.3829 o
grestore
gsave
393.284243 20.789107 translate
0.000000 rotate
0.000000 0.000000 m /zero glyphshow
6.362305 0.000000 m /period glyphshow
9.541016 0.000000 m /seven glyphshow
15.903320 0.000000 m /five glyphshow
grestore
gsave
246.541920 7.117232 translate
0.000000 rotate
0.000000 0.000000 m /t glyphshow
grestore
gsave
/o {
gsave
newpath
translate
0.8 setlinewidth
1 setlinejoin
0 setlinecap
0 0 m
-3.5 0 l

gsave
0.000 setgray
fill
grestore
stroke
grestore
} bind def
44.9829 48.773 o
grestore
gsave
22.076607 44.976112 translate
0.000000 rotate
0.000000 0.000000 m /one glyphshow
6.362305 0.000000 m /period glyphshow
9.541016 0.000000 m /zero glyphshow
grestore
gsave
/o {
gsave
newpath
translate
0.8 setlinewidth
1 setlinejoin
0 setlinecap
0 0 m
-3.5 0 l

gsave
0.000 setgray
fill
grestore
stroke
grestore
} bind def
44.9829 82.9819 o
grestore
gsave
22.076607 79.185008 translate
0.000000 rotate
0.000000 0.000000 m /one glyphshow
6.362305 0.000000 m /period glyphshow
9.541016 0.000000 m /five glyphshow
grestore
gsave
/o {
gsave
newpath
translate
0.8 setlinewidth
1 setlinejoin
0 setlinecap
0 0 m
-3.5 0 l

gsave
0.000 setgray
fill
grestore
stroke
grestore
} bind def
44.9829 117.191 o
grestore
gsave
22.076607 113.393905 translate
0.000000 rotate
0.000000 0.000000 m /two glyphshow
6.362305 0.000000 m /period glyphshow
9.541016 0.000000 m /zero glyphshow
grestore
gsave
/o {
gsave
newpath
translate
0.8 setlinewidth
1 setlinejoin
0 setlinecap
0 0 m
-3.5 0 l

gsave
0.000 setgray
fill
grestore
stroke
grestore
} bind def
44.9829 151.4 o
grestore
gsave
22.076607 147.602801 translate
0.000000 rotate
0.000000 0.000000 m /two glyphshow
6.362305 0.000000 m /period glyphshow
9.541016 0.000000 m /five glyphshow
grestore
gsave
/o {
gsave
newpath
translate
0.8 setlinewidth
1 setlinejoin
0 setlinecap
0 0 m
-3.5 0 l

gsave
0.000 setgray
fill
grestore
stroke
grestore
} bind def
44.9829 185.609 o
grestore
gsave
22.076607 181.811698 translate
0.000000 rotate
0.000000 0.000000 m /three glyphshow
6.362305 0.000000 m /period glyphshow
9.541016 0.000000 m /zero glyphshow
grestore
gsave
/o {
gsave
newpath
translate
0.8 setlinewidth
1 setlinejoin
0 setlinecap
0 0 m
-3.5 0 l

gsave
0.000 setgray
fill
grestore
stroke
grestore
} bind def
44.9829 219.817 o
grestore
gsave
22.076607 216.020594 translate
0.000000 rotate
0.000000 0.000000 m /three glyphshow
6.362305 0.000000 m /period glyphshow
9.541016 0.000000 m /five glyphshow
grestore
gsave
/o {
gsave
newpath
translate
0.8 setlinewidth
1 setlinejoin
0 setlinecap
0 0 m
-3.5 0 l

gsave
0.000 setgray
fill
grestore
stroke
grestore
} bind def
44.9829 254.026 o
grestore
gsave
22.076607 250.229491 translate
0.000000 rotate
0.000000 0.000000 m /four glyphshow
6.362305 0.000000 m /period glyphshow
9.541016 0.000000 m /zero glyphshow
grestore
gsave
/o {
gsave
newpath
translate
0.8 setlinewidth
1 setlinejoin
0 setlinecap
0 0 m
-3.5 0 l

gsave
0.000 setgray
fill
grestore
stroke
grestore
} bind def
44.9829 288.235 o
grestore
gsave
22.076607 284.438387 translate
0.000000 rotate
0.000000 0.000000 m /four glyphshow
6.362305 0.000000 m /period glyphshow
9.541016 0.000000 m /five glyphshow
grestore
gsave
/o {
gsave
newpath
translate
0.8 setlinewidth
1 setlinejoin
0 setlinecap
0 0 m
-3.5 0 l

gsave
0.000 setgray
fill
grestore
stroke
grestore
} bind def
44.9829 322.444 o
grestore
gsave
22.076607 318.647284 translate
0.000000 rotate
0.000000 0.000000 m /five glyphshow
6.362305 0.000000 m /period glyphshow
9.541016 0.000000 m /zero glyphshow
grestore
gsave
15.998482 179.619598 translate
90.000000 rotate
0.000000 0.000000 m /Y glyphshow
grestore
1.500 setlinewidth
[9.6 2.4 1.5 2.4] 0 setdash
0.122 0.467 0.706 setrgbcolor
gsave
407 294.6 44.98 35.38 clipbox
63.484675 309.445107 m
65.563531 283.625553 l
67.642387 261.794079 l
69.721243 243.096334 l
71.800099 226.905799 l
73.878955 212.752588 l
75.957811 200.277383 l
78.036667 189.200716 l
80.115523 179.30196 l
82.194379 170.404619 l
84.273235 162.365816 l
86.352091 155.068659 l
88.430947 148.416587 l
90.509803 142.329136 l
92.588659 136.738721 l
94.667515 131.588158 l
96.746371 126.828739 l
98.825227 122.418718 l
100.904083 118.322109 l
102.982939 114.507729 l
105.061795 110.948424 l
107.140651 107.620434 l
111.298363 101.577364 l
115.456075 96.23899 l
119.613787 91.495209 l
123.771499 87.257996 l
127.929211 83.456148 l
132.086923 80.031466 l
136.244634 76.935929 l
140.402346 74.129581 l
144.560058 71.578918 l
148.71777 69.255653 l
152.875482 67.135753 l
157.033194 65.198687 l
163.269762 62.598003 l
169.50633 60.319889 l
175.742898 58.324189 l
181.979466 56.578225 l
188.216034 55.055263 l
194.452602 53.73335 l
200.68917 52.594443 l
209.004594 51.335371 l
217.320018 50.347821 l
225.635441 49.610982 l
233.950865 49.109885 l
242.266289 48.834618 l
250.581713 48.779829 l
258.897137 48.94446 l
267.212561 49.331697 l
275.527985 49.949124 l
283.843409 50.809105 l
292.158833 51.92941 l
300.474257 53.334173 l
306.710824 54.593251 l
312.947392 56.046966 l
319.18396 57.715883 l
325.420528 59.625027 l
331.657096 61.804948 l
337.893664 64.293107 l
342.051376 66.14553 l
346.209088 68.17164 l
350.3668 70.390453 l
354.524512 72.824167 l
358.682224 75.498836 l
362.839936 78.44522 l
366.997648 81.699873 l
371.15536 85.306556 l
375.313072 89.318075 l
379.470784 93.798724 l
383.628496 98.827563 l
387.786208 104.502886 l
389.865063 107.620434 l
391.943919 110.948424 l
394.022775 114.507729 l
396.101631 118.322109 l
398.180487 122.418718 l
400.259343 126.828739 l
402.338199 131.588158 l
404.417055 136.738721 l
406.495911 142.329136 l
408.574767 148.416587 l
410.653623 155.068659 l
412.732479 162.365816 l
414.811335 170.404619 l
416.890191 179.30196 l
418.969047 189.200716 l
421.047903 200.277383 l
423.126759 212.752588 l
425.205615 226.905799 l
427.284471 243.096334 l
429.363327 261.794079 l
431.442183 283.625553 l
433.521039 309.445107 l
433.521039 309.445107 l
stroke
grestore
[5.55 2.4] 0 setdash
0.502 setgray
gsave
407 294.6 44.98 35.38 clipbox
73.878955 316.575584 m
75.957811 291.075528 l
78.036667 269.414851 l
80.115523 250.79097 l
82.194379 234.610505 l
84.273235 220.425283 l
86.352091 207.890483 l
88.430947 196.736472 l
90.509803 186.74937 l
92.588659 177.757351 l
94.667515 169.620792 l
96.746371 162.225067 l
98.825227 155.475196 l
100.904083 149.291808 l
102.982939 143.608062 l
105.061795 138.367271 l
107.140651 133.521044 l
109.219507 129.027824 l
111.298363 124.851723 l
113.377219 120.961588 l
115.456075 117.330245 l
117.534931 113.933888 l
121.692643 107.764787 l
125.850355 102.314021 l
130.008067 97.470664 l
134.165778 93.145861 l
138.32349 89.267615 l
142.481202 85.776999 l
146.638914 82.625333 l
150.796626 79.772074 l
154.954338 77.183206 l
159.11205 74.829996 l
163.269762 72.688031 l
167.427474 70.736455 l
171.585186 68.957368 l
177.821754 66.578983 l
184.058322 64.510862 l
190.29489 62.71771 l
196.531458 61.170842 l
202.768026 59.846905 l
209.004594 58.726907 l
215.241162 57.795485 l
221.477729 57.040343 l
229.793153 56.291358 l
238.108577 55.822301 l
246.424001 55.623046 l
254.739425 55.689347 l
263.054849 56.022614 l
271.370273 56.629984 l
279.685697 57.524712 l
285.922265 58.396146 l
292.158833 59.45174 l
298.395401 60.705779 l
304.631968 62.175975 l
310.868536 63.884131 l
317.105104 65.857031 l
323.341672 68.127601 l
329.57824 70.736455 l
333.735952 72.688031 l
337.893664 74.829996 l
342.051376 77.183206 l
346.209088 79.772074 l
350.3668 82.625333 l
354.524512 85.776999 l
358.682224 89.267615 l
362.839936 93.145861 l
366.997648 97.470664 l
371.15536 102.314021 l
375.313072 107.764787 l
377.391928 110.75157 l
379.470784 113.933888 l
381.54964 117.330245 l
383.628496 120.961588 l
385.707352 124.851723 l
387.786208 129.027824 l
389.865063 133.521044 l
391.943919 138.367271 l
394.022775 143.608062 l
396.101631 149.291808 l
398.180487 155.475196 l
400.259343 162.225067 l
402.338199 169.620792 l
404.417055 177.757351 l
406.495911 186.74937 l
408.574767 196.736472 l
410.653623 207.890483 l
412.732479 220.425283 l
414.811335 234.610505 l
416.890191 250.79097 l
418.969047 269.414851 l
421.047903 291.075528 l
423.126759 316.575584 l
423.126759 316.575584 l
stroke
grestore
[1.5 2.475] 0 setdash
1.000 0.498 0.055 setrgbcolor
gsave
407 294.6 44.98 35.38 clipbox
119.613787 316.007531 m
121.692643 296.90596 l
123.771499 280.123874 l
125.850355 265.268718 l
127.929211 252.031939 l
130.008067 240.167663 l
132.086923 229.477555 l
134.165778 219.799863 l
136.244634 211.001359 l
138.32349 202.971321 l
140.402346 195.61698 l
142.481202 188.860022 l
144.560058 182.633886 l
146.638914 176.881642 l
148.71777 171.554313 l
150.796626 166.609534 l
152.875482 162.010482 l
154.954338 157.724996 l
157.033194 153.72487 l
159.11205 149.985261 l
161.190906 146.484212 l
163.269762 143.202243 l
165.348618 140.122018 l
167.427474 137.228059 l
169.50633 134.506506 l
171.585186 131.944919 l
173.664042 129.532097 l
175.742898 127.257939 l
177.821754 125.113306 l
179.90061 123.089922 l
181.979466 121.180271 l
184.058322 119.377519 l
186.137178 117.67544 l
188.216034 116.068352 l
190.29489 114.551068 l
192.373746 113.118841 l
194.452602 111.767324 l
196.531458 110.492534 l
198.610314 109.290818 l
200.68917 108.158822 l
202.768026 107.093467 l
204.846882 106.091925 l
206.925738 105.151597 l
209.004594 104.2701 l
211.08345 103.445242 l
213.162306 102.675015 l
215.241162 101.957578 l
217.320018 101.291246 l
219.398873 100.674481 l
221.477729 100.105879 l
223.556585 99.584167 l
225.635441 99.108191 l
227.714297 98.676911 l
229.793153 98.289396 l
231.872009 97.944817 l
233.950865 97.642445 l
236.029721 97.381644 l
238.108577 97.16187 l
240.187433 96.982669 l
242.266289 96.843669 l
244.345145 96.744587 l
246.424001 96.685218 l
248.502857 96.665442 l
250.581713 96.685218 l
252.660569 96.744587 l
254.739425 96.843669 l
256.818281 96.982669 l
258.897137 97.16187 l
260.975993 97.381644 l
263.054849 97.642445 l
265.133705 97.944817 l
267.212561 98.289396 l
269.291417 98.676911 l
271.370273 99.108191 l
273.449129 99.584167 l
275.527985 100.105879 l
277.606841 100.674481 l
279.685697 101.291246 l
281.764553 101.957578 l
283.843409 102.675015 l
285.922265 103.445242 l
288.001121 104.2701 l
290.079977 105.151597 l
292.158833 106.091925 l
294.237689 107.093467 l
296.316545 108.158822 l
298.395401 109.290818 l
300.474257 110.492534 l
302.553113 111.767324 l
304.631968 113.118841 l
306.710824 114.551068 l
308.78968 116.068352 l
310.868536 117.67544 l
312.947392 119.377519 l
315.026248 121.180271 l
317.105104 123.089922 l
319.18396 125.113306 l
321.262816 127.257939 l
323.341672 129.532097 l
325.420528 131.944919 l
327.499384 134.506506 l
329.57824 137.228059 l
331.657096 140.122018 l
333.735952 143.202243 l
335.814808 146.484212 l
337.893664 149.985261 l
339.97252 153.72487 l
342.051376 157.724996 l
344.130232 162.010482 l
346.209088 166.609534 l
348.287944 171.554313 l
350.3668 176.881642 l
352.445656 182.633886 l
354.524512 188.860022 l
356.603368 195.61698 l
358.682224 202.971321 l
360.76108 211.001359 l
362.839936 219.799863 l
364.918792 229.477555 l
366.997648 240.167663 l
369.076504 252.031939 l
371.15536 265.268718 l
373.234216 280.123874 l
375.313072 296.90596 l
377.391928 316.007531 l
stroke
grestore
0.800 setlinewidth
0 setlinejoin
2 setlinecap
[] 0 setdash
0.000 setgray
gsave
44.982857 35.382857 m
44.982857 329.965714 l
stroke
grestore
gsave
452.022857 35.382857 m
452.022857 329.965714 l
stroke
grestore
gsave
44.982857 35.382857 m
452.022857 35.382857 l
stroke
grestore
gsave
44.982857 329.965714 m
452.022857 329.965714 l
stroke
grestore
1.000 setlinewidth
0 setlinecap
0.800 setgray
gsave
198.502857 216.465714 m
298.502857 216.465714 l
300.502857 216.465714 301.502857 217.465714 301.502857 219.465714 c
301.502857 319.465714 l
301.502857 321.465714 300.502857 322.465714 298.502857 322.465714 c
198.502857 322.465714 l
196.502857 322.465714 195.502857 321.465714 195.502857 319.465714 c
195.502857 219.465714 l
195.502857 217.465714 196.502857 216.465714 198.502857 216.465714 c
cl
gsave
1.000 setgray
fill
grestore
stroke
grestore
1.500 setlinewidth
1 setlinejoin
[9.6 2.4 1.5 2.4] 0 setdash
0.122 0.467 0.706 setrgbcolor
gsave
201.502857 306.715714 m
231.502857 306.715714 l
stroke
grestore
0.000 setgray
gsave
243.502857 301.465714 translate
0.000000 rotate
/DejaVuSans findfont
10.5 scalefont
setfont
11.000000 7.343750 moveto
/one glyphshow

0.000000 3.593750 29.347028 0.937500 rectfill
0.000000 -6.822187 moveto
/one glyphshow

8.726074 -6.822187 moveto
/minus glyphshow

/DejaVuSans-Oblique findfont
10.5 scalefont
setfont
19.569580 -6.822187 moveto
/t glyphshow

/DejaVuSans findfont
7.35 scalefont
setfont
24.383625 -2.802656 moveto
/two glyphshow


grestore
[5.55 2.4] 0 setdash
0.502 setgray
gsave
201.502857 276.215714 m
231.502857 276.215714 l
stroke
grestore
0.000 setgray
gsave
243.502857 270.965714 translate
0.000000 rotate
/DejaVuSans findfont
10.5 scalefont
setfont
21.000000 7.343750 moveto
/one glyphshow

0.000000 3.593750 49.366755 0.937500 rectfill
/DejaVuSans findfont
7.35 scalefont
setfont
10.000000 -2.703125 moveto
/one glyphshow

0.000000 -5.328125 25.387646 0.656250 rectfill
0.000000 -11.443281 moveto
/one glyphshow

6.108252 -11.443281 moveto
/plus glyphshow

13.698706 -11.443281 moveto
/zero glyphshow

18.375000 -11.443281 moveto
/period glyphshow

20.711353 -11.443281 moveto
/one glyphshow

/DejaVuSans findfont
10.5 scalefont
setfont
28.745801 -7.302344 moveto
/minus glyphshow

/DejaVuSans-Oblique findfont
10.5 scalefont
setfont
39.589307 -7.302344 moveto
/t glyphshow

/DejaVuSans findfont
7.35 scalefont
setfont
44.403352 -3.282812 moveto
/two glyphshow


grestore
[1.5 2.475] 0 setdash
1.000 0.498 0.055 setrgbcolor
gsave
201.502857 240.715714 m
231.502857 240.715714 l
stroke
grestore
0.000 setgray
gsave
243.502857 235.465714 translate
0.000000 rotate
/DejaVuSans findfont
10.5 scalefont
setfont
21.000000 7.343750 moveto
/one glyphshow

0.000000 3.593750 49.359099 0.937500 rectfill
/DejaVuSans findfont
7.35 scalefont
setfont
10.000000 -2.703125 moveto
/one glyphshow

0.000000 -5.328125 25.379990 0.656250 rectfill
0.000000 -11.443281 moveto
/one glyphshow

6.108252 -11.443281 moveto
/plus glyphshow

13.698706 -11.443281 moveto
/zero glyphshow

18.375000 -11.443281 moveto
/period glyphshow

20.703696 -11.443281 moveto
/seven glyphshow

/DejaVuSans findfont
10.5 scalefont
setfont
28.738145 -7.302344 moveto
/minus glyphshow

/DejaVuSans-Oblique findfont
10.5 scalefont
setfont
39.581650 -7.302344 moveto
/t glyphshow

/DejaVuSans findfont
7.35 scalefont
setfont
44.395695 -3.282812 moveto
/two glyphshow


grestore

end
showpage
