%!PS-Adobe-3.0 EPSF-3.0
%%Title: /home/fernando/Desktop/ts_new/imagenes/ec_cuad2.eps
%%Creator: matplotlib version 2.1.1, http://matplotlib.org/
%%CreationDate: Wed Jan 22 19:31:27 2020
%%Orientation: portrait
%%BoundingBox: 75 223 536 568
%%EndComments
%%BeginProlog
/mpldict 9 dict def
mpldict begin
/m { moveto } bind def
/l { lineto } bind def
/r { rlineto } bind def
/c { curveto } bind def
/cl { closepath } bind def
/box {
m
1 index 0 r
0 exch r
neg 0 r
cl
} bind def
/clipbox {
box
clip
newpath
} bind def
%!PS-Adobe-3.0 Resource-Font
%%Title: DejaVu Sans
%%Copyright: Copyright (c) 2003 by Bitstream, Inc. All Rights Reserved. Copyright (c) 2006 by Tavmjong Bah. All Rights Reserved. DejaVu changes are in public domain 
%%Creator: Converted from TrueType to type 3 by PPR
25 dict begin
/_d{bind def}bind def
/_m{moveto}_d
/_l{lineto}_d
/_cl{closepath eofill}_d
/_c{curveto}_d
/_sc{7 -1 roll{setcachedevice}{pop pop pop pop pop pop}ifelse}_d
/_e{exec}_d
/FontName /DejaVuSans def
/PaintType 0 def
/FontMatrix[.001 0 0 .001 0 0]def
/FontBBox[-1021 -463 1793 1232]def
/FontType 3 def
/Encoding [ /plus /period /zero /one /two /three /four /five /seven /Y /t /minus ] def
/FontInfo 10 dict dup begin
/FamilyName (DejaVu Sans) def
/FullName (DejaVu Sans) def
/Notice (Copyright (c) 2003 by Bitstream, Inc. All Rights Reserved. Copyright (c) 2006 by Tavmjong Bah. All Rights Reserved. DejaVu changes are in public domain ) def
/Weight (Book) def
/Version (Version 2.35) def
/ItalicAngle 0.0 def
/isFixedPitch false def
/UnderlinePosition -130 def
/UnderlineThickness 90 def
end readonly def
/CharStrings 13 dict dup begin
/.notdef 0 def
/plus{838 0 106 0 732 627 _sc
460 627 _m
460 355 _l
732 355 _l
732 272 _l
460 272 _l
460 0 _l
378 0 _l
378 272 _l
106 272 _l
106 355 _l
378 355 _l
378 627 _l
460 627 _l
_cl}_d
/period{318 0 107 0 210 124 _sc
107 124 _m
210 124 _l
210 0 _l
107 0 _l
107 124 _l
_cl}_d
/zero{636 0 66 -13 570 742 _sc
318 664 _m
267 664 229 639 203 589 _c
177 539 165 464 165 364 _c
165 264 177 189 203 139 _c
229 89 267 64 318 64 _c
369 64 407 89 433 139 _c
458 189 471 264 471 364 _c
471 464 458 539 433 589 _c
407 639 369 664 318 664 _c
318 742 _m
399 742 461 709 505 645 _c
548 580 570 486 570 364 _c
570 241 548 147 505 83 _c
461 19 399 -13 318 -13 _c
236 -13 173 19 130 83 _c
87 147 66 241 66 364 _c
66 486 87 580 130 645 _c
173 709 236 742 318 742 _c
_cl}_d
/one{636 0 110 0 544 729 _sc
124 83 _m
285 83 _l
285 639 _l
110 604 _l
110 694 _l
284 729 _l
383 729 _l
383 83 _l
544 83 _l
544 0 _l
124 0 _l
124 83 _l
_cl}_d
/two{{636 0 73 0 536 742 _sc
192 83 _m
536 83 _l
536 0 _l
73 0 _l
73 83 _l
110 121 161 173 226 239 _c
290 304 331 346 348 365 _c
380 400 402 430 414 455 _c
426 479 433 504 433 528 _c
433 566 419 598 392 622 _c
365 646 330 659 286 659 _c
255 659 222 653 188 643 _c
154 632 117 616 78 594 _c
78 694 _l
118 710 155 722 189 730 _c
223 738 255 742 284 742 _c
}_e{359 742 419 723 464 685 _c
509 647 532 597 532 534 _c
532 504 526 475 515 449 _c
504 422 484 390 454 354 _c
446 344 420 317 376 272 _c
332 227 271 164 192 83 _c
_cl}_e}_d
/three{{636 0 76 -13 556 742 _sc
406 393 _m
453 383 490 362 516 330 _c
542 298 556 258 556 212 _c
556 140 531 84 482 45 _c
432 6 362 -13 271 -13 _c
240 -13 208 -10 176 -4 _c
144 1 110 10 76 22 _c
76 117 _l
103 101 133 89 166 81 _c
198 73 232 69 268 69 _c
330 69 377 81 409 105 _c
441 129 458 165 458 212 _c
458 254 443 288 413 312 _c
383 336 341 349 287 349 _c
}_e{202 349 _l
202 430 _l
291 430 _l
339 430 376 439 402 459 _c
428 478 441 506 441 543 _c
441 580 427 609 401 629 _c
374 649 336 659 287 659 _c
260 659 231 656 200 650 _c
169 644 135 635 98 623 _c
98 711 _l
135 721 170 729 203 734 _c
235 739 266 742 296 742 _c
370 742 429 725 473 691 _c
517 657 539 611 539 553 _c
539 513 527 479 504 451 _c
481 423 448 403 406 393 _c
_cl}_e}_d
/four{636 0 49 0 580 729 _sc
378 643 _m
129 254 _l
378 254 _l
378 643 _l
352 729 _m
476 729 _l
476 254 _l
580 254 _l
580 172 _l
476 172 _l
476 0 _l
378 0 _l
378 172 _l
49 172 _l
49 267 _l
352 729 _l
_cl}_d
/five{{636 0 77 -13 549 729 _sc
108 729 _m
495 729 _l
495 646 _l
198 646 _l
198 467 _l
212 472 227 476 241 478 _c
255 480 270 482 284 482 _c
365 482 429 459 477 415 _c
525 370 549 310 549 234 _c
549 155 524 94 475 51 _c
426 8 357 -13 269 -13 _c
238 -13 207 -10 175 -6 _c
143 -1 111 6 77 17 _c
77 116 _l
106 100 136 88 168 80 _c
199 72 232 69 267 69 _c
}_e{323 69 368 83 401 113 _c
433 143 450 183 450 234 _c
450 284 433 324 401 354 _c
368 384 323 399 267 399 _c
241 399 214 396 188 390 _c
162 384 135 375 108 363 _c
108 729 _l
_cl}_e}_d
/seven{636 0 82 0 551 729 _sc
82 729 _m
551 729 _l
551 687 _l
286 0 _l
183 0 _l
432 646 _l
82 646 _l
82 729 _l
_cl}_d
/Y{611 0 -1 0 613 729 _sc
-1 729 _m
104 729 _l
306 429 _l
507 729 _l
613 729 _l
355 347 _l
355 0 _l
256 0 _l
256 347 _l
-1 729 _l
_cl}_d
/t{392 0 27 0 368 702 _sc
183 702 _m
183 547 _l
368 547 _l
368 477 _l
183 477 _l
183 180 _l
183 135 189 106 201 94 _c
213 81 238 75 276 75 _c
368 75 _l
368 0 _l
276 0 _l
206 0 158 13 132 39 _c
106 65 93 112 93 180 _c
93 477 _l
27 477 _l
27 547 _l
93 547 _l
93 702 _l
183 702 _l
_cl}_d
/minus{838 0 106 272 732 355 _sc
106 355 _m
732 355 _l
732 272 _l
106 272 _l
106 355 _l
_cl}_d
end readonly def

/BuildGlyph
 {exch begin
 CharStrings exch
 2 copy known not{pop /.notdef}if
 true 3 1 roll get exec
 end}_d

/BuildChar {
 1 index /Encoding get exch get
 1 index /BuildGlyph get exec
}_d

FontName currentdict end definefont pop
%!PS-Adobe-3.0 Resource-Font
%%Title: DejaVu Sans Oblique
%%Copyright: Copyright (c) 2003 by Bitstream, Inc. All Rights Reserved. Copyright (c) 2006 by Tavmjong Bah. All Rights Reserved. DejaVu changes are in public domain 
%%Creator: Converted from TrueType to type 3 by PPR
25 dict begin
/_d{bind def}bind def
/_m{moveto}_d
/_l{lineto}_d
/_cl{closepath eofill}_d
/_c{curveto}_d
/_sc{7 -1 roll{setcachedevice}{pop pop pop pop pop pop}ifelse}_d
/_e{exec}_d
/FontName /DejaVuSans-Oblique def
/PaintType 0 def
/FontMatrix[.001 0 0 .001 0 0]def
/FontBBox[-1016 -350 1659 1068]def
/FontType 3 def
/Encoding [ /t ] def
/FontInfo 10 dict dup begin
/FamilyName (DejaVu Sans) def
/FullName (DejaVu Sans Oblique) def
/Notice (Copyright (c) 2003 by Bitstream, Inc. All Rights Reserved. Copyright (c) 2006 by Tavmjong Bah. All Rights Reserved. DejaVu changes are in public domain ) def
/Weight (Oblique) def
/Version (Version 2.35) def
/ItalicAngle -11.0 def
/isFixedPitch false def
/UnderlinePosition -130 def
/UnderlineThickness 90 def
end readonly def
/CharStrings 2 dict dup begin
/.notdef 0 def
/t{{392 0 64 0 423 702 _sc
423 547 _m
409 477 _l
230 477 _l
172 180 _l
170 169 168 160 167 152 _c
166 144 166 139 166 135 _c
166 114 172 99 185 89 _c
197 79 217 75 245 75 _c
336 75 _l
321 0 _l
235 0 _l
181 0 141 10 115 31 _c
89 52 76 84 76 126 _c
76 133 76 141 77 150 _c
78 159 80 169 82 180 _c
140 477 _l
64 477 _l
78 547 _l
153 547 _l
183 702 _l
}_e{273 702 _l
243 547 _l
423 547 _l
_cl}_e}_d
end readonly def

/BuildGlyph
 {exch begin
 CharStrings exch
 2 copy known not{pop /.notdef}if
 true 3 1 roll get exec
 end}_d

/BuildChar {
 1 index /Encoding get exch get
 1 index /BuildGlyph get exec
}_d

FontName currentdict end definefont pop
end
%%EndProlog
mpldict begin
75.6 223.2 translate
460.8 345.6 0 0 clipbox
gsave
0 0 m
460.8 0 l
460.8 345.6 l
0 345.6 l
cl
1.000 setgray
fill
grestore
gsave
58.148571 38.016 m
414.72 38.016 l
414.72 304.128 l
58.148571 304.128 l
cl
1.000 setgray
fill
grestore
0.800 setlinewidth
1 setlinejoin
0 setlinecap
[] 0 setdash
0.000 setgray
gsave
/o {
gsave
newpath
translate
0.8 setlinewidth
1 setlinejoin
0 setlinecap
0 0 m
0 -3.5 l

gsave
0.000 setgray
fill
grestore
stroke
grestore
} bind def
99.8518 38.016 o
grestore
/DejaVuSans findfont
10.000 scalefont
setfont
gsave
84.531455 23.422250 translate
0.000000 rotate
0.000000 0.000000 m /minus glyphshow
8.378906 0.000000 m /zero glyphshow
14.741211 0.000000 m /period glyphshow
17.919922 0.000000 m /seven glyphshow
24.282227 0.000000 m /five glyphshow
grestore
gsave
/o {
gsave
newpath
translate
0.8 setlinewidth
1 setlinejoin
0 setlinecap
0 0 m
0 -3.5 l

gsave
0.000 setgray
fill
grestore
stroke
grestore
} bind def
145.379 38.016 o
grestore
gsave
130.058961 23.422250 translate
0.000000 rotate
0.000000 0.000000 m /minus glyphshow
8.378906 0.000000 m /zero glyphshow
14.741211 0.000000 m /period glyphshow
17.919922 0.000000 m /five glyphshow
24.282227 0.000000 m /zero glyphshow
grestore
gsave
/o {
gsave
newpath
translate
0.8 setlinewidth
1 setlinejoin
0 setlinecap
0 0 m
0 -3.5 l

gsave
0.000 setgray
fill
grestore
stroke
grestore
} bind def
190.907 38.016 o
grestore
gsave
175.586467 23.422250 translate
0.000000 rotate
0.000000 0.000000 m /minus glyphshow
8.378906 0.000000 m /zero glyphshow
14.741211 0.000000 m /period glyphshow
17.919922 0.000000 m /two glyphshow
24.282227 0.000000 m /five glyphshow
grestore
gsave
/o {
gsave
newpath
translate
0.8 setlinewidth
1 setlinejoin
0 setlinecap
0 0 m
0 -3.5 l

gsave
0.000 setgray
fill
grestore
stroke
grestore
} bind def
236.434 38.016 o
grestore
gsave
225.301473 23.422250 translate
0.000000 rotate
0.000000 0.000000 m /zero glyphshow
6.362305 0.000000 m /period glyphshow
9.541016 0.000000 m /zero glyphshow
15.903320 0.000000 m /zero glyphshow
grestore
gsave
/o {
gsave
newpath
translate
0.8 setlinewidth
1 setlinejoin
0 setlinecap
0 0 m
0 -3.5 l

gsave
0.000 setgray
fill
grestore
stroke
grestore
} bind def
281.962 38.016 o
grestore
gsave
270.828979 23.422250 translate
0.000000 rotate
0.000000 0.000000 m /zero glyphshow
6.362305 0.000000 m /period glyphshow
9.541016 0.000000 m /two glyphshow
15.903320 0.000000 m /five glyphshow
grestore
gsave
/o {
gsave
newpath
translate
0.8 setlinewidth
1 setlinejoin
0 setlinecap
0 0 m
0 -3.5 l

gsave
0.000 setgray
fill
grestore
stroke
grestore
} bind def
327.489 38.016 o
grestore
gsave
316.356486 23.422250 translate
0.000000 rotate
0.000000 0.000000 m /zero glyphshow
6.362305 0.000000 m /period glyphshow
9.541016 0.000000 m /five glyphshow
15.903320 0.000000 m /zero glyphshow
grestore
gsave
/o {
gsave
newpath
translate
0.8 setlinewidth
1 setlinejoin
0 setlinecap
0 0 m
0 -3.5 l

gsave
0.000 setgray
fill
grestore
stroke
grestore
} bind def
373.017 38.016 o
grestore
gsave
361.883992 23.422250 translate
0.000000 rotate
0.000000 0.000000 m /zero glyphshow
6.362305 0.000000 m /period glyphshow
9.541016 0.000000 m /seven glyphshow
15.903320 0.000000 m /five glyphshow
grestore
gsave
234.473348 9.750375 translate
0.000000 rotate
0.000000 0.000000 m /t glyphshow
grestore
gsave
/o {
gsave
newpath
translate
0.8 setlinewidth
1 setlinejoin
0 setlinecap
0 0 m
-3.5 0 l

gsave
0.000 setgray
fill
grestore
stroke
grestore
} bind def
58.1486 50.112 o
grestore
gsave
35.242321 46.315125 translate
0.000000 rotate
0.000000 0.000000 m /one glyphshow
6.362305 0.000000 m /period glyphshow
9.541016 0.000000 m /zero glyphshow
grestore
gsave
/o {
gsave
newpath
translate
0.8 setlinewidth
1 setlinejoin
0 setlinecap
0 0 m
-3.5 0 l

gsave
0.000 setgray
fill
grestore
stroke
grestore
} bind def
58.1486 81.0147 o
grestore
gsave
35.242321 77.217798 translate
0.000000 rotate
0.000000 0.000000 m /one glyphshow
6.362305 0.000000 m /period glyphshow
9.541016 0.000000 m /five glyphshow
grestore
gsave
/o {
gsave
newpath
translate
0.8 setlinewidth
1 setlinejoin
0 setlinecap
0 0 m
-3.5 0 l

gsave
0.000 setgray
fill
grestore
stroke
grestore
} bind def
58.1486 111.917 o
grestore
gsave
35.242321 108.120472 translate
0.000000 rotate
0.000000 0.000000 m /two glyphshow
6.362305 0.000000 m /period glyphshow
9.541016 0.000000 m /zero glyphshow
grestore
gsave
/o {
gsave
newpath
translate
0.8 setlinewidth
1 setlinejoin
0 setlinecap
0 0 m
-3.5 0 l

gsave
0.000 setgray
fill
grestore
stroke
grestore
} bind def
58.1486 142.82 o
grestore
gsave
35.242321 139.023145 translate
0.000000 rotate
0.000000 0.000000 m /two glyphshow
6.362305 0.000000 m /period glyphshow
9.541016 0.000000 m /five glyphshow
grestore
gsave
/o {
gsave
newpath
translate
0.8 setlinewidth
1 setlinejoin
0 setlinecap
0 0 m
-3.5 0 l

gsave
0.000 setgray
fill
grestore
stroke
grestore
} bind def
58.1486 173.723 o
grestore
gsave
35.242321 169.925819 translate
0.000000 rotate
0.000000 0.000000 m /three glyphshow
6.362305 0.000000 m /period glyphshow
9.541016 0.000000 m /zero glyphshow
grestore
gsave
/o {
gsave
newpath
translate
0.8 setlinewidth
1 setlinejoin
0 setlinecap
0 0 m
-3.5 0 l

gsave
0.000 setgray
fill
grestore
stroke
grestore
} bind def
58.1486 204.625 o
grestore
gsave
35.242321 200.828492 translate
0.000000 rotate
0.000000 0.000000 m /three glyphshow
6.362305 0.000000 m /period glyphshow
9.541016 0.000000 m /five glyphshow
grestore
gsave
/o {
gsave
newpath
translate
0.8 setlinewidth
1 setlinejoin
0 setlinecap
0 0 m
-3.5 0 l

gsave
0.000 setgray
fill
grestore
stroke
grestore
} bind def
58.1486 235.528 o
grestore
gsave
35.242321 231.731166 translate
0.000000 rotate
0.000000 0.000000 m /four glyphshow
6.362305 0.000000 m /period glyphshow
9.541016 0.000000 m /zero glyphshow
grestore
gsave
/o {
gsave
newpath
translate
0.8 setlinewidth
1 setlinejoin
0 setlinecap
0 0 m
-3.5 0 l

gsave
0.000 setgray
fill
grestore
stroke
grestore
} bind def
58.1486 266.431 o
grestore
gsave
35.242321 262.633839 translate
0.000000 rotate
0.000000 0.000000 m /four glyphshow
6.362305 0.000000 m /period glyphshow
9.541016 0.000000 m /five glyphshow
grestore
gsave
/o {
gsave
newpath
translate
0.8 setlinewidth
1 setlinejoin
0 setlinecap
0 0 m
-3.5 0 l

gsave
0.000 setgray
fill
grestore
stroke
grestore
} bind def
58.1486 297.333 o
grestore
gsave
35.242321 293.536513 translate
0.000000 rotate
0.000000 0.000000 m /five glyphshow
6.362305 0.000000 m /period glyphshow
9.541016 0.000000 m /zero glyphshow
grestore
gsave
29.164196 168.017312 translate
90.000000 rotate
0.000000 0.000000 m /Y glyphshow
grestore
1.500 setlinewidth
[9.6 2.4 1.5 2.4] 0 setdash
gsave
356.6 266.1 58.15 38.02 clipbox
74.356364 285.590669 m
76.177464 262.266524 l
77.998564 242.54502 l
79.819664 225.654376 l
81.640765 211.028624 l
83.461865 198.243294 l
85.282965 186.973792 l
87.104065 176.967663 l
88.925166 168.025603 l
90.746266 159.988172 l
92.567366 152.726304 l
94.388466 146.134403 l
96.209567 140.125241 l
98.030667 134.62613 l
99.851767 129.576018 l
101.672867 124.923247 l
103.493968 120.623816 l
105.315068 116.640015 l
107.136168 112.939335 l
110.778369 106.278302 l
114.420569 100.455713 l
118.06277 95.328899 l
121.70497 90.786088 l
125.347171 86.738484 l
128.989371 83.114671 l
132.631572 79.856567 l
136.273772 76.916469 l
139.915973 74.254848 l
143.558173 71.83868 l
147.200374 69.64018 l
150.842574 67.635811 l
156.305875 64.950188 l
161.769176 62.600855 l
167.232476 60.542916 l
172.695777 58.740097 l
178.159078 57.162877 l
183.622379 55.787106 l
189.085679 54.592954 l
196.37008 53.255525 l
203.654481 52.181547 l
210.938882 51.347603 l
218.223283 50.736296 l
225.507684 50.335303 l
232.792085 50.136732 l
240.076486 50.136732 l
247.360887 50.335303 l
254.645288 50.736296 l
261.929689 51.347603 l
269.21409 52.181547 l
276.498491 53.255525 l
283.782892 54.592954 l
289.246193 55.787106 l
294.709494 57.162877 l
300.172794 58.740097 l
305.636095 60.542916 l
311.099396 62.600855 l
316.562697 64.950188 l
322.025997 67.635811 l
325.668198 69.64018 l
329.310398 71.83868 l
332.952599 74.254848 l
336.594799 76.916469 l
340.237 79.856567 l
343.8792 83.114671 l
347.521401 86.738484 l
351.163601 90.786088 l
354.805802 95.328899 l
358.448002 100.455713 l
362.090203 106.278302 l
363.911303 109.493608 l
365.732403 112.939335 l
367.553504 116.640015 l
369.374604 120.623816 l
371.195704 124.923247 l
373.016804 129.576018 l
374.837905 134.62613 l
376.659005 140.125241 l
378.480105 146.134403 l
380.301205 152.726304 l
382.122306 159.988172 l
383.943406 168.025603 l
385.764506 176.967663 l
387.585606 186.973792 l
389.406707 198.243294 l
391.227807 211.028624 l
393.048907 225.654376 l
394.870007 242.54502 l
396.691108 262.266524 l
398.512208 285.590669 l
398.512208 285.590669 l
stroke
grestore
[5.55 2.4] 0 setdash
gsave
356.6 266.1 58.15 38.02 clipbox
83.461865 292.032 m
85.282965 268.996475 l
87.104065 249.429259 l
88.925166 232.60534 l
90.746266 217.988686 l
92.567366 205.174437 l
94.388466 193.851101 l
96.209567 183.775103 l
98.030667 174.753235 l
99.851767 166.630277 l
101.672867 159.280101 l
103.493968 152.599158 l
105.315068 146.501649 l
107.136168 140.915874 l
108.957268 135.781451 l
110.778369 131.047172 l
112.599469 126.669323 l
114.420569 122.610364 l
116.241669 118.837875 l
119.88387 112.043333 l
123.52607 106.100474 l
127.168271 100.86606 l
130.810471 96.227603 l
134.452672 92.095554 l
138.094872 88.397757 l
141.737073 85.075444 l
145.379273 82.080283 l
149.021474 79.372182 l
152.663674 76.917624 l
156.305875 74.688389 l
159.948075 72.660568 l
163.590276 70.813791 l
169.053577 68.3456 l
174.516877 66.197082 l
179.980178 64.32884 l
185.443479 62.708992 l
190.90678 61.311627 l
196.37008 60.115645 l
201.833381 59.103893 l
209.117782 58.017888 l
216.402183 57.209633 l
223.686584 56.660964 l
230.970985 56.359907 l
238.255386 56.300014 l
245.539787 56.480011 l
252.824188 56.903735 l
260.108589 57.580332 l
267.39299 58.524769 l
272.856291 59.421592 l
278.319591 60.493062 l
283.782892 61.754086 l
289.246193 63.223051 l
294.709494 64.922549 l
300.172794 66.880339 l
305.636095 69.130612 l
311.099396 71.715702 l
314.741596 73.65065 l
318.383797 75.776427 l
322.025997 78.115086 l
325.668198 80.692583 l
329.310398 83.539646 l
332.952599 86.692902 l
336.594799 90.196322 l
340.237 94.103142 l
343.8792 98.478397 l
347.521401 103.402357 l
351.163601 108.975228 l
354.805802 115.323714 l
356.626902 118.837875 l
358.448002 122.610364 l
360.269103 126.669323 l
362.090203 131.047172 l
363.911303 135.781451 l
365.732403 140.915874 l
367.553504 146.501649 l
369.374604 152.599158 l
371.195704 159.280101 l
373.016804 166.630277 l
374.837905 174.753235 l
376.659005 183.775103 l
378.480105 193.851101 l
380.301205 205.174437 l
382.122306 217.988686 l
383.943406 232.60534 l
385.764506 249.429259 l
387.585606 268.996475 l
389.406707 292.032 l
389.406707 292.032 l
stroke
grestore
[1.5 2.475] 0 setdash
gsave
356.6 266.1 58.15 38.02 clipbox
123.52607 291.518848 m
125.347171 274.263406 l
127.168271 259.103276 l
128.989371 245.683842 l
130.810471 233.726371 l
132.631572 223.008755 l
134.452672 213.351825 l
136.273772 204.609463 l
138.094872 196.661317 l
139.915973 189.407367 l
141.737073 182.763808 l
143.558173 176.659897 l
145.379273 171.035505 l
147.200374 165.839204 l
149.021474 161.026751 l
150.842574 156.559876 l
152.663674 152.405313 l
154.484775 148.534011 l
156.305875 144.920488 l
158.126975 141.542306 l
159.948075 138.379626 l
161.769176 135.414853 l
163.590276 132.632326 l
165.411376 130.018062 l
167.232476 127.559542 l
169.053577 125.245527 l
170.874677 123.0659 l
172.695777 121.011534 l
174.516877 119.074177 l
176.337978 117.246349 l
178.159078 115.521262 l
179.980178 113.892742 l
181.801278 112.355165 l
183.622379 110.9034 l
185.443479 109.532758 l
187.264579 108.238953 l
189.085679 107.018057 l
190.90678 105.866474 l
192.72788 104.780901 l
194.54898 103.75831 l
196.37008 102.79592 l
198.191181 101.891174 l
200.012281 101.041728 l
201.833381 100.245425 l
203.654481 99.500288 l
205.475581 98.804502 l
207.296682 98.156404 l
209.117782 97.554472 l
210.938882 96.997316 l
212.759982 96.483669 l
214.581083 96.012379 l
216.402183 95.582405 l
218.223283 95.192808 l
220.044383 94.842745 l
221.865484 94.531469 l
223.686584 94.25832 l
225.507684 94.022725 l
227.328784 93.824192 l
229.149885 93.66231 l
230.970985 93.536745 l
232.792085 93.447238 l
234.613185 93.393608 l
236.434286 93.375743 l
238.255386 93.393608 l
240.076486 93.447238 l
241.897586 93.536745 l
243.718687 93.66231 l
245.539787 93.824192 l
247.360887 94.022725 l
249.181987 94.25832 l
251.003088 94.531469 l
252.824188 94.842745 l
254.645288 95.192808 l
256.466388 95.582405 l
258.287489 96.012379 l
260.108589 96.483669 l
261.929689 96.997316 l
263.750789 97.554472 l
265.57189 98.156404 l
267.39299 98.804502 l
269.21409 99.500288 l
271.03519 100.245425 l
272.856291 101.041728 l
274.677391 101.891174 l
276.498491 102.79592 l
278.319591 103.75831 l
280.140692 104.780901 l
281.961792 105.866474 l
283.782892 107.018057 l
285.603992 108.238953 l
287.425093 109.532758 l
289.246193 110.9034 l
291.067293 112.355165 l
292.888393 113.892742 l
294.709494 115.521262 l
296.530594 117.246349 l
298.351694 119.074177 l
300.172794 121.011534 l
301.993895 123.0659 l
303.814995 125.245527 l
305.636095 127.559542 l
307.457195 130.018062 l
309.278296 132.632326 l
311.099396 135.414853 l
312.920496 138.379626 l
314.741596 141.542306 l
316.562697 144.920488 l
318.383797 148.534011 l
320.204897 152.405313 l
322.025997 156.559876 l
323.847098 161.026751 l
325.668198 165.839204 l
327.489298 171.035505 l
329.310398 176.659897 l
331.131499 182.763808 l
332.952599 189.407367 l
334.773699 196.661317 l
336.594799 204.609463 l
338.4159 213.351825 l
340.237 223.008755 l
342.0581 233.726371 l
343.8792 245.683842 l
345.700301 259.103276 l
347.521401 274.263406 l
349.342501 291.518848 l
stroke
grestore
0.800 setlinewidth
0 setlinejoin
2 setlinecap
[] 0 setdash
gsave
58.148571 38.016 m
58.148571 304.128 l
stroke
grestore
gsave
414.72 38.016 m
414.72 304.128 l
stroke
grestore
gsave
58.148571 38.016 m
414.72 38.016 l
stroke
grestore
gsave
58.148571 304.128 m
414.72 304.128 l
stroke
grestore
1.000 setlinewidth
0 setlinecap
0.800 setgray
gsave
186.434286 190.628 m
286.434286 190.628 l
288.434286 190.628 289.434286 191.628 289.434286 193.628 c
289.434286 293.628 l
289.434286 295.628 288.434286 296.628 286.434286 296.628 c
186.434286 296.628 l
184.434286 296.628 183.434286 295.628 183.434286 293.628 c
183.434286 193.628 l
183.434286 191.628 184.434286 190.628 186.434286 190.628 c
cl
gsave
1.000 setgray
fill
grestore
stroke
grestore
1.500 setlinewidth
1 setlinejoin
[9.6 2.4 1.5 2.4] 0 setdash
0.000 setgray
gsave
189.434286 280.878 m
219.434286 280.878 l
stroke
grestore
gsave
231.434286 275.628000 translate
0.000000 rotate
/DejaVuSans findfont
10.5 scalefont
setfont
11.000000 7.343750 moveto
/one glyphshow

0.000000 3.593750 29.347028 0.937500 rectfill
0.000000 -6.822187 moveto
/one glyphshow

8.726074 -6.822187 moveto
/minus glyphshow

/DejaVuSans-Oblique findfont
10.5 scalefont
setfont
19.569580 -6.822187 moveto
/t glyphshow

/DejaVuSans findfont
7.35 scalefont
setfont
24.383625 -2.802656 moveto
/two glyphshow


grestore
[5.55 2.4] 0 setdash
gsave
189.434286 250.378 m
219.434286 250.378 l
stroke
grestore
gsave
231.434286 245.128000 translate
0.000000 rotate
/DejaVuSans findfont
10.5 scalefont
setfont
21.000000 7.343750 moveto
/one glyphshow

0.000000 3.593750 49.366755 0.937500 rectfill
/DejaVuSans findfont
7.35 scalefont
setfont
10.000000 -2.703125 moveto
/one glyphshow

0.000000 -5.328125 25.387646 0.656250 rectfill
0.000000 -11.443281 moveto
/one glyphshow

6.108252 -11.443281 moveto
/plus glyphshow

13.698706 -11.443281 moveto
/zero glyphshow

18.375000 -11.443281 moveto
/period glyphshow

20.711353 -11.443281 moveto
/one glyphshow

/DejaVuSans findfont
10.5 scalefont
setfont
28.745801 -7.302344 moveto
/minus glyphshow

/DejaVuSans-Oblique findfont
10.5 scalefont
setfont
39.589307 -7.302344 moveto
/t glyphshow

/DejaVuSans findfont
7.35 scalefont
setfont
44.403352 -3.282812 moveto
/two glyphshow


grestore
[1.5 2.475] 0 setdash
gsave
189.434286 214.878 m
219.434286 214.878 l
stroke
grestore
gsave
231.434286 209.628000 translate
0.000000 rotate
/DejaVuSans findfont
10.5 scalefont
setfont
21.000000 7.343750 moveto
/one glyphshow

0.000000 3.593750 49.359099 0.937500 rectfill
/DejaVuSans findfont
7.35 scalefont
setfont
10.000000 -2.703125 moveto
/one glyphshow

0.000000 -5.328125 25.379990 0.656250 rectfill
0.000000 -11.443281 moveto
/one glyphshow

6.108252 -11.443281 moveto
/plus glyphshow

13.698706 -11.443281 moveto
/zero glyphshow

18.375000 -11.443281 moveto
/period glyphshow

20.703696 -11.443281 moveto
/seven glyphshow

/DejaVuSans findfont
10.5 scalefont
setfont
28.738145 -7.302344 moveto
/minus glyphshow

/DejaVuSans-Oblique findfont
10.5 scalefont
setfont
39.581650 -7.302344 moveto
/t glyphshow

/DejaVuSans findfont
7.35 scalefont
setfont
44.395695 -3.282812 moveto
/two glyphshow


grestore

end
showpage
