%!PS-Adobe-3.0 EPSF-3.0
%%Title: /home/fernando/Desktop/ts_new/imagenes/euler_fun.eps
%%Creator: matplotlib version 2.1.1, http://matplotlib.org/
%%CreationDate: Sat Jan 18 14:33:48 2020
%%Orientation: portrait
%%BoundingBox: -161 151 773 640
%%EndComments
%%BeginProlog
/mpldict 8 dict def
mpldict begin
/m { moveto } bind def
/l { lineto } bind def
/r { rlineto } bind def
/c { curveto } bind def
/cl { closepath } bind def
/box {
m
1 index 0 r
0 exch r
neg 0 r
cl
} bind def
/clipbox {
box
clip
newpath
} bind def
%!PS-Adobe-3.0 Resource-Font
%%Title: DejaVu Sans
%%Copyright: Copyright (c) 2003 by Bitstream, Inc. All Rights Reserved. Copyright (c) 2006 by Tavmjong Bah. All Rights Reserved. DejaVu changes are in public domain 
%%Creator: Converted from TrueType to type 3 by PPR
25 dict begin
/_d{bind def}bind def
/_m{moveto}_d
/_l{lineto}_d
/_cl{closepath eofill}_d
/_c{curveto}_d
/_sc{7 -1 roll{setcachedevice}{pop pop pop pop pop pop}ifelse}_d
/_e{exec}_d
/FontName /DejaVuSans def
/PaintType 0 def
/FontMatrix[.001 0 0 .001 0 0]def
/FontBBox[-1021 -463 1793 1232]def
/FontType 3 def
/Encoding [ /parenleft /parenright /period /zero /one /two /three /four /five /equal /Y /h /t ] def
/FontInfo 10 dict dup begin
/FamilyName (DejaVu Sans) def
/FullName (DejaVu Sans) def
/Notice (Copyright (c) 2003 by Bitstream, Inc. All Rights Reserved. Copyright (c) 2006 by Tavmjong Bah. All Rights Reserved. DejaVu changes are in public domain ) def
/Weight (Book) def
/Version (Version 2.35) def
/ItalicAngle 0.0 def
/isFixedPitch false def
/UnderlinePosition -130 def
/UnderlineThickness 90 def
end readonly def
/CharStrings 14 dict dup begin
/.notdef 0 def
/parenleft{390 0 86 -131 310 759 _sc
310 759 _m
266 683 234 609 213 536 _c
191 463 181 389 181 314 _c
181 238 191 164 213 91 _c
234 17 266 -56 310 -131 _c
232 -131 _l
183 -54 146 20 122 94 _c
98 168 86 241 86 314 _c
86 386 98 459 122 533 _c
146 607 182 682 232 759 _c
310 759 _l
_cl}_d
/parenright{390 0 80 -131 304 759 _sc
80 759 _m
158 759 _l
206 682 243 607 267 533 _c
291 459 304 386 304 314 _c
304 241 291 168 267 94 _c
243 20 206 -54 158 -131 _c
80 -131 _l
123 -56 155 17 177 91 _c
198 164 209 238 209 314 _c
209 389 198 463 177 536 _c
155 609 123 683 80 759 _c
_cl}_d
/period{318 0 107 0 210 124 _sc
107 124 _m
210 124 _l
210 0 _l
107 0 _l
107 124 _l
_cl}_d
/zero{636 0 66 -13 570 742 _sc
318 664 _m
267 664 229 639 203 589 _c
177 539 165 464 165 364 _c
165 264 177 189 203 139 _c
229 89 267 64 318 64 _c
369 64 407 89 433 139 _c
458 189 471 264 471 364 _c
471 464 458 539 433 589 _c
407 639 369 664 318 664 _c
318 742 _m
399 742 461 709 505 645 _c
548 580 570 486 570 364 _c
570 241 548 147 505 83 _c
461 19 399 -13 318 -13 _c
236 -13 173 19 130 83 _c
87 147 66 241 66 364 _c
66 486 87 580 130 645 _c
173 709 236 742 318 742 _c
_cl}_d
/one{636 0 110 0 544 729 _sc
124 83 _m
285 83 _l
285 639 _l
110 604 _l
110 694 _l
284 729 _l
383 729 _l
383 83 _l
544 83 _l
544 0 _l
124 0 _l
124 83 _l
_cl}_d
/two{{636 0 73 0 536 742 _sc
192 83 _m
536 83 _l
536 0 _l
73 0 _l
73 83 _l
110 121 161 173 226 239 _c
290 304 331 346 348 365 _c
380 400 402 430 414 455 _c
426 479 433 504 433 528 _c
433 566 419 598 392 622 _c
365 646 330 659 286 659 _c
255 659 222 653 188 643 _c
154 632 117 616 78 594 _c
78 694 _l
118 710 155 722 189 730 _c
223 738 255 742 284 742 _c
}_e{359 742 419 723 464 685 _c
509 647 532 597 532 534 _c
532 504 526 475 515 449 _c
504 422 484 390 454 354 _c
446 344 420 317 376 272 _c
332 227 271 164 192 83 _c
_cl}_e}_d
/three{{636 0 76 -13 556 742 _sc
406 393 _m
453 383 490 362 516 330 _c
542 298 556 258 556 212 _c
556 140 531 84 482 45 _c
432 6 362 -13 271 -13 _c
240 -13 208 -10 176 -4 _c
144 1 110 10 76 22 _c
76 117 _l
103 101 133 89 166 81 _c
198 73 232 69 268 69 _c
330 69 377 81 409 105 _c
441 129 458 165 458 212 _c
458 254 443 288 413 312 _c
383 336 341 349 287 349 _c
}_e{202 349 _l
202 430 _l
291 430 _l
339 430 376 439 402 459 _c
428 478 441 506 441 543 _c
441 580 427 609 401 629 _c
374 649 336 659 287 659 _c
260 659 231 656 200 650 _c
169 644 135 635 98 623 _c
98 711 _l
135 721 170 729 203 734 _c
235 739 266 742 296 742 _c
370 742 429 725 473 691 _c
517 657 539 611 539 553 _c
539 513 527 479 504 451 _c
481 423 448 403 406 393 _c
_cl}_e}_d
/four{636 0 49 0 580 729 _sc
378 643 _m
129 254 _l
378 254 _l
378 643 _l
352 729 _m
476 729 _l
476 254 _l
580 254 _l
580 172 _l
476 172 _l
476 0 _l
378 0 _l
378 172 _l
49 172 _l
49 267 _l
352 729 _l
_cl}_d
/five{{636 0 77 -13 549 729 _sc
108 729 _m
495 729 _l
495 646 _l
198 646 _l
198 467 _l
212 472 227 476 241 478 _c
255 480 270 482 284 482 _c
365 482 429 459 477 415 _c
525 370 549 310 549 234 _c
549 155 524 94 475 51 _c
426 8 357 -13 269 -13 _c
238 -13 207 -10 175 -6 _c
143 -1 111 6 77 17 _c
77 116 _l
106 100 136 88 168 80 _c
199 72 232 69 267 69 _c
}_e{323 69 368 83 401 113 _c
433 143 450 183 450 234 _c
450 284 433 324 401 354 _c
368 384 323 399 267 399 _c
241 399 214 396 188 390 _c
162 384 135 375 108 363 _c
108 729 _l
_cl}_e}_d
/equal{838 0 106 172 732 454 _sc
106 454 _m
732 454 _l
732 372 _l
106 372 _l
106 454 _l
106 255 _m
732 255 _l
732 172 _l
106 172 _l
106 255 _l
_cl}_d
/Y{611 0 -1 0 613 729 _sc
-1 729 _m
104 729 _l
306 429 _l
507 729 _l
613 729 _l
355 347 _l
355 0 _l
256 0 _l
256 347 _l
-1 729 _l
_cl}_d
/h{634 0 91 0 549 760 _sc
549 330 _m
549 0 _l
459 0 _l
459 327 _l
459 379 448 417 428 443 _c
408 469 378 482 338 482 _c
289 482 251 466 223 435 _c
195 404 181 362 181 309 _c
181 0 _l
91 0 _l
91 760 _l
181 760 _l
181 462 _l
202 494 227 519 257 535 _c
286 551 320 560 358 560 _c
420 560 468 540 500 501 _c
532 462 549 405 549 330 _c
_cl}_d
/t{392 0 27 0 368 702 _sc
183 702 _m
183 547 _l
368 547 _l
368 477 _l
183 477 _l
183 180 _l
183 135 189 106 201 94 _c
213 81 238 75 276 75 _c
368 75 _l
368 0 _l
276 0 _l
206 0 158 13 132 39 _c
106 65 93 112 93 180 _c
93 477 _l
27 477 _l
27 547 _l
93 547 _l
93 702 _l
183 702 _l
_cl}_d
end readonly def

/BuildGlyph
 {exch begin
 CharStrings exch
 2 copy known not{pop /.notdef}if
 true 3 1 roll get exec
 end}_d

/BuildChar {
 1 index /Encoding get exch get
 1 index /BuildGlyph get exec
}_d

FontName currentdict end definefont pop
end
%%EndProlog
mpldict begin
-161.64 151.56 translate
935.28 488.88 0 0 clipbox
gsave
0 0 m
935.28 0 l
935.28 488.88 l
0 488.88 l
cl
1.000 setgray
fill
grestore
gsave
44.537143 37.248 m
924.145714 37.248 l
924.145714 469.092 l
44.537143 469.092 l
cl
1.000 setgray
fill
grestore
0.800 setlinewidth
1 setlinejoin
0 setlinecap
[] 0 setdash
0.000 setgray
gsave
/o {
gsave
newpath
translate
0.8 setlinewidth
1 setlinejoin
0 setlinecap
0 0 m
0 -3.5 l

gsave
0.000 setgray
fill
grestore
stroke
grestore
} bind def
84.5194 37.248 o
grestore
/DejaVuSans findfont
10.000 scalefont
setfont
gsave
81.339663 22.654250 translate
0.000000 rotate
0.000000 0.000000 m /zero glyphshow
grestore
gsave
/o {
gsave
newpath
translate
0.8 setlinewidth
1 setlinejoin
0 setlinecap
0 0 m
0 -3.5 l

gsave
0.000 setgray
fill
grestore
stroke
grestore
} bind def
244.448 37.248 o
grestore
gsave
241.268494 22.654250 translate
0.000000 rotate
0.000000 0.000000 m /one glyphshow
grestore
gsave
/o {
gsave
newpath
translate
0.8 setlinewidth
1 setlinejoin
0 setlinecap
0 0 m
0 -3.5 l

gsave
0.000 setgray
fill
grestore
stroke
grestore
} bind def
404.377 37.248 o
grestore
gsave
401.197325 22.654250 translate
0.000000 rotate
0.000000 0.000000 m /two glyphshow
grestore
gsave
/o {
gsave
newpath
translate
0.8 setlinewidth
1 setlinejoin
0 setlinecap
0 0 m
0 -3.5 l

gsave
0.000 setgray
fill
grestore
stroke
grestore
} bind def
564.306 37.248 o
grestore
gsave
561.126157 22.654250 translate
0.000000 rotate
0.000000 0.000000 m /three glyphshow
grestore
gsave
/o {
gsave
newpath
translate
0.8 setlinewidth
1 setlinejoin
0 setlinecap
0 0 m
0 -3.5 l

gsave
0.000 setgray
fill
grestore
stroke
grestore
} bind def
724.235 37.248 o
grestore
gsave
721.054988 22.654250 translate
0.000000 rotate
0.000000 0.000000 m /four glyphshow
grestore
gsave
/o {
gsave
newpath
translate
0.8 setlinewidth
1 setlinejoin
0 setlinecap
0 0 m
0 -3.5 l

gsave
0.000 setgray
fill
grestore
stroke
grestore
} bind def
884.164 37.248 o
grestore
gsave
880.983819 22.654250 translate
0.000000 rotate
0.000000 0.000000 m /five glyphshow
grestore
gsave
482.380491 8.982375 translate
0.000000 rotate
0.000000 0.000000 m /t glyphshow
grestore
gsave
/o {
gsave
newpath
translate
0.8 setlinewidth
1 setlinejoin
0 setlinecap
0 0 m
-3.5 0 l

gsave
0.000 setgray
fill
grestore
stroke
grestore
} bind def
44.5371 49.3151 o
grestore
gsave
21.630893 45.518246 translate
0.000000 rotate
0.000000 0.000000 m /zero glyphshow
6.362305 0.000000 m /period glyphshow
9.541016 0.000000 m /five glyphshow
grestore
gsave
/o {
gsave
newpath
translate
0.8 setlinewidth
1 setlinejoin
0 setlinecap
0 0 m
-3.5 0 l

gsave
0.000 setgray
fill
grestore
stroke
grestore
} bind def
44.5371 107.057 o
grestore
gsave
21.630893 103.259991 translate
0.000000 rotate
0.000000 0.000000 m /one glyphshow
6.362305 0.000000 m /period glyphshow
9.541016 0.000000 m /zero glyphshow
grestore
gsave
/o {
gsave
newpath
translate
0.8 setlinewidth
1 setlinejoin
0 setlinecap
0 0 m
-3.5 0 l

gsave
0.000 setgray
fill
grestore
stroke
grestore
} bind def
44.5371 164.799 o
grestore
gsave
21.630893 161.001735 translate
0.000000 rotate
0.000000 0.000000 m /one glyphshow
6.362305 0.000000 m /period glyphshow
9.541016 0.000000 m /five glyphshow
grestore
gsave
/o {
gsave
newpath
translate
0.8 setlinewidth
1 setlinejoin
0 setlinecap
0 0 m
-3.5 0 l

gsave
0.000 setgray
fill
grestore
stroke
grestore
} bind def
44.5371 222.54 o
grestore
gsave
21.630893 218.743479 translate
0.000000 rotate
0.000000 0.000000 m /two glyphshow
6.362305 0.000000 m /period glyphshow
9.541016 0.000000 m /zero glyphshow
grestore
gsave
/o {
gsave
newpath
translate
0.8 setlinewidth
1 setlinejoin
0 setlinecap
0 0 m
-3.5 0 l

gsave
0.000 setgray
fill
grestore
stroke
grestore
} bind def
44.5371 280.282 o
grestore
gsave
21.630893 276.485223 translate
0.000000 rotate
0.000000 0.000000 m /two glyphshow
6.362305 0.000000 m /period glyphshow
9.541016 0.000000 m /five glyphshow
grestore
gsave
/o {
gsave
newpath
translate
0.8 setlinewidth
1 setlinejoin
0 setlinecap
0 0 m
-3.5 0 l

gsave
0.000 setgray
fill
grestore
stroke
grestore
} bind def
44.5371 338.024 o
grestore
gsave
21.630893 334.226967 translate
0.000000 rotate
0.000000 0.000000 m /three glyphshow
6.362305 0.000000 m /period glyphshow
9.541016 0.000000 m /zero glyphshow
grestore
gsave
/o {
gsave
newpath
translate
0.8 setlinewidth
1 setlinejoin
0 setlinecap
0 0 m
-3.5 0 l

gsave
0.000 setgray
fill
grestore
stroke
grestore
} bind def
44.5371 395.766 o
grestore
gsave
21.630893 391.968711 translate
0.000000 rotate
0.000000 0.000000 m /three glyphshow
6.362305 0.000000 m /period glyphshow
9.541016 0.000000 m /five glyphshow
grestore
gsave
/o {
gsave
newpath
translate
0.8 setlinewidth
1 setlinejoin
0 setlinecap
0 0 m
-3.5 0 l

gsave
0.000 setgray
fill
grestore
stroke
grestore
} bind def
44.5371 453.507 o
grestore
gsave
21.630893 449.710455 translate
0.000000 rotate
0.000000 0.000000 m /four glyphshow
6.362305 0.000000 m /period glyphshow
9.541016 0.000000 m /zero glyphshow
grestore
gsave
15.552768 250.115312 translate
90.000000 rotate
0.000000 0.000000 m /Y glyphshow
grestore
1.000 setlinewidth
gsave
879.6 431.8 44.54 37.25 clipbox
/o {
gsave
newpath
translate
1.0 setlinewidth
1 setlinejoin
0 setlinecap
0 -2.5 m
0.663008 -2.5 1.29895 -2.236584 1.767767 -1.767767 c
2.236584 -1.29895 2.5 -0.663008 2.5 0 c
2.5 0.663008 2.236584 1.29895 1.767767 1.767767 c
1.29895 2.236584 0.663008 2.5 0 2.5 c
-0.663008 2.5 -1.29895 2.236584 -1.767767 1.767767 c
-2.236584 1.29895 -2.5 0.663008 -2.5 0 c
-2.5 -0.663008 -2.236584 -1.29895 -1.767767 -1.767767 c
-1.29895 -2.236584 -0.663008 -2.5 0 -2.5 c
cl

gsave
0.000 setgray
fill
grestore
stroke
grestore
} bind def
84.5194 107.057 o
164.484 107.447 o
244.448 131.947 o
324.413 162.039 o
404.377 176.902 o
484.341 159.272 o
564.306 116.079 o
644.27 75.5993 o
724.235 56.8773 o
804.199 64.9994 o
884.164 123.112 o
grestore
0.502 setgray
gsave
879.6 431.8 44.54 37.25 clipbox
/o {
gsave
newpath
translate
1.0 setlinewidth
1 setlinejoin
0 setlinecap
-5 -5 m
5 5 l
-5 5 m
5 -5 l

gsave
0.502 setgray
fill
grestore
stroke
grestore
} bind def
84.5194 107.057 o
100.512 107.135 o
116.505 108.637 o
132.498 111.353 o
148.491 115.115 o
164.484 119.776 o
180.477 125.197 o
196.47 131.238 o
212.462 137.747 o
228.455 144.559 o
244.448 151.493 o
260.441 158.349 o
276.434 164.918 o
292.427 170.982 o
308.42 176.324 o
324.413 180.738 o
340.405 184.036 o
356.398 186.066 o
372.391 186.715 o
388.384 185.919 o
404.377 183.67 o
420.37 180.016 o
436.363 175.056 o
452.356 168.939 o
468.349 161.853 o
484.341 154.011 o
500.334 145.643 o
516.327 136.982 o
532.32 128.253 o
548.313 119.662 o
564.306 111.392 o
580.299 103.601 o
596.292 96.4166 o
612.284 89.9418 o
628.277 84.2576 o
644.27 79.4294 o
660.263 75.5143 o
676.256 72.5702 o
692.249 70.6665 o
708.242 69.8963 o
724.235 70.3936 o
740.228 72.3543 o
756.22 76.0669 o
772.213 81.9581 o
788.206 90.6608 o
804.199 103.123 o
820.192 120.78 o
836.185 145.841 o
852.178 181.774 o
868.171 234.133 o
884.164 312.034 o
grestore
0.000 setgray
gsave
879.6 431.8 44.54 37.25 clipbox
/o {
gsave
newpath
translate
1.0 setlinewidth
1 setlinejoin
0 setlinecap
0 0 m
0 -5 l
0 0 m
4 2.5 l
0 0 m
-4 2.5 l

gsave
0.000 setgray
fill
grestore
stroke
grestore
} bind def
84.5194 107.057 o
92.5158 107.096 o
100.512 107.507 o
108.509 108.26 o
116.505 109.331 o
124.502 110.697 o
132.498 112.338 o
140.494 114.234 o
148.491 116.368 o
156.487 118.722 o
164.484 121.279 o
172.48 124.022 o
180.477 126.932 o
188.473 129.992 o
196.47 133.181 o
204.466 136.481 o
212.462 139.87 o
220.459 143.326 o
228.455 146.825 o
236.452 150.343 o
244.448 153.854 o
252.445 157.333 o
260.441 160.752 o
268.438 164.084 o
276.434 167.301 o
284.43 170.375 o
292.427 173.278 o
300.423 175.983 o
308.42 178.464 o
316.416 180.696 o
324.413 182.656 o
332.409 184.322 o
340.405 185.675 o
348.402 186.699 o
356.398 187.379 o
364.395 187.705 o
372.391 187.671 o
380.388 187.271 o
388.384 186.506 o
396.381 185.378 o
404.377 183.894 o
412.373 182.065 o
420.37 179.903 o
428.366 177.424 o
436.363 174.649 o
444.359 171.597 o
452.356 168.293 o
460.352 164.763 o
468.349 161.033 o
476.345 157.131 o
484.341 153.085 o
492.338 148.925 o
500.334 144.68 o
508.331 140.376 o
516.327 136.043 o
524.324 131.707 o
532.32 127.392 o
540.317 123.123 o
548.313 118.923 o
556.309 114.812 o
564.306 110.81 o
572.302 106.933 o
580.299 103.198 o
588.295 99.6189 o
596.292 96.2081 o
604.288 92.9771 o
612.284 89.9361 o
620.281 87.0942 o
628.277 84.4597 o
636.274 82.0403 o
644.27 79.8435 o
652.267 77.8768 o
660.263 76.1477 o
668.26 74.6645 o
676.256 73.4366 o
684.252 72.4745 o
692.249 71.7908 o
700.245 71.4003 o
708.242 71.3208 o
716.238 71.574 o
724.235 72.186 o
732.231 73.1886 o
740.228 74.6205 o
748.224 76.5289 o
756.22 78.9713 o
764.217 82.0182 o
772.213 85.7557 o
780.21 90.2898 o
788.206 95.7515 o
796.203 102.303 o
804.199 110.144 o
812.196 119.529 o
820.192 130.771 o
828.188 144.271 o
836.185 160.535 o
844.181 180.213 o
852.178 204.14 o
860.174 233.397 o
868.171 269.402 o
876.167 314.016 o
884.164 369.71 o
grestore
0.800 setlinewidth
2 setlinecap
gsave
879.6 431.8 44.54 37.25 clipbox
84.519351 107.056866 m
100.512234 107.870296 l
116.505117 110.014924 l
132.498 113.313126 l
148.490883 117.613912 l
164.483766 122.777272 l
180.476649 128.662543 l
196.469532 135.119954 l
212.462416 141.984981 l
228.455299 149.075441 l
244.448182 156.191365 l
260.441065 163.117681 l
276.433948 169.629636 l
292.426831 175.500676 l
308.419714 180.512254 l
324.412597 184.464821 l
340.405481 187.188987 l
356.398364 188.555812 l
372.391247 188.485108 l
388.38413 186.950873 l
404.377013 183.983194 l
420.369896 179.666385 l
436.362779 174.133501 l
452.355662 167.557814 l
468.348545 160.142108 l
484.341429 152.106864 l
500.334312 143.678452 l
516.327195 135.078332 l
532.320078 126.514096 l
548.312961 118.172877 l
564.305844 110.217395 l
580.298727 102.784629 l
596.29161 95.986938 l
612.284494 89.915315 l
628.277377 84.644463 l
644.27026 80.239471 l
660.263143 76.764017 l
676.256026 74.290329 l
692.248909 72.91156 l
708.241792 72.757814 l
724.234675 74.01806 l
740.227558 76.971709 l
756.220442 82.036254 l
772.213325 89.842077 l
788.206208 101.353948 l
804.199091 118.074674 l
820.191974 142.397071 l
836.184857 178.231656 l
852.17774 232.163695 l
868.170623 315.662504 l
884.163506 449.462727 l
stroke
grestore
0 setlinejoin
[] 0 setdash
gsave
44.537143 37.248 m
44.537143 469.092 l
stroke
grestore
gsave
924.145714 37.248 m
924.145714 469.092 l
stroke
grestore
gsave
44.537143 37.248 m
924.145714 37.248 l
stroke
grestore
gsave
44.537143 469.092 m
924.145714 469.092 l
stroke
grestore
1.000 setlinewidth
0 setlinecap
0.800 setgray
gsave
55.037143 369.0295 m
158.521518 369.0295 l
160.521518 369.0295 161.521518 370.0295 161.521518 372.0295 c
161.521518 458.592 l
161.521518 460.592 160.521518 461.592 158.521518 461.592 c
55.037143 461.592 l
53.037143 461.592 52.037143 460.592 52.037143 458.592 c
52.037143 372.0295 l
52.037143 370.0295 53.037143 369.0295 55.037143 369.0295 c
cl
gsave
1.000 setgray
fill
grestore
stroke
grestore
1 setlinejoin
[] 0 setdash
0.000 setgray
gsave
/o {
gsave
newpath
translate
1.0 setlinewidth
1 setlinejoin
0 setlinecap
0 -2.5 m
0.663008 -2.5 1.29895 -2.236584 1.767767 -1.767767 c
2.236584 -1.29895 2.5 -0.663008 2.5 0 c
2.5 0.663008 2.236584 1.29895 1.767767 1.767767 c
1.29895 2.236584 0.663008 2.5 0 2.5 c
-0.663008 2.5 -1.29895 2.236584 -1.767767 1.767767 c
-2.236584 1.29895 -2.5 0.663008 -2.5 0 c
-2.5 -0.663008 -2.236584 -1.29895 -1.767767 -1.767767 c
-1.29895 -2.236584 -0.663008 -2.5 0 -2.5 c
cl

gsave
0.000 setgray
fill
grestore
stroke
grestore
} bind def
73.0371 449.451 o
grestore
/DejaVuSans findfont
15.000 scalefont
setfont
gsave
100.037143 444.201375 translate
0.000000 rotate
0.000000 0.000000 m /h glyphshow
9.506836 0.000000 m /equal glyphshow
22.075195 0.000000 m /zero glyphshow
31.618652 0.000000 m /period glyphshow
36.386719 0.000000 m /five glyphshow
grestore
0.502 setgray
gsave
/o {
gsave
newpath
translate
1.0 setlinewidth
1 setlinejoin
0 setlinecap
-5 -5 m
5 5 l
-5 5 m
5 -5 l

gsave
0.502 setgray
fill
grestore
stroke
grestore
} bind def
73.0371 427.436 o
grestore
0.000 setgray
gsave
100.037143 422.185750 translate
0.000000 rotate
0.000000 0.000000 m /h glyphshow
9.506836 0.000000 m /equal glyphshow
22.075195 0.000000 m /zero glyphshow
31.618652 0.000000 m /period glyphshow
36.386719 0.000000 m /one glyphshow
grestore
gsave
/o {
gsave
newpath
translate
1.0 setlinewidth
1 setlinejoin
0 setlinecap
0 0 m
0 -5 l
0 0 m
4 2.5 l
0 0 m
-4 2.5 l

gsave
0.000 setgray
fill
grestore
stroke
grestore
} bind def
73.0371 405.42 o
grestore
gsave
100.037143 400.170125 translate
0.000000 rotate
0.000000 0.000000 m /h glyphshow
9.506836 0.000000 m /equal glyphshow
22.075195 0.000000 m /zero glyphshow
31.618652 0.000000 m /period glyphshow
36.386719 0.000000 m /zero glyphshow
45.930176 0.000000 m /five glyphshow
grestore
0.800 setlinewidth
2 setlinecap
gsave
58.037143 383.4045 m
88.037143 383.4045 l
stroke
grestore
gsave
100.037143 378.154500 translate
0.000000 rotate
0.000000 0.000000 m /Y glyphshow
9.162598 0.000000 m /parenleft glyphshow
15.014648 0.000000 m /t glyphshow
20.895996 0.000000 m /parenright glyphshow
grestore

end
showpage
