%!PS-Adobe-3.0 EPSF-3.0
%%Title: /home/fernando/Desktop/ts_new/imagenes/mov1.eps
%%Creator: matplotlib version 2.1.1, http://matplotlib.org/
%%CreationDate: Sat Jan 11 22:11:04 2020
%%Orientation: portrait
%%BoundingBox: -361 39 973 752
%%EndComments
%%BeginProlog
/mpldict 8 dict def
mpldict begin
/m { moveto } bind def
/l { lineto } bind def
/r { rlineto } bind def
/c { curveto } bind def
/cl { closepath } bind def
/box {
m
1 index 0 r
0 exch r
neg 0 r
cl
} bind def
/clipbox {
box
clip
newpath
} bind def
%!PS-Adobe-3.0 Resource-Font
%%Title: DejaVu Sans
%%Copyright: Copyright (c) 2003 by Bitstream, Inc. All Rights Reserved. Copyright (c) 2006 by Tavmjong Bah. All Rights Reserved. DejaVu changes are in public domain 
%%Creator: Converted from TrueType to type 3 by PPR
25 dict begin
/_d{bind def}bind def
/_m{moveto}_d
/_l{lineto}_d
/_cl{closepath eofill}_d
/_c{curveto}_d
/_sc{7 -1 roll{setcachedevice}{pop pop pop pop pop pop}ifelse}_d
/_e{exec}_d
/FontName /DejaVuSans def
/PaintType 0 def
/FontMatrix[.001 0 0 .001 0 0]def
/FontBBox[-1021 -463 1793 1232]def
/FontType 3 def
/Encoding [ /space /percent /zero /one /two /three /four /five /six /seven /eight /nine /A /O /P /S /W /a /c /d /e /i /j /n /o /r /s /t /w /ntilde /tilde ] def
/FontInfo 10 dict dup begin
/FamilyName (DejaVu Sans) def
/FullName (DejaVu Sans) def
/Notice (Copyright (c) 2003 by Bitstream, Inc. All Rights Reserved. Copyright (c) 2006 by Tavmjong Bah. All Rights Reserved. DejaVu changes are in public domain ) def
/Weight (Book) def
/Version (Version 2.35) def
/ItalicAngle 0.0 def
/isFixedPitch false def
/UnderlinePosition -130 def
/UnderlineThickness 90 def
end readonly def
/CharStrings 32 dict dup begin
/.notdef 0 def
/space{318 0 0 0 0 0 _sc
}_d
/percent{{950 0 55 -13 895 742 _sc
727 321 _m
699 321 676 309 660 285 _c
644 261 636 227 636 184 _c
636 142 644 108 660 84 _c
676 60 699 48 727 48 _c
755 48 777 60 793 84 _c
809 108 817 142 817 184 _c
817 226 809 260 793 284 _c
777 308 755 321 727 321 _c
727 383 _m
778 383 819 365 849 329 _c
879 293 895 244 895 184 _c
895 123 879 75 849 40 _c
819 4 778 -13 727 -13 _c
}_e{675 -13 633 4 603 40 _c
573 75 558 123 558 184 _c
558 245 573 293 603 329 _c
633 365 675 383 727 383 _c
223 680 _m
195 680 173 667 157 643 _c
141 619 133 586 133 544 _c
133 500 141 467 157 443 _c
173 419 195 407 223 407 _c
251 407 274 419 290 443 _c
306 467 314 500 314 544 _c
314 586 305 619 289 643 _c
273 667 251 680 223 680 _c
664 742 _m
742 742 _l
286 -13 _l
}_e{208 -13 _l
664 742 _l
223 742 _m
274 742 315 724 346 688 _c
376 652 392 604 392 544 _c
392 482 376 434 346 398 _c
316 362 275 345 223 345 _c
171 345 130 362 100 398 _c
70 434 55 482 55 544 _c
55 604 70 652 100 688 _c
130 724 171 742 223 742 _c
_cl}_e}_d
/zero{636 0 66 -13 570 742 _sc
318 664 _m
267 664 229 639 203 589 _c
177 539 165 464 165 364 _c
165 264 177 189 203 139 _c
229 89 267 64 318 64 _c
369 64 407 89 433 139 _c
458 189 471 264 471 364 _c
471 464 458 539 433 589 _c
407 639 369 664 318 664 _c
318 742 _m
399 742 461 709 505 645 _c
548 580 570 486 570 364 _c
570 241 548 147 505 83 _c
461 19 399 -13 318 -13 _c
236 -13 173 19 130 83 _c
87 147 66 241 66 364 _c
66 486 87 580 130 645 _c
173 709 236 742 318 742 _c
_cl}_d
/one{636 0 110 0 544 729 _sc
124 83 _m
285 83 _l
285 639 _l
110 604 _l
110 694 _l
284 729 _l
383 729 _l
383 83 _l
544 83 _l
544 0 _l
124 0 _l
124 83 _l
_cl}_d
/two{{636 0 73 0 536 742 _sc
192 83 _m
536 83 _l
536 0 _l
73 0 _l
73 83 _l
110 121 161 173 226 239 _c
290 304 331 346 348 365 _c
380 400 402 430 414 455 _c
426 479 433 504 433 528 _c
433 566 419 598 392 622 _c
365 646 330 659 286 659 _c
255 659 222 653 188 643 _c
154 632 117 616 78 594 _c
78 694 _l
118 710 155 722 189 730 _c
223 738 255 742 284 742 _c
}_e{359 742 419 723 464 685 _c
509 647 532 597 532 534 _c
532 504 526 475 515 449 _c
504 422 484 390 454 354 _c
446 344 420 317 376 272 _c
332 227 271 164 192 83 _c
_cl}_e}_d
/three{{636 0 76 -13 556 742 _sc
406 393 _m
453 383 490 362 516 330 _c
542 298 556 258 556 212 _c
556 140 531 84 482 45 _c
432 6 362 -13 271 -13 _c
240 -13 208 -10 176 -4 _c
144 1 110 10 76 22 _c
76 117 _l
103 101 133 89 166 81 _c
198 73 232 69 268 69 _c
330 69 377 81 409 105 _c
441 129 458 165 458 212 _c
458 254 443 288 413 312 _c
383 336 341 349 287 349 _c
}_e{202 349 _l
202 430 _l
291 430 _l
339 430 376 439 402 459 _c
428 478 441 506 441 543 _c
441 580 427 609 401 629 _c
374 649 336 659 287 659 _c
260 659 231 656 200 650 _c
169 644 135 635 98 623 _c
98 711 _l
135 721 170 729 203 734 _c
235 739 266 742 296 742 _c
370 742 429 725 473 691 _c
517 657 539 611 539 553 _c
539 513 527 479 504 451 _c
481 423 448 403 406 393 _c
_cl}_e}_d
/four{636 0 49 0 580 729 _sc
378 643 _m
129 254 _l
378 254 _l
378 643 _l
352 729 _m
476 729 _l
476 254 _l
580 254 _l
580 172 _l
476 172 _l
476 0 _l
378 0 _l
378 172 _l
49 172 _l
49 267 _l
352 729 _l
_cl}_d
/five{{636 0 77 -13 549 729 _sc
108 729 _m
495 729 _l
495 646 _l
198 646 _l
198 467 _l
212 472 227 476 241 478 _c
255 480 270 482 284 482 _c
365 482 429 459 477 415 _c
525 370 549 310 549 234 _c
549 155 524 94 475 51 _c
426 8 357 -13 269 -13 _c
238 -13 207 -10 175 -6 _c
143 -1 111 6 77 17 _c
77 116 _l
106 100 136 88 168 80 _c
199 72 232 69 267 69 _c
}_e{323 69 368 83 401 113 _c
433 143 450 183 450 234 _c
450 284 433 324 401 354 _c
368 384 323 399 267 399 _c
241 399 214 396 188 390 _c
162 384 135 375 108 363 _c
108 729 _l
_cl}_e}_d
/six{{636 0 70 -13 573 742 _sc
330 404 _m
286 404 251 388 225 358 _c
199 328 186 286 186 234 _c
186 181 199 139 225 109 _c
251 79 286 64 330 64 _c
374 64 409 79 435 109 _c
461 139 474 181 474 234 _c
474 286 461 328 435 358 _c
409 388 374 404 330 404 _c
526 713 _m
526 623 _l
501 635 476 644 451 650 _c
425 656 400 659 376 659 _c
310 659 260 637 226 593 _c
}_e{192 549 172 482 168 394 _c
187 422 211 444 240 459 _c
269 474 301 482 336 482 _c
409 482 467 459 509 415 _c
551 371 573 310 573 234 _c
573 159 550 99 506 54 _c
462 9 403 -13 330 -13 _c
246 -13 181 19 137 83 _c
92 147 70 241 70 364 _c
70 479 97 571 152 639 _c
206 707 280 742 372 742 _c
396 742 421 739 447 735 _c
472 730 498 723 526 713 _c
_cl}_e}_d
/seven{636 0 82 0 551 729 _sc
82 729 _m
551 729 _l
551 687 _l
286 0 _l
183 0 _l
432 646 _l
82 646 _l
82 729 _l
_cl}_d
/eight{{636 0 68 -13 568 742 _sc
318 346 _m
271 346 234 333 207 308 _c
180 283 167 249 167 205 _c
167 161 180 126 207 101 _c
234 76 271 64 318 64 _c
364 64 401 76 428 102 _c
455 127 469 161 469 205 _c
469 249 455 283 429 308 _c
402 333 365 346 318 346 _c
219 388 _m
177 398 144 418 120 447 _c
96 476 85 511 85 553 _c
85 611 105 657 147 691 _c
188 725 245 742 318 742 _c
}_e{390 742 447 725 489 691 _c
530 657 551 611 551 553 _c
551 511 539 476 515 447 _c
491 418 459 398 417 388 _c
464 377 501 355 528 323 _c
554 291 568 251 568 205 _c
568 134 546 80 503 43 _c
459 5 398 -13 318 -13 _c
237 -13 175 5 132 43 _c
89 80 68 134 68 205 _c
68 251 81 291 108 323 _c
134 355 171 377 219 388 _c
183 544 _m
183 506 194 476 218 455 _c
}_e{242 434 275 424 318 424 _c
360 424 393 434 417 455 _c
441 476 453 506 453 544 _c
453 582 441 611 417 632 _c
393 653 360 664 318 664 _c
275 664 242 653 218 632 _c
194 611 183 582 183 544 _c
_cl}_e}_d
/nine{{636 0 63 -13 566 742 _sc
110 15 _m
110 105 _l
134 93 159 84 185 78 _c
210 72 235 69 260 69 _c
324 69 374 90 408 134 _c
442 178 462 244 468 334 _c
448 306 424 284 396 269 _c
367 254 335 247 300 247 _c
226 247 168 269 126 313 _c
84 357 63 417 63 494 _c
63 568 85 628 129 674 _c
173 719 232 742 306 742 _c
390 742 455 709 499 645 _c
543 580 566 486 566 364 _c
}_e{566 248 538 157 484 89 _c
429 21 356 -13 264 -13 _c
239 -13 214 -10 189 -6 _c
163 -2 137 5 110 15 _c
306 324 _m
350 324 385 339 411 369 _c
437 399 450 441 450 494 _c
450 546 437 588 411 618 _c
385 648 350 664 306 664 _c
262 664 227 648 201 618 _c
175 588 162 546 162 494 _c
162 441 175 399 201 369 _c
227 339 262 324 306 324 _c
_cl}_e}_d
/A{684 0 8 0 676 729 _sc
342 632 _m
208 269 _l
476 269 _l
342 632 _l
286 729 _m
398 729 _l
676 0 _l
573 0 _l
507 187 _l
178 187 _l
112 0 _l
8 0 _l
286 729 _l
_cl}_d
/O{787 0 56 -13 731 742 _sc
394 662 _m
322 662 265 635 223 582 _c
181 528 160 456 160 364 _c
160 272 181 199 223 146 _c
265 92 322 66 394 66 _c
465 66 522 92 564 146 _c
606 199 627 272 627 364 _c
627 456 606 528 564 582 _c
522 635 465 662 394 662 _c
394 742 _m
496 742 577 707 639 639 _c
700 571 731 479 731 364 _c
731 248 700 157 639 89 _c
577 21 496 -13 394 -13 _c
291 -13 209 21 148 89 _c
86 157 56 248 56 364 _c
56 479 86 571 148 639 _c
209 707 291 742 394 742 _c
_cl}_d
/P{603 0 98 0 569 729 _sc
197 648 _m
197 374 _l
321 374 _l
367 374 402 385 427 409 _c
452 433 465 467 465 511 _c
465 555 452 588 427 612 _c
402 636 367 648 321 648 _c
197 648 _l
98 729 _m
321 729 _l
402 729 464 710 506 673 _c
548 636 569 582 569 511 _c
569 439 548 384 506 348 _c
464 311 402 293 321 293 _c
197 293 _l
197 0 _l
98 0 _l
98 729 _l
_cl}_d
/S{{635 0 66 -13 579 742 _sc
535 705 _m
535 609 _l
497 627 462 640 429 649 _c
395 657 363 662 333 662 _c
279 662 237 651 208 631 _c
179 610 165 580 165 542 _c
165 510 174 485 194 469 _c
213 452 250 439 304 429 _c
364 417 _l
437 403 491 378 526 343 _c
561 307 579 260 579 201 _c
579 130 555 77 508 41 _c
460 5 391 -13 300 -13 _c
265 -13 228 -9 189 -2 _c
}_e{150 5 110 16 69 32 _c
69 134 _l
109 111 148 94 186 83 _c
224 71 262 66 300 66 _c
356 66 399 77 430 99 _c
460 121 476 152 476 194 _c
476 230 465 258 443 278 _c
421 298 385 313 335 323 _c
275 335 _l
201 349 148 372 115 404 _c
82 435 66 478 66 534 _c
66 598 88 649 134 686 _c
179 723 242 742 322 742 _c
356 742 390 739 426 733 _c
461 727 497 717 535 705 _c
}_e{_cl}_e}_d
/W{989 0 33 0 956 729 _sc
33 729 _m
133 729 _l
286 113 _l
439 729 _l
550 729 _l
703 113 _l
856 729 _l
956 729 _l
773 0 _l
649 0 _l
495 633 _l
340 0 _l
216 0 _l
33 729 _l
_cl}_d
/a{{613 0 60 -13 522 560 _sc
343 275 _m
270 275 220 266 192 250 _c
164 233 150 205 150 165 _c
150 133 160 107 181 89 _c
202 70 231 61 267 61 _c
317 61 357 78 387 114 _c
417 149 432 196 432 255 _c
432 275 _l
343 275 _l
522 312 _m
522 0 _l
432 0 _l
432 83 _l
411 49 385 25 355 10 _c
325 -5 287 -13 243 -13 _c
187 -13 142 2 109 33 _c
76 64 60 106 60 159 _c
}_e{60 220 80 266 122 298 _c
163 329 224 345 306 345 _c
432 345 _l
432 354 _l
432 395 418 427 391 450 _c
364 472 326 484 277 484 _c
245 484 215 480 185 472 _c
155 464 127 453 100 439 _c
100 522 _l
132 534 164 544 195 550 _c
226 556 256 560 286 560 _c
365 560 424 539 463 498 _c
502 457 522 395 522 312 _c
_cl}_e}_d
/c{{550 0 55 -13 488 560 _sc
488 526 _m
488 442 _l
462 456 437 466 411 473 _c
385 480 360 484 334 484 _c
276 484 230 465 198 428 _c
166 391 150 339 150 273 _c
150 206 166 154 198 117 _c
230 80 276 62 334 62 _c
360 62 385 65 411 72 _c
437 79 462 90 488 104 _c
488 21 _l
462 9 436 0 410 -5 _c
383 -10 354 -13 324 -13 _c
242 -13 176 12 128 64 _c
}_e{79 115 55 185 55 273 _c
55 362 79 432 128 483 _c
177 534 244 560 330 560 _c
358 560 385 557 411 551 _c
437 545 463 537 488 526 _c
_cl}_e}_d
/d{{635 0 55 -13 544 760 _sc
454 464 _m
454 760 _l
544 760 _l
544 0 _l
454 0 _l
454 82 _l
435 49 411 25 382 10 _c
353 -5 319 -13 279 -13 _c
213 -13 159 13 117 65 _c
75 117 55 187 55 273 _c
55 359 75 428 117 481 _c
159 533 213 560 279 560 _c
319 560 353 552 382 536 _c
411 520 435 496 454 464 _c
148 273 _m
148 207 161 155 188 117 _c
215 79 253 61 301 61 _c
}_e{348 61 385 79 413 117 _c
440 155 454 207 454 273 _c
454 339 440 390 413 428 _c
385 466 348 485 301 485 _c
253 485 215 466 188 428 _c
161 390 148 339 148 273 _c
_cl}_e}_d
/e{{615 0 55 -13 562 560 _sc
562 296 _m
562 252 _l
149 252 _l
153 190 171 142 205 110 _c
238 78 284 62 344 62 _c
378 62 412 66 444 74 _c
476 82 509 95 541 113 _c
541 28 _l
509 14 476 3 442 -3 _c
408 -9 373 -13 339 -13 _c
251 -13 182 12 131 62 _c
80 112 55 181 55 268 _c
55 357 79 428 127 481 _c
175 533 241 560 323 560 _c
397 560 455 536 498 489 _c
}_e{540 441 562 377 562 296 _c
472 322 _m
471 371 457 410 431 440 _c
404 469 368 484 324 484 _c
274 484 234 469 204 441 _c
174 413 156 373 152 322 _c
472 322 _l
_cl}_e}_d
/i{278 0 94 0 184 760 _sc
94 547 _m
184 547 _l
184 0 _l
94 0 _l
94 547 _l
94 760 _m
184 760 _l
184 646 _l
94 646 _l
94 760 _l
_cl}_d
/j{278 0 -17 -207 184 760 _sc
94 547 _m
184 547 _l
184 -9 _l
184 -78 170 -128 144 -160 _c
117 -191 74 -207 16 -207 _c
-17 -207 _l
-17 -131 _l
6 -131 _l
40 -131 63 -123 75 -107 _c
87 -91 94 -58 94 -9 _c
94 547 _l
94 760 _m
184 760 _l
184 646 _l
94 646 _l
94 760 _l
_cl}_d
/n{634 0 91 0 549 560 _sc
549 330 _m
549 0 _l
459 0 _l
459 327 _l
459 379 448 417 428 443 _c
408 469 378 482 338 482 _c
289 482 251 466 223 435 _c
195 404 181 362 181 309 _c
181 0 _l
91 0 _l
91 547 _l
181 547 _l
181 462 _l
202 494 227 519 257 535 _c
286 551 320 560 358 560 _c
420 560 468 540 500 501 _c
532 462 549 405 549 330 _c
_cl}_d
/o{612 0 55 -13 557 560 _sc
306 484 _m
258 484 220 465 192 427 _c
164 389 150 338 150 273 _c
150 207 163 156 191 118 _c
219 80 257 62 306 62 _c
354 62 392 80 420 118 _c
448 156 462 207 462 273 _c
462 337 448 389 420 427 _c
392 465 354 484 306 484 _c
306 560 _m
384 560 445 534 490 484 _c
534 433 557 363 557 273 _c
557 183 534 113 490 63 _c
445 12 384 -13 306 -13 _c
227 -13 165 12 121 63 _c
77 113 55 183 55 273 _c
55 363 77 433 121 484 _c
165 534 227 560 306 560 _c
_cl}_d
/r{411 0 91 0 411 560 _sc
411 463 _m
401 469 390 473 378 476 _c
366 478 353 480 339 480 _c
288 480 249 463 222 430 _c
194 397 181 350 181 288 _c
181 0 _l
91 0 _l
91 547 _l
181 547 _l
181 462 _l
199 495 224 520 254 536 _c
284 552 321 560 365 560 _c
371 560 378 559 386 559 _c
393 558 401 557 411 555 _c
411 463 _l
_cl}_d
/s{{521 0 54 -13 472 560 _sc
443 531 _m
443 446 _l
417 458 391 468 364 475 _c
336 481 308 485 279 485 _c
234 485 200 478 178 464 _c
156 450 145 430 145 403 _c
145 382 153 366 169 354 _c
185 342 217 330 265 320 _c
296 313 _l
360 299 405 279 432 255 _c
458 230 472 195 472 151 _c
472 100 452 60 412 31 _c
372 1 316 -13 246 -13 _c
216 -13 186 -10 154 -5 _c
}_e{122 0 89 8 54 20 _c
54 113 _l
87 95 120 82 152 74 _c
184 65 216 61 248 61 _c
290 61 323 68 346 82 _c
368 96 380 117 380 144 _c
380 168 371 187 355 200 _c
339 213 303 226 247 238 _c
216 245 _l
160 257 119 275 95 299 _c
70 323 58 356 58 399 _c
58 450 76 490 112 518 _c
148 546 200 560 268 560 _c
301 560 332 557 362 552 _c
391 547 418 540 443 531 _c
}_e{_cl}_e}_d
/t{392 0 27 0 368 702 _sc
183 702 _m
183 547 _l
368 547 _l
368 477 _l
183 477 _l
183 180 _l
183 135 189 106 201 94 _c
213 81 238 75 276 75 _c
368 75 _l
368 0 _l
276 0 _l
206 0 158 13 132 39 _c
106 65 93 112 93 180 _c
93 477 _l
27 477 _l
27 547 _l
93 547 _l
93 702 _l
183 702 _l
_cl}_d
/w{818 0 42 0 776 547 _sc
42 547 _m
132 547 _l
244 120 _l
356 547 _l
462 547 _l
574 120 _l
686 547 _l
776 547 _l
633 0 _l
527 0 _l
409 448 _l
291 0 _l
185 0 _l
42 547 _l
_cl}_d
/ntilde{634 0 91 0 549 777 _sc
false CharStrings /n get exec
gsave 74 0 translate
false CharStrings /tilde get exec
grestore }_d
/tilde{{500 0 89 639 411 777 _sc
248 669 _m
220 696 _l
212 702 206 707 201 710 _c
195 713 191 715 187 715 _c
174 715 165 709 159 697 _c
153 685 150 665 150 639 _c
89 639 _l
89 683 98 717 115 741 _c
131 765 154 777 184 777 _c
196 777 208 774 218 770 _c
228 765 240 757 252 747 _c
280 720 _l
287 713 293 708 299 705 _c
304 702 309 701 313 701 _c
325 701 334 707 340 719 _c
}_e{346 731 349 750 350 777 _c
411 777 _l
410 733 401 699 385 675 _c
368 651 345 639 316 639 _c
303 639 291 641 281 646 _c
271 650 260 658 248 669 _c
_cl}_e}_d
end readonly def

/BuildGlyph
 {exch begin
 CharStrings exch
 2 copy known not{pop /.notdef}if
 true 3 1 roll get exec
 end}_d

/BuildChar {
 1 index /Encoding get exch get
 1 index /BuildGlyph get exec
}_d

FontName currentdict end definefont pop
end
%%EndProlog
mpldict begin
-361.08 39.24 translate
1334.16 713.52 0 0 clipbox
gsave
0 0 m
1334.16 0 l
1334.16 713.52 l
0 713.52 l
cl
1.000 setgray
fill
grestore
gsave
117.533143 110.425714 m
1286.511429 110.425714 l
1286.511429 669.349714 l
117.533143 669.349714 l
cl
0.898 setgray
fill
grestore
0.800 setlinewidth
1 setlinejoin
2 setlinecap
[] 0 setdash
1.000 setgray
gsave
1169 558.9 117.5 110.4 clipbox
169.719673 110.425714 m
169.719673 669.349714 l
stroke
grestore
0 setlinecap
0.333 setgray
gsave
/o {
gsave
newpath
translate
0.8 setlinewidth
1 setlinejoin
0 setlinecap
0 0 m
0 -3.5 l

gsave
0.333 setgray
fill
grestore
stroke
grestore
} bind def
169.72 110.426 o
grestore
0.000 setgray
/DejaVuSans findfont
20.000 scalefont
setfont
gsave
166.209870 50.419077 translate
70.000000 rotate
0.000000 0.000000 m /two glyphshow
12.724609 0.000000 m /zero glyphshow
25.449219 0.000000 m /zero glyphshow
38.173828 0.000000 m /nine glyphshow
grestore
2 setlinecap
1.000 setgray
gsave
1169 558.9 117.5 110.4 clipbox
294.967347 110.425714 m
294.967347 669.349714 l
stroke
grestore
0 setlinecap
0.333 setgray
gsave
/o {
gsave
newpath
translate
0.8 setlinewidth
1 setlinejoin
0 setlinecap
0 0 m
0 -3.5 l

gsave
0.333 setgray
fill
grestore
stroke
grestore
} bind def
294.967 110.426 o
grestore
0.000 setgray
gsave
291.457543 50.419077 translate
70.000000 rotate
0.000000 0.000000 m /two glyphshow
12.724609 0.000000 m /zero glyphshow
25.449219 0.000000 m /one glyphshow
38.173828 0.000000 m /zero glyphshow
grestore
2 setlinecap
1.000 setgray
gsave
1169 558.9 117.5 110.4 clipbox
420.21502 110.425714 m
420.21502 669.349714 l
stroke
grestore
0 setlinecap
0.333 setgray
gsave
/o {
gsave
newpath
translate
0.8 setlinewidth
1 setlinejoin
0 setlinecap
0 0 m
0 -3.5 l

gsave
0.333 setgray
fill
grestore
stroke
grestore
} bind def
420.215 110.426 o
grestore
0.000 setgray
gsave
416.705216 50.419077 translate
70.000000 rotate
0.000000 0.000000 m /two glyphshow
12.724609 0.000000 m /zero glyphshow
25.449219 0.000000 m /one glyphshow
38.173828 0.000000 m /one glyphshow
grestore
2 setlinecap
1.000 setgray
gsave
1169 558.9 117.5 110.4 clipbox
545.462694 110.425714 m
545.462694 669.349714 l
stroke
grestore
0 setlinecap
0.333 setgray
gsave
/o {
gsave
newpath
translate
0.8 setlinewidth
1 setlinejoin
0 setlinecap
0 0 m
0 -3.5 l

gsave
0.333 setgray
fill
grestore
stroke
grestore
} bind def
545.463 110.426 o
grestore
0.000 setgray
gsave
541.952890 50.419077 translate
70.000000 rotate
0.000000 0.000000 m /two glyphshow
12.724609 0.000000 m /zero glyphshow
25.449219 0.000000 m /one glyphshow
38.173828 0.000000 m /two glyphshow
grestore
2 setlinecap
1.000 setgray
gsave
1169 558.9 117.5 110.4 clipbox
670.710367 110.425714 m
670.710367 669.349714 l
stroke
grestore
0 setlinecap
0.333 setgray
gsave
/o {
gsave
newpath
translate
0.8 setlinewidth
1 setlinejoin
0 setlinecap
0 0 m
0 -3.5 l

gsave
0.333 setgray
fill
grestore
stroke
grestore
} bind def
670.71 110.426 o
grestore
0.000 setgray
gsave
667.200563 50.419077 translate
70.000000 rotate
0.000000 0.000000 m /two glyphshow
12.724609 0.000000 m /zero glyphshow
25.449219 0.000000 m /one glyphshow
38.173828 0.000000 m /three glyphshow
grestore
2 setlinecap
1.000 setgray
gsave
1169 558.9 117.5 110.4 clipbox
795.958041 110.425714 m
795.958041 669.349714 l
stroke
grestore
0 setlinecap
0.333 setgray
gsave
/o {
gsave
newpath
translate
0.8 setlinewidth
1 setlinejoin
0 setlinecap
0 0 m
0 -3.5 l

gsave
0.333 setgray
fill
grestore
stroke
grestore
} bind def
795.958 110.426 o
grestore
0.000 setgray
gsave
792.448237 50.419077 translate
70.000000 rotate
0.000000 0.000000 m /two glyphshow
12.724609 0.000000 m /zero glyphshow
25.449219 0.000000 m /one glyphshow
38.173828 0.000000 m /four glyphshow
grestore
2 setlinecap
1.000 setgray
gsave
1169 558.9 117.5 110.4 clipbox
921.205714 110.425714 m
921.205714 669.349714 l
stroke
grestore
0 setlinecap
0.333 setgray
gsave
/o {
gsave
newpath
translate
0.8 setlinewidth
1 setlinejoin
0 setlinecap
0 0 m
0 -3.5 l

gsave
0.333 setgray
fill
grestore
stroke
grestore
} bind def
921.206 110.426 o
grestore
0.000 setgray
gsave
917.695910 50.419077 translate
70.000000 rotate
0.000000 0.000000 m /two glyphshow
12.724609 0.000000 m /zero glyphshow
25.449219 0.000000 m /one glyphshow
38.173828 0.000000 m /five glyphshow
grestore
2 setlinecap
1.000 setgray
gsave
1169 558.9 117.5 110.4 clipbox
1046.453388 110.425714 m
1046.453388 669.349714 l
stroke
grestore
0 setlinecap
0.333 setgray
gsave
/o {
gsave
newpath
translate
0.8 setlinewidth
1 setlinejoin
0 setlinecap
0 0 m
0 -3.5 l

gsave
0.333 setgray
fill
grestore
stroke
grestore
} bind def
1046.45 110.426 o
grestore
0.000 setgray
gsave
1042.943584 50.419077 translate
70.000000 rotate
0.000000 0.000000 m /two glyphshow
12.724609 0.000000 m /zero glyphshow
25.449219 0.000000 m /one glyphshow
38.173828 0.000000 m /six glyphshow
grestore
2 setlinecap
1.000 setgray
gsave
1169 558.9 117.5 110.4 clipbox
1171.701061 110.425714 m
1171.701061 669.349714 l
stroke
grestore
0 setlinecap
0.333 setgray
gsave
/o {
gsave
newpath
translate
0.8 setlinewidth
1 setlinejoin
0 setlinecap
0 0 m
0 -3.5 l

gsave
0.333 setgray
fill
grestore
stroke
grestore
} bind def
1171.7 110.426 o
grestore
0.000 setgray
gsave
1168.191257 50.419077 translate
70.000000 rotate
0.000000 0.000000 m /two glyphshow
12.724609 0.000000 m /zero glyphshow
25.449219 0.000000 m /one glyphshow
38.173828 0.000000 m /seven glyphshow
grestore
2 setlinecap
1.000 setgray
gsave
1169 558.9 117.5 110.4 clipbox
1255.19951 110.425714 m
1255.19951 669.349714 l
stroke
grestore
0 setlinecap
0.333 setgray
gsave
/o {
gsave
newpath
translate
0.8 setlinewidth
1 setlinejoin
0 setlinecap
0 0 m
0 -3.5 l

gsave
0.333 setgray
fill
grestore
stroke
grestore
} bind def
1255.2 110.426 o
grestore
0.000 setgray
gsave
1251.689706 50.419077 translate
70.000000 rotate
0.000000 0.000000 m /two glyphshow
12.724609 0.000000 m /zero glyphshow
25.449219 0.000000 m /one glyphshow
38.173828 0.000000 m /eight glyphshow
grestore
gsave
682.725411 29.794431 translate
0.000000 rotate
0.000000 0.000000 m /A glyphshow
13.681641 0.000000 m /ntilde glyphshow
26.357422 0.000000 m /o glyphshow
grestore
2 setlinecap
1.000 setgray
gsave
1169 558.9 117.5 110.4 clipbox
117.533143 134.956802 m
1286.511429 134.956802 l
stroke
grestore
0 setlinecap
0.333 setgray
gsave
/o {
gsave
newpath
translate
0.8 setlinewidth
1 setlinejoin
0 setlinecap
0 0 m
-3.5 0 l

gsave
0.333 setgray
fill
grestore
stroke
grestore
} bind def
117.533 134.957 o
grestore
0.000 setgray
gsave
97.814393 127.355240 translate
0.000000 rotate
0.000000 0.000000 m /zero glyphshow
grestore
2 setlinecap
1.000 setgray
gsave
1169 558.9 117.5 110.4 clipbox
117.533143 202.22977 m
1286.511429 202.22977 l
stroke
grestore
0 setlinecap
0.333 setgray
gsave
/o {
gsave
newpath
translate
0.8 setlinewidth
1 setlinejoin
0 setlinecap
0 0 m
-3.5 0 l

gsave
0.333 setgray
fill
grestore
stroke
grestore
} bind def
117.533 202.23 o
grestore
0.000 setgray
gsave
85.095643 194.628208 translate
0.000000 rotate
0.000000 0.000000 m /one glyphshow
12.724609 0.000000 m /zero glyphshow
grestore
2 setlinecap
1.000 setgray
gsave
1169 558.9 117.5 110.4 clipbox
117.533143 269.502738 m
1286.511429 269.502738 l
stroke
grestore
0 setlinecap
0.333 setgray
gsave
/o {
gsave
newpath
translate
0.8 setlinewidth
1 setlinejoin
0 setlinecap
0 0 m
-3.5 0 l

gsave
0.333 setgray
fill
grestore
stroke
grestore
} bind def
117.533 269.503 o
grestore
0.000 setgray
gsave
85.095643 261.901176 translate
0.000000 rotate
0.000000 0.000000 m /two glyphshow
12.724609 0.000000 m /zero glyphshow
grestore
2 setlinecap
1.000 setgray
gsave
1169 558.9 117.5 110.4 clipbox
117.533143 336.775706 m
1286.511429 336.775706 l
stroke
grestore
0 setlinecap
0.333 setgray
gsave
/o {
gsave
newpath
translate
0.8 setlinewidth
1 setlinejoin
0 setlinecap
0 0 m
-3.5 0 l

gsave
0.333 setgray
fill
grestore
stroke
grestore
} bind def
117.533 336.776 o
grestore
0.000 setgray
gsave
85.095643 329.174144 translate
0.000000 rotate
0.000000 0.000000 m /three glyphshow
12.724609 0.000000 m /zero glyphshow
grestore
2 setlinecap
1.000 setgray
gsave
1169 558.9 117.5 110.4 clipbox
117.533143 404.048674 m
1286.511429 404.048674 l
stroke
grestore
0 setlinecap
0.333 setgray
gsave
/o {
gsave
newpath
translate
0.8 setlinewidth
1 setlinejoin
0 setlinecap
0 0 m
-3.5 0 l

gsave
0.333 setgray
fill
grestore
stroke
grestore
} bind def
117.533 404.049 o
grestore
0.000 setgray
gsave
85.095643 396.447112 translate
0.000000 rotate
0.000000 0.000000 m /four glyphshow
12.724609 0.000000 m /zero glyphshow
grestore
2 setlinecap
1.000 setgray
gsave
1169 558.9 117.5 110.4 clipbox
117.533143 471.321642 m
1286.511429 471.321642 l
stroke
grestore
0 setlinecap
0.333 setgray
gsave
/o {
gsave
newpath
translate
0.8 setlinewidth
1 setlinejoin
0 setlinecap
0 0 m
-3.5 0 l

gsave
0.333 setgray
fill
grestore
stroke
grestore
} bind def
117.533 471.322 o
grestore
0.000 setgray
gsave
85.095643 463.720080 translate
0.000000 rotate
0.000000 0.000000 m /five glyphshow
12.724609 0.000000 m /zero glyphshow
grestore
2 setlinecap
1.000 setgray
gsave
1169 558.9 117.5 110.4 clipbox
117.533143 538.59461 m
1286.511429 538.59461 l
stroke
grestore
0 setlinecap
0.333 setgray
gsave
/o {
gsave
newpath
translate
0.8 setlinewidth
1 setlinejoin
0 setlinecap
0 0 m
-3.5 0 l

gsave
0.333 setgray
fill
grestore
stroke
grestore
} bind def
117.533 538.595 o
grestore
0.000 setgray
gsave
85.095643 530.993048 translate
0.000000 rotate
0.000000 0.000000 m /six glyphshow
12.724609 0.000000 m /zero glyphshow
grestore
2 setlinecap
1.000 setgray
gsave
1169 558.9 117.5 110.4 clipbox
117.533143 605.867578 m
1286.511429 605.867578 l
stroke
grestore
0 setlinecap
0.333 setgray
gsave
/o {
gsave
newpath
translate
0.8 setlinewidth
1 setlinejoin
0 setlinecap
0 0 m
-3.5 0 l

gsave
0.333 setgray
fill
grestore
stroke
grestore
} bind def
117.533 605.868 o
grestore
0.000 setgray
gsave
85.095643 598.266016 translate
0.000000 rotate
0.000000 0.000000 m /seven glyphshow
12.724609 0.000000 m /zero glyphshow
grestore
gsave
76.939393 323.973652 translate
90.000000 rotate
0.000000 0.000000 m /percent glyphshow
19.003906 0.000000 m /space glyphshow
25.361328 0.000000 m /P glyphshow
37.421875 0.000000 m /o glyphshow
49.658203 0.000000 m /r glyphshow
57.880859 0.000000 m /c glyphshow
68.876953 0.000000 m /e glyphshow
81.181641 0.000000 m /n glyphshow
93.857422 0.000000 m /t glyphshow
101.699219 0.000000 m /a glyphshow
113.955078 0.000000 m /j glyphshow
119.511719 0.000000 m /e glyphshow
grestore
2 setlinecap
gsave
1169 558.9 117.5 110.4 clipbox
117.533143 139.396818 m
127.970449 148.815033 l
138.407755 149.622309 l
148.845061 148.545942 l
159.282367 147.469574 l
169.719673 135.831351 l
180.15698 149.824128 l
190.594286 150.295039 l
201.031592 150.564131 l
211.468898 152.178682 l
221.906204 157.224154 l
232.34351 162.3369 l
242.780816 165.49873 l
253.218122 170.94784 l
263.655429 174.647853 l
274.092735 172.495118 l
284.530041 161.462351 l
294.967347 161.529624 l
305.404653 188.16972 l
315.841959 196.982479 l
326.279265 200.817038 l
336.716571 206.737059 l
347.153878 213.060718 l
357.591184 226.448039 l
368.02849 233.242608 l
378.465796 236.942622 l
388.903102 241.248091 l
399.340408 242.929916 l
409.777714 253.559045 l
420.21502 255.509961 l
430.652327 262.30453 l
441.089633 273.539116 l
451.526939 275.557305 l
461.964245 283.697334 l
472.401551 282.284602 l
482.838857 281.813691 l
493.276163 291.097361 l
503.713469 301.524671 l
514.150776 293.78828 l
524.588082 294.999193 l
535.025388 295.133739 l
545.462694 303.610133 l
555.9 313.431986 l
566.337306 324.733845 l
576.774612 331.730233 l
587.211918 338.053892 l
597.649224 348.010292 l
608.086531 358.235783 l
618.523837 382.992235 l
628.961143 383.194054 l
639.398449 385.414062 l
649.835755 392.881361 l
660.273061 392.410451 l
670.710367 390.12317 l
681.147673 392.881361 l
691.58498 400.819572 l
702.022286 402.837761 l
712.459592 399.945023 l
722.896898 412.861433 l
733.334204 424.163291 l
743.77151 435.128785 l
754.208816 454.167035 l
764.646122 459.616146 l
775.083429 470.985277 l
785.520735 486.323514 l
795.958041 491.368987 l
806.395347 494.934454 l
816.832653 504.083577 l
827.269959 509.667234 l
837.707265 521.305457 l
848.144571 537.92188 l
858.581878 532.876408 l
869.019184 537.114605 l
879.45649 543.909175 l
889.893796 551.645566 l
900.331102 561.669238 l
910.768408 565.503797 l
921.205714 563.821973 l
931.64302 566.041981 l
942.080327 575.99838 l
952.517633 584.138409 l
962.954939 586.694782 l
973.392245 577.142021 l
983.829551 578.285661 l
994.266857 580.842034 l
1004.704163 581.514764 l
1015.141469 592.682076 l
1025.578776 594.296628 l
1036.016082 598.063914 l
1046.453388 595.03663 l
1056.890694 597.727549 l
1067.328 596.045725 l
1077.765306 603.714843 l
1088.202612 611.518507 l
1098.639918 619.389445 l
1109.077224 619.120353 l
1119.514531 616.496707 l
1129.951837 619.187626 l
1140.389143 616.698526 l
1150.826449 618.245804 l
1161.263755 623.896733 l
1171.701061 625.309466 l
1182.138367 628.673114 l
1192.575673 624.300371 l
1203.01298 629.547663 l
1213.450286 626.385833 l
1223.887592 626.789471 l
1234.324898 629.682209 l
1244.762204 635.400411 l
1255.19951 638.024057 l
1265.636816 634.391316 l
1276.074122 643.944078 l
stroke
grestore
1.000 setlinewidth
0 setlinecap
gsave
1169 558.9 117.5 110.4 clipbox
/o {
gsave
newpath
translate
1.0 setlinewidth
1 setlinejoin
0 setlinecap
0 -3 m
0.795609 -3 1.55874 -2.683901 2.12132 -2.12132 c
2.683901 -1.55874 3 -0.795609 3 0 c
3 0.795609 2.683901 1.55874 2.12132 2.12132 c
1.55874 2.683901 0.795609 3 0 3 c
-0.795609 3 -1.55874 2.683901 -2.12132 2.12132 c
-2.683901 1.55874 -3 0.795609 -3 0 c
-3 -0.795609 -2.683901 -1.55874 -2.12132 -2.12132 c
-1.55874 -2.683901 -0.795609 -3 0 -3 c
cl

gsave
0.000 setgray
fill
grestore
stroke
grestore
} bind def
117.533 139.397 o
127.97 148.815 o
138.408 149.622 o
148.845 148.546 o
159.282 147.47 o
169.72 135.831 o
180.157 149.824 o
190.594 150.295 o
201.032 150.564 o
211.469 152.179 o
221.906 157.224 o
232.344 162.337 o
242.781 165.499 o
253.218 170.948 o
263.655 174.648 o
274.093 172.495 o
284.53 161.462 o
294.967 161.53 o
305.405 188.17 o
315.842 196.982 o
326.279 200.817 o
336.717 206.737 o
347.154 213.061 o
357.591 226.448 o
368.028 233.243 o
378.466 236.943 o
388.903 241.248 o
399.34 242.93 o
409.778 253.559 o
420.215 255.51 o
430.652 262.305 o
441.09 273.539 o
451.527 275.557 o
461.964 283.697 o
472.402 282.285 o
482.839 281.814 o
493.276 291.097 o
503.713 301.525 o
514.151 293.788 o
524.588 294.999 o
535.025 295.134 o
545.463 303.61 o
555.9 313.432 o
566.337 324.734 o
576.775 331.73 o
587.212 338.054 o
597.649 348.01 o
608.087 358.236 o
618.524 382.992 o
628.961 383.194 o
639.398 385.414 o
649.836 392.881 o
660.273 392.41 o
670.71 390.123 o
681.148 392.881 o
691.585 400.82 o
702.022 402.838 o
712.46 399.945 o
722.897 412.861 o
733.334 424.163 o
743.772 435.129 o
754.209 454.167 o
764.646 459.616 o
775.083 470.985 o
785.521 486.324 o
795.958 491.369 o
806.395 494.934 o
816.833 504.084 o
827.27 509.667 o
837.707 521.305 o
848.145 537.922 o
858.582 532.876 o
869.019 537.115 o
879.456 543.909 o
889.894 551.646 o
900.331 561.669 o
910.768 565.504 o
921.206 563.822 o
931.643 566.042 o
942.08 575.998 o
952.518 584.138 o
962.955 586.695 o
973.392 577.142 o
983.83 578.286 o
994.267 580.842 o
1004.7 581.515 o
1015.14 592.682 o
1025.58 594.297 o
1036.02 598.064 o
1046.45 595.037 o
1056.89 597.728 o
1067.33 596.046 o
1077.77 603.715 o
1088.2 611.519 o
1098.64 619.389 o
1109.08 619.12 o
1119.51 616.497 o
1129.95 619.188 o
1140.39 616.699 o
1150.83 618.246 o
1161.26 623.897 o
1171.7 625.309 o
1182.14 628.673 o
1192.58 624.3 o
1203.01 629.548 o
1213.45 626.386 o
1223.89 626.789 o
1234.32 629.682 o
1244.76 635.4 o
1255.2 638.024 o
1265.64 634.391 o
1276.07 643.944 o
grestore
0.800 setlinewidth
2 setlinecap
gsave
1169 558.9 117.5 110.4 clipbox
117.533143 374.179476 m
127.970449 380.032224 l
138.407755 401.357755 l
148.845061 416.897811 l
159.282367 386.019519 l
169.719673 375.8613 l
180.15698 365.030353 l
190.594286 363.079437 l
201.031592 344.377551 l
211.468898 340.139354 l
221.906204 347.270289 l
232.34351 350.566664 l
242.780816 357.832145 l
253.218122 363.14671 l
263.655429 337.650255 l
274.092735 332.604782 l
284.530041 330.115682 l
294.967347 314.306535 l
305.404653 310.202884 l
315.841959 307.915603 l
326.279265 288.675534 l
336.716571 285.984615 l
347.153878 282.553694 l
357.591184 293.519188 l
368.02849 303.273768 l
378.465796 300.179211 l
388.903102 298.968298 l
399.340408 291.971909 l
409.777714 283.562788 l
420.21502 269.77183 l
430.652327 269.704557 l
441.089633 265.533633 l
451.526939 277.642767 l
461.964245 292.913731 l
472.401551 297.824658 l
482.838857 287.733712 l
493.276163 296.681017 l
503.713469 306.435597 l
514.150776 296.344652 l
524.588082 295.402831 l
535.025388 289.348264 l
545.462694 300.179211 l
555.9 305.897414 l
566.337306 299.641028 l
576.774612 293.922825 l
587.211918 294.528282 l
597.649224 294.595555 l
608.086531 291.433726 l
618.523837 308.857424 l
628.961143 318.006548 l
639.398449 317.535637 l
649.835755 312.961075 l
660.273061 308.924697 l
670.710367 303.744679 l
681.147673 301.72649 l
691.58498 292.644639 l
702.022286 287.868258 l
712.459592 273.135478 l
722.896898 282.553694 l
733.334204 281.746418 l
743.77151 293.384642 l
754.208816 289.48281 l
764.646122 293.721007 l
775.083429 291.366453 l
785.520735 291.29918 l
795.958041 298.362841 l
806.395347 302.466492 l
816.832653 293.519188 l
827.269959 301.322852 l
837.707265 309.597427 l
848.144571 289.819174 l
858.581878 293.11555 l
869.019184 288.002804 l
879.45649 290.828269 l
889.893796 287.262802 l
900.331102 274.75003 l
910.768408 270.982743 l
921.205714 270.982743 l
931.64302 272.26093 l
942.080327 262.97726 l
952.517633 256.989966 l
962.954939 254.029955 l
973.392245 264.79363 l
983.829551 264.188174 l
994.266857 266.677273 l
1004.704163 265.937271 l
1015.141469 261.564528 l
1025.578776 261.429982 l
1036.016082 260.286341 l
1046.453388 271.722746 l
1056.890694 268.762735 l
1067.328 269.973649 l
1077.765306 265.331814 l
1088.202612 263.582717 l
1098.639918 261.766347 l
1109.077224 262.035439 l
1119.514531 267.686368 l
1129.951837 265.802725 l
1140.389143 266.13909 l
1150.826449 268.628189 l
1161.263755 264.928176 l
1171.701061 265.129995 l
1182.138367 261.295436 l
1192.575673 271.655473 l
1203.01298 265.264541 l
1213.450286 269.435465 l
1223.887592 271.790019 l
1234.324898 268.897281 l
1244.762204 267.080911 l
1255.19951 270.511833 l
1265.636816 275.086394 l
1276.074122 264.32272 l
stroke
grestore
1.000 setlinewidth
0 setlinejoin
0 setlinecap
gsave
1169 558.9 117.5 110.4 clipbox
/o {
gsave
newpath
translate
1.0 setlinewidth
0 setlinejoin
0 setlinecap
-3 -3 m
3 -3 l
3 3 l
-3 3 l
cl

gsave
0.000 setgray
fill
grestore
stroke
grestore
} bind def
117.533 374.179 o
127.97 380.032 o
138.408 401.358 o
148.845 416.898 o
159.282 386.02 o
169.72 375.861 o
180.157 365.03 o
190.594 363.079 o
201.032 344.378 o
211.469 340.139 o
221.906 347.27 o
232.344 350.567 o
242.781 357.832 o
253.218 363.147 o
263.655 337.65 o
274.093 332.605 o
284.53 330.116 o
294.967 314.307 o
305.405 310.203 o
315.842 307.916 o
326.279 288.676 o
336.717 285.985 o
347.154 282.554 o
357.591 293.519 o
368.028 303.274 o
378.466 300.179 o
388.903 298.968 o
399.34 291.972 o
409.778 283.563 o
420.215 269.772 o
430.652 269.705 o
441.09 265.534 o
451.527 277.643 o
461.964 292.914 o
472.402 297.825 o
482.839 287.734 o
493.276 296.681 o
503.713 306.436 o
514.151 296.345 o
524.588 295.403 o
535.025 289.348 o
545.463 300.179 o
555.9 305.897 o
566.337 299.641 o
576.775 293.923 o
587.212 294.528 o
597.649 294.596 o
608.087 291.434 o
618.524 308.857 o
628.961 318.007 o
639.398 317.536 o
649.836 312.961 o
660.273 308.925 o
670.71 303.745 o
681.148 301.726 o
691.585 292.645 o
702.022 287.868 o
712.46 273.135 o
722.897 282.554 o
733.334 281.746 o
743.772 293.385 o
754.209 289.483 o
764.646 293.721 o
775.083 291.366 o
785.521 291.299 o
795.958 298.363 o
806.395 302.466 o
816.833 293.519 o
827.27 301.323 o
837.707 309.597 o
848.145 289.819 o
858.582 293.116 o
869.019 288.003 o
879.456 290.828 o
889.894 287.263 o
900.331 274.75 o
910.768 270.983 o
921.206 270.983 o
931.643 272.261 o
942.08 262.977 o
952.518 256.99 o
962.955 254.03 o
973.392 264.794 o
983.83 264.188 o
994.267 266.677 o
1004.7 265.937 o
1015.14 261.565 o
1025.58 261.43 o
1036.02 260.286 o
1046.45 271.723 o
1056.89 268.763 o
1067.33 269.974 o
1077.77 265.332 o
1088.2 263.583 o
1098.64 261.766 o
1109.08 262.035 o
1119.51 267.686 o
1129.95 265.803 o
1140.39 266.139 o
1150.83 268.628 o
1161.26 264.928 o
1171.7 265.13 o
1182.14 261.295 o
1192.58 271.655 o
1203.01 265.265 o
1213.45 269.435 o
1223.89 271.79 o
1234.32 268.897 o
1244.76 267.081 o
1255.2 270.512 o
1265.64 275.086 o
1276.07 264.323 o
grestore
0.800 setlinewidth
1 setlinejoin
2 setlinecap
gsave
1169 558.9 117.5 110.4 clipbox
117.533143 152.111409 m
127.970449 151.573225 l
138.407755 148.27685 l
148.845061 146.729571 l
159.282367 145.78775 l
169.719673 145.720477 l
180.15698 145.78775 l
190.594286 149.824128 l
201.031592 149.084125 l
211.468898 146.124115 l
221.906204 144.240472 l
232.34351 142.827739 l
242.780816 141.616826 l
253.218122 140.675004 l
263.655429 140.069548 l
274.092735 138.454996 l
284.530041 136.302261 l
294.967347 136.100443 l
305.404653 137.647721 l
315.841959 137.647721 l
326.279265 137.378629 l
336.716571 138.32045 l
347.153878 137.916813 l
357.591184 137.647721 l
368.02849 138.454996 l
378.465796 139.060453 l
388.903102 138.99318 l
399.340408 138.858634 l
409.777714 138.589542 l
420.21502 138.253177 l
430.652327 138.253177 l
441.089633 138.253177 l
451.526939 138.454996 l
461.964245 138.925907 l
472.401551 138.858634 l
482.838857 138.724088 l
493.276163 138.858634 l
503.713469 139.194999 l
514.150776 139.396818 l
524.588082 139.598637 l
535.025388 139.733183 l
545.462694 139.867729 l
555.9 141.616826 l
566.337306 142.962285 l
576.774612 143.164104 l
587.211918 143.164104 l
597.649224 143.500469 l
608.086531 142.760466 l
618.523837 142.356829 l
628.961143 142.491374 l
639.398449 143.164104 l
649.835755 143.567742 l
660.273061 144.038653 l
670.710367 144.576836 l
681.147673 145.518658 l
691.58498 146.191388 l
702.022286 146.729571 l
712.459592 146.796844 l
722.896898 148.478669 l
733.334204 149.285944 l
743.77151 149.824128 l
754.208816 150.295039 l
764.646122 150.160493 l
775.083429 151.371406 l
785.520735 151.23686 l
795.958041 151.035041 l
806.395347 151.371406 l
816.832653 150.967768 l
827.269959 150.564131 l
837.707265 150.76595 l
848.144571 151.438679 l
858.581878 150.227766 l
869.019184 150.295039 l
879.45649 150.429585 l
889.893796 150.496858 l
900.331102 150.833223 l
910.768408 150.631404 l
921.205714 150.160493 l
931.64302 150.496858 l
942.080327 150.09322 l
952.517633 149.891401 l
962.954939 150.429585 l
973.392245 150.362312 l
983.829551 150.496858 l
994.266857 149.622309 l
1004.704163 149.218671 l
1015.141469 147.940485 l
1025.578776 147.805939 l
1036.016082 147.402301 l
1046.453388 148.142304 l
1056.890694 147.402301 l
1067.328 146.796844 l
1077.765306 145.922296 l
1088.202612 144.845928 l
1098.639918 143.97138 l
1109.077224 143.29865 l
1119.514531 142.62592 l
1129.951837 142.558647 l
1140.389143 141.751372 l
1150.826449 141.415007 l
1161.263755 141.145915 l
1171.701061 140.944096 l
1182.138367 140.675004 l
1192.575673 140.473185 l
1203.01298 140.136821 l
1213.450286 140.002275 l
1223.887592 139.733183 l
1234.324898 139.262272 l
1244.762204 139.060453 l
1255.19951 138.858634 l
1265.636816 138.656815 l
1276.074122 138.589542 l
stroke
grestore
1.000 setlinewidth
0 setlinejoin
0 setlinecap
gsave
1169 558.9 117.5 110.4 clipbox
/o {
gsave
newpath
translate
1.0 setlinewidth
0 setlinejoin
0 setlinecap
-0 -3 m
3 3 l
-3 3 l
cl

gsave
0.000 setgray
fill
grestore
stroke
grestore
} bind def
117.533 152.111 o
127.97 151.573 o
138.408 148.277 o
148.845 146.73 o
159.282 145.788 o
169.72 145.72 o
180.157 145.788 o
190.594 149.824 o
201.032 149.084 o
211.469 146.124 o
221.906 144.24 o
232.344 142.828 o
242.781 141.617 o
253.218 140.675 o
263.655 140.07 o
274.093 138.455 o
284.53 136.302 o
294.967 136.1 o
305.405 137.648 o
315.842 137.648 o
326.279 137.379 o
336.717 138.32 o
347.154 137.917 o
357.591 137.648 o
368.028 138.455 o
378.466 139.06 o
388.903 138.993 o
399.34 138.859 o
409.778 138.59 o
420.215 138.253 o
430.652 138.253 o
441.09 138.253 o
451.527 138.455 o
461.964 138.926 o
472.402 138.859 o
482.839 138.724 o
493.276 138.859 o
503.713 139.195 o
514.151 139.397 o
524.588 139.599 o
535.025 139.733 o
545.463 139.868 o
555.9 141.617 o
566.337 142.962 o
576.775 143.164 o
587.212 143.164 o
597.649 143.5 o
608.087 142.76 o
618.524 142.357 o
628.961 142.491 o
639.398 143.164 o
649.836 143.568 o
660.273 144.039 o
670.71 144.577 o
681.148 145.519 o
691.585 146.191 o
702.022 146.73 o
712.46 146.797 o
722.897 148.479 o
733.334 149.286 o
743.772 149.824 o
754.209 150.295 o
764.646 150.16 o
775.083 151.371 o
785.521 151.237 o
795.958 151.035 o
806.395 151.371 o
816.833 150.968 o
827.27 150.564 o
837.707 150.766 o
848.145 151.439 o
858.582 150.228 o
869.019 150.295 o
879.456 150.43 o
889.894 150.497 o
900.331 150.833 o
910.768 150.631 o
921.206 150.16 o
931.643 150.497 o
942.08 150.093 o
952.518 149.891 o
962.955 150.43 o
973.392 150.362 o
983.83 150.497 o
994.267 149.622 o
1004.7 149.219 o
1015.14 147.94 o
1025.58 147.806 o
1036.02 147.402 o
1046.45 148.142 o
1056.89 147.402 o
1067.33 146.797 o
1077.77 145.922 o
1088.2 144.846 o
1098.64 143.971 o
1109.08 143.299 o
1119.51 142.626 o
1129.95 142.559 o
1140.39 141.751 o
1150.83 141.415 o
1161.26 141.146 o
1171.7 140.944 o
1182.14 140.675 o
1192.58 140.473 o
1203.01 140.137 o
1213.45 140.002 o
1223.89 139.733 o
1234.32 139.262 o
1244.76 139.06 o
1255.2 138.859 o
1265.64 138.657 o
1276.07 138.59 o
grestore
2 setlinecap
[] 0 setdash
1.000 setgray
gsave
117.533143 110.425714 m
117.533143 669.349714 l
stroke
grestore
gsave
1286.511429 110.425714 m
1286.511429 669.349714 l
stroke
grestore
gsave
117.533143 110.425714 m
1286.511429 110.425714 l
stroke
grestore
gsave
117.533143 669.349714 m
1286.511429 669.349714 l
stroke
grestore
0.500 setlinewidth
0 setlinecap
0.800 setgray
gsave
178.982057 570.856639 m
294.263307 570.856639 l
296.263307 570.856639 297.263307 571.856639 297.263307 573.856639 c
297.263307 638.403514 l
297.263307 640.403514 296.263307 641.403514 294.263307 641.403514 c
178.982057 641.403514 l
176.982057 641.403514 175.982057 640.403514 175.982057 638.403514 c
175.982057 573.856639 l
175.982057 571.856639 176.982057 570.856639 178.982057 570.856639 c
cl
gsave
0.898 setgray
fill
grestore
stroke
grestore
0.800 setlinewidth
1 setlinejoin
2 setlinecap
[] 0 setdash
0.000 setgray
gsave
181.982057 629.262889 m
211.982057 629.262889 l
stroke
grestore
1.000 setlinewidth
0 setlinecap
gsave
/o {
gsave
newpath
translate
1.0 setlinewidth
1 setlinejoin
0 setlinecap
0 -3 m
0.795609 -3 1.55874 -2.683901 2.12132 -2.12132 c
2.683901 -1.55874 3 -0.795609 3 0 c
3 0.795609 2.683901 1.55874 2.12132 2.12132 c
1.55874 2.683901 0.795609 3 0 3 c
-0.795609 3 -1.55874 2.683901 -2.12132 2.12132 c
-2.683901 1.55874 -3 0.795609 -3 0 c
-3 -0.795609 -2.683901 -1.55874 -2.12132 -2.12132 c
-1.55874 -2.683901 -0.795609 -3 0 -3 c
cl

gsave
0.000 setgray
fill
grestore
stroke
grestore
} bind def
196.982 629.263 o
grestore
/DejaVuSans findfont
15.000 scalefont
setfont
gsave
223.982057 624.012889 translate
0.000000 rotate
0.000000 0.000000 m /A glyphshow
10.261230 0.000000 m /n glyphshow
19.768066 0.000000 m /d glyphshow
29.289551 0.000000 m /r glyphshow
35.456543 0.000000 m /o glyphshow
44.633789 0.000000 m /i glyphshow
48.801270 0.000000 m /d glyphshow
grestore
0.800 setlinewidth
2 setlinecap
gsave
181.982057 607.247264 m
211.982057 607.247264 l
stroke
grestore
1.000 setlinewidth
0 setlinejoin
0 setlinecap
gsave
/o {
gsave
newpath
translate
1.0 setlinewidth
0 setlinejoin
0 setlinecap
-3 -3 m
3 -3 l
3 3 l
-3 3 l
cl

gsave
0.000 setgray
fill
grestore
stroke
grestore
} bind def
196.982 607.247 o
grestore
gsave
223.982057 601.997264 translate
0.000000 rotate
0.000000 0.000000 m /i glyphshow
4.167480 0.000000 m /O glyphshow
15.974121 0.000000 m /S glyphshow
grestore
0.800 setlinewidth
1 setlinejoin
2 setlinecap
gsave
181.982057 585.231639 m
211.982057 585.231639 l
stroke
grestore
1.000 setlinewidth
0 setlinejoin
0 setlinecap
gsave
/o {
gsave
newpath
translate
1.0 setlinewidth
0 setlinejoin
0 setlinecap
-0 -3 m
3 3 l
-3 3 l
cl

gsave
0.000 setgray
fill
grestore
stroke
grestore
} bind def
196.982 585.232 o
grestore
gsave
223.982057 579.981639 translate
0.000000 rotate
0.000000 0.000000 m /W glyphshow
14.831543 0.000000 m /i glyphshow
18.999023 0.000000 m /n glyphshow
28.505859 0.000000 m /d glyphshow
38.027344 0.000000 m /o glyphshow
47.204590 0.000000 m /w glyphshow
59.472656 0.000000 m /s glyphshow
grestore

end
showpage
