%!PS-Adobe-3.0 EPSF-3.0
%%Title: /home/fernando/Desktop/ts_new/imagenes/RK_orden2.eps
%%Creator: matplotlib version 2.1.1, http://matplotlib.org/
%%CreationDate: Mon Jan 20 14:34:23 2020
%%Orientation: portrait
%%BoundingBox: -161 151 773 640
%%EndComments
%%BeginProlog
/mpldict 8 dict def
mpldict begin
/m { moveto } bind def
/l { lineto } bind def
/r { rlineto } bind def
/c { curveto } bind def
/cl { closepath } bind def
/box {
m
1 index 0 r
0 exch r
neg 0 r
cl
} bind def
/clipbox {
box
clip
newpath
} bind def
%!PS-Adobe-3.0 Resource-Font
%%Title: DejaVu Sans
%%Copyright: Copyright (c) 2003 by Bitstream, Inc. All Rights Reserved. Copyright (c) 2006 by Tavmjong Bah. All Rights Reserved. DejaVu changes are in public domain 
%%Creator: Converted from TrueType to type 3 by PPR
25 dict begin
/_d{bind def}bind def
/_m{moveto}_d
/_l{lineto}_d
/_cl{closepath eofill}_d
/_c{curveto}_d
/_sc{7 -1 roll{setcachedevice}{pop pop pop pop pop pop}ifelse}_d
/_e{exec}_d
/FontName /DejaVuSans def
/PaintType 0 def
/FontMatrix[.001 0 0 .001 0 0]def
/FontBBox[-1021 -463 1793 1232]def
/FontType 3 def
/Encoding [ /parenleft /parenright /period /zero /one /two /three /four /five /equal /Y /h /t ] def
/FontInfo 10 dict dup begin
/FamilyName (DejaVu Sans) def
/FullName (DejaVu Sans) def
/Notice (Copyright (c) 2003 by Bitstream, Inc. All Rights Reserved. Copyright (c) 2006 by Tavmjong Bah. All Rights Reserved. DejaVu changes are in public domain ) def
/Weight (Book) def
/Version (Version 2.35) def
/ItalicAngle 0.0 def
/isFixedPitch false def
/UnderlinePosition -130 def
/UnderlineThickness 90 def
end readonly def
/CharStrings 14 dict dup begin
/.notdef 0 def
/parenleft{390 0 86 -131 310 759 _sc
310 759 _m
266 683 234 609 213 536 _c
191 463 181 389 181 314 _c
181 238 191 164 213 91 _c
234 17 266 -56 310 -131 _c
232 -131 _l
183 -54 146 20 122 94 _c
98 168 86 241 86 314 _c
86 386 98 459 122 533 _c
146 607 182 682 232 759 _c
310 759 _l
_cl}_d
/parenright{390 0 80 -131 304 759 _sc
80 759 _m
158 759 _l
206 682 243 607 267 533 _c
291 459 304 386 304 314 _c
304 241 291 168 267 94 _c
243 20 206 -54 158 -131 _c
80 -131 _l
123 -56 155 17 177 91 _c
198 164 209 238 209 314 _c
209 389 198 463 177 536 _c
155 609 123 683 80 759 _c
_cl}_d
/period{318 0 107 0 210 124 _sc
107 124 _m
210 124 _l
210 0 _l
107 0 _l
107 124 _l
_cl}_d
/zero{636 0 66 -13 570 742 _sc
318 664 _m
267 664 229 639 203 589 _c
177 539 165 464 165 364 _c
165 264 177 189 203 139 _c
229 89 267 64 318 64 _c
369 64 407 89 433 139 _c
458 189 471 264 471 364 _c
471 464 458 539 433 589 _c
407 639 369 664 318 664 _c
318 742 _m
399 742 461 709 505 645 _c
548 580 570 486 570 364 _c
570 241 548 147 505 83 _c
461 19 399 -13 318 -13 _c
236 -13 173 19 130 83 _c
87 147 66 241 66 364 _c
66 486 87 580 130 645 _c
173 709 236 742 318 742 _c
_cl}_d
/one{636 0 110 0 544 729 _sc
124 83 _m
285 83 _l
285 639 _l
110 604 _l
110 694 _l
284 729 _l
383 729 _l
383 83 _l
544 83 _l
544 0 _l
124 0 _l
124 83 _l
_cl}_d
/two{{636 0 73 0 536 742 _sc
192 83 _m
536 83 _l
536 0 _l
73 0 _l
73 83 _l
110 121 161 173 226 239 _c
290 304 331 346 348 365 _c
380 400 402 430 414 455 _c
426 479 433 504 433 528 _c
433 566 419 598 392 622 _c
365 646 330 659 286 659 _c
255 659 222 653 188 643 _c
154 632 117 616 78 594 _c
78 694 _l
118 710 155 722 189 730 _c
223 738 255 742 284 742 _c
}_e{359 742 419 723 464 685 _c
509 647 532 597 532 534 _c
532 504 526 475 515 449 _c
504 422 484 390 454 354 _c
446 344 420 317 376 272 _c
332 227 271 164 192 83 _c
_cl}_e}_d
/three{{636 0 76 -13 556 742 _sc
406 393 _m
453 383 490 362 516 330 _c
542 298 556 258 556 212 _c
556 140 531 84 482 45 _c
432 6 362 -13 271 -13 _c
240 -13 208 -10 176 -4 _c
144 1 110 10 76 22 _c
76 117 _l
103 101 133 89 166 81 _c
198 73 232 69 268 69 _c
330 69 377 81 409 105 _c
441 129 458 165 458 212 _c
458 254 443 288 413 312 _c
383 336 341 349 287 349 _c
}_e{202 349 _l
202 430 _l
291 430 _l
339 430 376 439 402 459 _c
428 478 441 506 441 543 _c
441 580 427 609 401 629 _c
374 649 336 659 287 659 _c
260 659 231 656 200 650 _c
169 644 135 635 98 623 _c
98 711 _l
135 721 170 729 203 734 _c
235 739 266 742 296 742 _c
370 742 429 725 473 691 _c
517 657 539 611 539 553 _c
539 513 527 479 504 451 _c
481 423 448 403 406 393 _c
_cl}_e}_d
/four{636 0 49 0 580 729 _sc
378 643 _m
129 254 _l
378 254 _l
378 643 _l
352 729 _m
476 729 _l
476 254 _l
580 254 _l
580 172 _l
476 172 _l
476 0 _l
378 0 _l
378 172 _l
49 172 _l
49 267 _l
352 729 _l
_cl}_d
/five{{636 0 77 -13 549 729 _sc
108 729 _m
495 729 _l
495 646 _l
198 646 _l
198 467 _l
212 472 227 476 241 478 _c
255 480 270 482 284 482 _c
365 482 429 459 477 415 _c
525 370 549 310 549 234 _c
549 155 524 94 475 51 _c
426 8 357 -13 269 -13 _c
238 -13 207 -10 175 -6 _c
143 -1 111 6 77 17 _c
77 116 _l
106 100 136 88 168 80 _c
199 72 232 69 267 69 _c
}_e{323 69 368 83 401 113 _c
433 143 450 183 450 234 _c
450 284 433 324 401 354 _c
368 384 323 399 267 399 _c
241 399 214 396 188 390 _c
162 384 135 375 108 363 _c
108 729 _l
_cl}_e}_d
/equal{838 0 106 172 732 454 _sc
106 454 _m
732 454 _l
732 372 _l
106 372 _l
106 454 _l
106 255 _m
732 255 _l
732 172 _l
106 172 _l
106 255 _l
_cl}_d
/Y{611 0 -1 0 613 729 _sc
-1 729 _m
104 729 _l
306 429 _l
507 729 _l
613 729 _l
355 347 _l
355 0 _l
256 0 _l
256 347 _l
-1 729 _l
_cl}_d
/h{634 0 91 0 549 760 _sc
549 330 _m
549 0 _l
459 0 _l
459 327 _l
459 379 448 417 428 443 _c
408 469 378 482 338 482 _c
289 482 251 466 223 435 _c
195 404 181 362 181 309 _c
181 0 _l
91 0 _l
91 760 _l
181 760 _l
181 462 _l
202 494 227 519 257 535 _c
286 551 320 560 358 560 _c
420 560 468 540 500 501 _c
532 462 549 405 549 330 _c
_cl}_d
/t{392 0 27 0 368 702 _sc
183 702 _m
183 547 _l
368 547 _l
368 477 _l
183 477 _l
183 180 _l
183 135 189 106 201 94 _c
213 81 238 75 276 75 _c
368 75 _l
368 0 _l
276 0 _l
206 0 158 13 132 39 _c
106 65 93 112 93 180 _c
93 477 _l
27 477 _l
27 547 _l
93 547 _l
93 702 _l
183 702 _l
_cl}_d
end readonly def

/BuildGlyph
 {exch begin
 CharStrings exch
 2 copy known not{pop /.notdef}if
 true 3 1 roll get exec
 end}_d

/BuildChar {
 1 index /Encoding get exch get
 1 index /BuildGlyph get exec
}_d

FontName currentdict end definefont pop
end
%%EndProlog
mpldict begin
-161.64 151.56 translate
935.28 488.88 0 0 clipbox
gsave
0 0 m
935.28 0 l
935.28 488.88 l
0 488.88 l
cl
1.000 setgray
fill
grestore
gsave
51.217714 44.232 m
921.918857 44.232 l
921.918857 484.224 l
51.217714 484.224 l
cl
1.000 setgray
fill
grestore
0.800 setlinewidth
1 setlinejoin
0 setlinecap
[] 0 setdash
0.000 setgray
gsave
/o {
gsave
newpath
translate
0.8 setlinewidth
1 setlinejoin
0 setlinecap
0 0 m
0 -3.5 l

gsave
0.000 setgray
fill
grestore
stroke
grestore
} bind def
90.795 44.232 o
grestore
/DejaVuSans findfont
10.000 scalefont
setfont
gsave
87.615351 29.638250 translate
0.000000 rotate
0.000000 0.000000 m /zero glyphshow
grestore
gsave
/o {
gsave
newpath
translate
0.8 setlinewidth
1 setlinejoin
0 setlinecap
0 0 m
0 -3.5 l

gsave
0.000 setgray
fill
grestore
stroke
grestore
} bind def
249.104 44.232 o
grestore
gsave
245.924650 29.638250 translate
0.000000 rotate
0.000000 0.000000 m /one glyphshow
grestore
gsave
/o {
gsave
newpath
translate
0.8 setlinewidth
1 setlinejoin
0 setlinecap
0 0 m
0 -3.5 l

gsave
0.000 setgray
fill
grestore
stroke
grestore
} bind def
407.414 44.232 o
grestore
gsave
404.233949 29.638250 translate
0.000000 rotate
0.000000 0.000000 m /two glyphshow
grestore
gsave
/o {
gsave
newpath
translate
0.8 setlinewidth
1 setlinejoin
0 setlinecap
0 0 m
0 -3.5 l

gsave
0.000 setgray
fill
grestore
stroke
grestore
} bind def
565.723 44.232 o
grestore
gsave
562.543248 29.638250 translate
0.000000 rotate
0.000000 0.000000 m /three glyphshow
grestore
gsave
/o {
gsave
newpath
translate
0.8 setlinewidth
1 setlinejoin
0 setlinecap
0 0 m
0 -3.5 l

gsave
0.000 setgray
fill
grestore
stroke
grestore
} bind def
724.032 44.232 o
grestore
gsave
720.852546 29.638250 translate
0.000000 rotate
0.000000 0.000000 m /four glyphshow
grestore
gsave
/o {
gsave
newpath
translate
0.8 setlinewidth
1 setlinejoin
0 setlinecap
0 0 m
0 -3.5 l

gsave
0.000 setgray
fill
grestore
stroke
grestore
} bind def
882.342 44.232 o
grestore
gsave
879.161845 29.638250 translate
0.000000 rotate
0.000000 0.000000 m /five glyphshow
grestore
gsave
484.607348 15.966375 translate
0.000000 rotate
0.000000 0.000000 m /t glyphshow
grestore
gsave
/o {
gsave
newpath
translate
0.8 setlinewidth
1 setlinejoin
0 setlinecap
0 0 m
-3.5 0 l

gsave
0.000 setgray
fill
grestore
stroke
grestore
} bind def
51.2177 100.726 o
grestore
gsave
28.311464 96.929425 translate
0.000000 rotate
0.000000 0.000000 m /one glyphshow
6.362305 0.000000 m /period glyphshow
9.541016 0.000000 m /zero glyphshow
grestore
gsave
/o {
gsave
newpath
translate
0.8 setlinewidth
1 setlinejoin
0 setlinecap
0 0 m
-3.5 0 l

gsave
0.000 setgray
fill
grestore
stroke
grestore
} bind def
51.2177 162.025 o
grestore
gsave
28.311464 158.228061 translate
0.000000 rotate
0.000000 0.000000 m /one glyphshow
6.362305 0.000000 m /period glyphshow
9.541016 0.000000 m /five glyphshow
grestore
gsave
/o {
gsave
newpath
translate
0.8 setlinewidth
1 setlinejoin
0 setlinecap
0 0 m
-3.5 0 l

gsave
0.000 setgray
fill
grestore
stroke
grestore
} bind def
51.2177 223.324 o
grestore
gsave
28.311464 219.526696 translate
0.000000 rotate
0.000000 0.000000 m /two glyphshow
6.362305 0.000000 m /period glyphshow
9.541016 0.000000 m /zero glyphshow
grestore
gsave
/o {
gsave
newpath
translate
0.8 setlinewidth
1 setlinejoin
0 setlinecap
0 0 m
-3.5 0 l

gsave
0.000 setgray
fill
grestore
stroke
grestore
} bind def
51.2177 284.622 o
grestore
gsave
28.311464 280.825332 translate
0.000000 rotate
0.000000 0.000000 m /two glyphshow
6.362305 0.000000 m /period glyphshow
9.541016 0.000000 m /five glyphshow
grestore
gsave
/o {
gsave
newpath
translate
0.8 setlinewidth
1 setlinejoin
0 setlinecap
0 0 m
-3.5 0 l

gsave
0.000 setgray
fill
grestore
stroke
grestore
} bind def
51.2177 345.921 o
grestore
gsave
28.311464 342.123968 translate
0.000000 rotate
0.000000 0.000000 m /three glyphshow
6.362305 0.000000 m /period glyphshow
9.541016 0.000000 m /zero glyphshow
grestore
gsave
/o {
gsave
newpath
translate
0.8 setlinewidth
1 setlinejoin
0 setlinecap
0 0 m
-3.5 0 l

gsave
0.000 setgray
fill
grestore
stroke
grestore
} bind def
51.2177 407.219 o
grestore
gsave
28.311464 403.422604 translate
0.000000 rotate
0.000000 0.000000 m /three glyphshow
6.362305 0.000000 m /period glyphshow
9.541016 0.000000 m /five glyphshow
grestore
gsave
/o {
gsave
newpath
translate
0.8 setlinewidth
1 setlinejoin
0 setlinecap
0 0 m
-3.5 0 l

gsave
0.000 setgray
fill
grestore
stroke
grestore
} bind def
51.2177 468.518 o
grestore
gsave
28.311464 464.721239 translate
0.000000 rotate
0.000000 0.000000 m /four glyphshow
6.362305 0.000000 m /period glyphshow
9.541016 0.000000 m /zero glyphshow
grestore
gsave
22.233339 261.173313 translate
90.000000 rotate
0.000000 0.000000 m /Y glyphshow
grestore
1.000 setlinewidth
gsave
870.7 440 51.22 44.23 clipbox
/o {
gsave
newpath
translate
1.0 setlinewidth
1 setlinejoin
0 setlinecap
0 -2.5 m
0.663008 -2.5 1.29895 -2.236584 1.767767 -1.767767 c
2.236584 -1.29895 2.5 -0.663008 2.5 0 c
2.5 0.663008 2.236584 1.29895 1.767767 1.767767 c
1.29895 2.236584 0.663008 2.5 0 2.5 c
-0.663008 2.5 -1.29895 2.236584 -1.767767 1.767767 c
-2.236584 1.29895 -2.5 0.663008 -2.5 0 c
-2.5 -0.663008 -2.236584 -1.29895 -1.767767 -1.767767 c
-1.29895 -2.236584 -0.663008 -2.5 0 -2.5 c
cl

gsave
0.000 setgray
fill
grestore
stroke
grestore
} bind def
90.795 100.726 o
169.95 113.938 o
249.104 145.93 o
328.259 172.8 o
407.414 171.22 o
486.568 139.535 o
565.723 99.2683 o
644.878 70.4677 o
724.032 64.6435 o
803.187 108.517 o
882.342 376.571 o
grestore
0.502 setgray
gsave
870.7 440 51.22 44.23 clipbox
/o {
gsave
newpath
translate
1.0 setlinewidth
1 setlinejoin
0 setlinecap
-5 -5 m
5 5 l
-5 5 m
5 -5 l

gsave
0.502 setgray
fill
grestore
stroke
grestore
} bind def
90.795 100.726 o
106.626 101.565 o
122.457 103.818 o
138.288 107.296 o
154.119 111.837 o
169.95 117.293 o
185.781 123.514 o
201.612 130.341 o
217.442 137.6 o
233.273 145.098 o
249.104 152.623 o
264.935 159.948 o
280.766 166.834 o
296.597 173.043 o
312.428 178.342 o
328.259 182.52 o
344.09 185.399 o
359.921 186.841 o
375.752 186.763 o
391.583 185.135 o
407.414 181.991 o
423.245 177.42 o
439.075 171.563 o
454.906 164.603 o
470.737 156.756 o
486.568 148.254 o
502.399 139.337 o
518.23 130.239 o
534.061 121.179 o
549.892 112.356 o
565.723 103.941 o
581.554 96.0785 o
597.385 88.8879 o
613.216 82.4654 o
629.047 76.8903 o
644.878 72.232 o
660.709 68.5586 o
676.539 65.9473 o
692.37 64.4977 o
708.201 64.3488 o
724.032 65.7017 o
739.863 68.8533 o
755.694 74.2463 o
771.525 82.547 o
787.356 94.7724 o
803.187 112.5 o
819.018 138.229 o
834.849 176.019 o
850.68 232.647 o
866.511 319.801 o
882.342 458.329 o
grestore
0.000 setgray
gsave
870.7 440 51.22 44.23 clipbox
/o {
gsave
newpath
translate
1.0 setlinewidth
1 setlinejoin
0 setlinecap
0 0 m
0 -5 l
0 0 m
4 2.5 l
0 0 m
-4 2.5 l

gsave
0.000 setgray
fill
grestore
stroke
grestore
} bind def
90.795 100.726 o
98.7105 100.965 o
106.626 101.584 o
114.541 102.555 o
122.457 103.855 o
130.372 105.46 o
138.288 107.351 o
146.203 109.507 o
154.119 111.91 o
162.034 114.543 o
169.95 117.385 o
177.865 120.42 o
185.781 123.626 o
193.696 126.985 o
201.612 130.475 o
209.527 134.073 o
217.442 137.755 o
225.358 141.498 o
233.273 145.275 o
241.189 149.059 o
249.104 152.822 o
257.02 156.535 o
264.935 160.168 o
272.851 163.692 o
280.766 167.075 o
288.682 170.288 o
296.597 173.302 o
304.513 176.087 o
312.428 178.617 o
320.344 180.865 o
328.259 182.808 o
336.174 184.425 o
344.09 185.697 o
352.005 186.608 o
359.921 187.146 o
367.836 187.302 o
375.752 187.071 o
383.667 186.45 o
391.583 185.442 o
399.498 184.054 o
407.414 182.294 o
415.329 180.175 o
423.245 177.714 o
431.16 174.93 o
439.075 171.844 o
446.991 168.482 o
454.906 164.869 o
462.822 161.033 o
470.737 157.003 o
478.653 152.808 o
486.568 148.479 o
494.484 144.047 o
502.399 139.539 o
510.315 134.987 o
518.23 130.417 o
526.146 125.858 o
534.061 121.334 o
541.977 116.869 o
549.892 112.486 o
557.807 108.206 o
565.723 104.048 o
573.638 100.029 o
581.554 96.1645 o
589.469 92.4687 o
597.385 88.9544 o
605.3 85.6329 o
613.216 82.5145 o
621.131 79.6086 o
629.047 76.924 o
636.962 74.4691 o
644.878 72.2522 o
652.793 70.2818 o
660.709 68.5668 o
668.624 67.1173 o
676.539 65.9446 o
684.455 65.0618 o
692.37 64.4846 o
700.286 64.2316 o
708.201 64.3253 o
716.117 64.7929 o
724.032 65.6674 o
731.948 66.9893 o
739.863 68.8077 o
747.779 71.183 o
755.694 74.1893 o
763.61 77.9177 o
771.525 82.4808 o
779.44 88.0184 o
787.356 94.7046 o
795.271 102.757 o
803.187 112.452 o
811.102 124.135 o
819.018 138.251 o
826.933 155.371 o
834.849 176.23 o
842.764 201.792 o
850.68 233.322 o
858.595 272.497 o
866.511 321.564 o
874.426 383.561 o
882.342 462.637 o
grestore
0.800 setlinewidth
2 setlinecap
gsave
870.7 440 51.22 44.23 clipbox
90.795039 100.7263 m
106.625969 101.589837 l
122.456899 103.866575 l
138.287829 107.367946 l
154.118758 111.933661 l
169.949688 117.415084 l
185.780618 123.662888 l
201.611548 130.518075 l
217.442478 137.805988 l
233.273408 145.33322 l
249.104338 152.887484 l
264.935268 160.240461 l
280.766197 167.153553 l
296.597127 173.386249 l
312.428057 178.706541 l
328.258987 182.902585 l
344.089917 185.794561 l
359.920847 187.245582 l
375.751777 187.170522 l
391.582706 185.541778 l
407.413636 182.391291 l
423.244566 177.808566 l
439.075496 171.934856 l
454.906426 164.954107 l
470.737356 157.081593 l
486.568286 148.551379 l
502.399216 139.603776 l
518.230145 130.473889 l
534.061075 121.382096 l
549.892005 112.527058 l
565.722935 104.081518 l
581.553865 96.190894 l
597.384795 88.974465 l
613.215725 82.528829 l
629.046655 76.933293 l
644.877584 72.256954 l
660.708514 68.567412 l
676.539444 65.941345 l
692.370374 64.477644 l
708.201304 64.314427 l
724.032234 65.652305 l
739.863164 68.787897 l
755.694094 74.164418 l
771.525023 82.451081 l
787.355953 94.672083 l
803.186883 112.422806 l
819.017813 138.243462 l
834.848743 176.285458 l
850.679673 233.539711 l
866.510603 322.182047 l
882.341532 464.224364 l
stroke
grestore
0 setlinejoin
[] 0 setdash
gsave
51.217714 44.232 m
51.217714 484.224 l
stroke
grestore
gsave
921.918857 44.232 m
921.918857 484.224 l
stroke
grestore
gsave
51.217714 44.232 m
921.918857 44.232 l
stroke
grestore
gsave
51.217714 484.224 m
921.918857 484.224 l
stroke
grestore
1.000 setlinewidth
0 setlinecap
0.800 setgray
gsave
61.717714 384.1615 m
165.202089 384.1615 l
167.202089 384.1615 168.202089 385.1615 168.202089 387.1615 c
168.202089 473.724 l
168.202089 475.724 167.202089 476.724 165.202089 476.724 c
61.717714 476.724 l
59.717714 476.724 58.717714 475.724 58.717714 473.724 c
58.717714 387.1615 l
58.717714 385.1615 59.717714 384.1615 61.717714 384.1615 c
cl
gsave
1.000 setgray
fill
grestore
stroke
grestore
1 setlinejoin
[] 0 setdash
0.000 setgray
gsave
/o {
gsave
newpath
translate
1.0 setlinewidth
1 setlinejoin
0 setlinecap
0 -2.5 m
0.663008 -2.5 1.29895 -2.236584 1.767767 -1.767767 c
2.236584 -1.29895 2.5 -0.663008 2.5 0 c
2.5 0.663008 2.236584 1.29895 1.767767 1.767767 c
1.29895 2.236584 0.663008 2.5 0 2.5 c
-0.663008 2.5 -1.29895 2.236584 -1.767767 1.767767 c
-2.236584 1.29895 -2.5 0.663008 -2.5 0 c
-2.5 -0.663008 -2.236584 -1.29895 -1.767767 -1.767767 c
-1.29895 -2.236584 -0.663008 -2.5 0 -2.5 c
cl

gsave
0.000 setgray
fill
grestore
stroke
grestore
} bind def
79.7177 464.583 o
grestore
/DejaVuSans findfont
15.000 scalefont
setfont
gsave
106.717714 459.333375 translate
0.000000 rotate
0.000000 0.000000 m /h glyphshow
9.506836 0.000000 m /equal glyphshow
22.075195 0.000000 m /zero glyphshow
31.618652 0.000000 m /period glyphshow
36.386719 0.000000 m /five glyphshow
grestore
0.502 setgray
gsave
/o {
gsave
newpath
translate
1.0 setlinewidth
1 setlinejoin
0 setlinecap
-5 -5 m
5 5 l
-5 5 m
5 -5 l

gsave
0.502 setgray
fill
grestore
stroke
grestore
} bind def
79.7177 442.568 o
grestore
0.000 setgray
gsave
106.717714 437.317750 translate
0.000000 rotate
0.000000 0.000000 m /h glyphshow
9.506836 0.000000 m /equal glyphshow
22.075195 0.000000 m /zero glyphshow
31.618652 0.000000 m /period glyphshow
36.386719 0.000000 m /one glyphshow
grestore
gsave
/o {
gsave
newpath
translate
1.0 setlinewidth
1 setlinejoin
0 setlinecap
0 0 m
0 -5 l
0 0 m
4 2.5 l
0 0 m
-4 2.5 l

gsave
0.000 setgray
fill
grestore
stroke
grestore
} bind def
79.7177 420.552 o
grestore
gsave
106.717714 415.302125 translate
0.000000 rotate
0.000000 0.000000 m /h glyphshow
9.506836 0.000000 m /equal glyphshow
22.075195 0.000000 m /zero glyphshow
31.618652 0.000000 m /period glyphshow
36.386719 0.000000 m /zero glyphshow
45.930176 0.000000 m /five glyphshow
grestore
0.800 setlinewidth
2 setlinecap
gsave
64.717714 398.5365 m
94.717714 398.5365 l
stroke
grestore
gsave
106.717714 393.286500 translate
0.000000 rotate
0.000000 0.000000 m /Y glyphshow
9.162598 0.000000 m /parenleft glyphshow
15.014648 0.000000 m /t glyphshow
20.895996 0.000000 m /parenright glyphshow
grestore

end
showpage
