%!PS-Adobe-3.0 EPSF-3.0
%%Title: /home/fernando/Desktop/ts_new/imagenes/Taylor_gray.eps
%%Creator: matplotlib version 2.1.1, http://matplotlib.org/
%%CreationDate: Sat Jan 18 10:49:06 2020
%%Orientation: portrait
%%BoundingBox: -161 151 773 640
%%EndComments
%%BeginProlog
/mpldict 8 dict def
mpldict begin
/m { moveto } bind def
/l { lineto } bind def
/r { rlineto } bind def
/c { curveto } bind def
/cl { closepath } bind def
/box {
m
1 index 0 r
0 exch r
neg 0 r
cl
} bind def
/clipbox {
box
clip
newpath
} bind def
%!PS-Adobe-3.0 Resource-Font
%%Title: DejaVu Sans
%%Copyright: Copyright (c) 2003 by Bitstream, Inc. All Rights Reserved. Copyright (c) 2006 by Tavmjong Bah. All Rights Reserved. DejaVu changes are in public domain 
%%Creator: Converted from TrueType to type 3 by PPR
25 dict begin
/_d{bind def}bind def
/_m{moveto}_d
/_l{lineto}_d
/_cl{closepath eofill}_d
/_c{curveto}_d
/_sc{7 -1 roll{setcachedevice}{pop pop pop pop pop pop}ifelse}_d
/_e{exec}_d
/FontName /DejaVuSans def
/PaintType 0 def
/FontMatrix[.001 0 0 .001 0 0]def
/FontBBox[-1021 -463 1793 1232]def
/FontType 3 def
/Encoding [ /parenleft /parenright /period /zero /one /two /three /four /five /equal /Y /h /t ] def
/FontInfo 10 dict dup begin
/FamilyName (DejaVu Sans) def
/FullName (DejaVu Sans) def
/Notice (Copyright (c) 2003 by Bitstream, Inc. All Rights Reserved. Copyright (c) 2006 by Tavmjong Bah. All Rights Reserved. DejaVu changes are in public domain ) def
/Weight (Book) def
/Version (Version 2.35) def
/ItalicAngle 0.0 def
/isFixedPitch false def
/UnderlinePosition -130 def
/UnderlineThickness 90 def
end readonly def
/CharStrings 14 dict dup begin
/.notdef 0 def
/parenleft{390 0 86 -131 310 759 _sc
310 759 _m
266 683 234 609 213 536 _c
191 463 181 389 181 314 _c
181 238 191 164 213 91 _c
234 17 266 -56 310 -131 _c
232 -131 _l
183 -54 146 20 122 94 _c
98 168 86 241 86 314 _c
86 386 98 459 122 533 _c
146 607 182 682 232 759 _c
310 759 _l
_cl}_d
/parenright{390 0 80 -131 304 759 _sc
80 759 _m
158 759 _l
206 682 243 607 267 533 _c
291 459 304 386 304 314 _c
304 241 291 168 267 94 _c
243 20 206 -54 158 -131 _c
80 -131 _l
123 -56 155 17 177 91 _c
198 164 209 238 209 314 _c
209 389 198 463 177 536 _c
155 609 123 683 80 759 _c
_cl}_d
/period{318 0 107 0 210 124 _sc
107 124 _m
210 124 _l
210 0 _l
107 0 _l
107 124 _l
_cl}_d
/zero{636 0 66 -13 570 742 _sc
318 664 _m
267 664 229 639 203 589 _c
177 539 165 464 165 364 _c
165 264 177 189 203 139 _c
229 89 267 64 318 64 _c
369 64 407 89 433 139 _c
458 189 471 264 471 364 _c
471 464 458 539 433 589 _c
407 639 369 664 318 664 _c
318 742 _m
399 742 461 709 505 645 _c
548 580 570 486 570 364 _c
570 241 548 147 505 83 _c
461 19 399 -13 318 -13 _c
236 -13 173 19 130 83 _c
87 147 66 241 66 364 _c
66 486 87 580 130 645 _c
173 709 236 742 318 742 _c
_cl}_d
/one{636 0 110 0 544 729 _sc
124 83 _m
285 83 _l
285 639 _l
110 604 _l
110 694 _l
284 729 _l
383 729 _l
383 83 _l
544 83 _l
544 0 _l
124 0 _l
124 83 _l
_cl}_d
/two{{636 0 73 0 536 742 _sc
192 83 _m
536 83 _l
536 0 _l
73 0 _l
73 83 _l
110 121 161 173 226 239 _c
290 304 331 346 348 365 _c
380 400 402 430 414 455 _c
426 479 433 504 433 528 _c
433 566 419 598 392 622 _c
365 646 330 659 286 659 _c
255 659 222 653 188 643 _c
154 632 117 616 78 594 _c
78 694 _l
118 710 155 722 189 730 _c
223 738 255 742 284 742 _c
}_e{359 742 419 723 464 685 _c
509 647 532 597 532 534 _c
532 504 526 475 515 449 _c
504 422 484 390 454 354 _c
446 344 420 317 376 272 _c
332 227 271 164 192 83 _c
_cl}_e}_d
/three{{636 0 76 -13 556 742 _sc
406 393 _m
453 383 490 362 516 330 _c
542 298 556 258 556 212 _c
556 140 531 84 482 45 _c
432 6 362 -13 271 -13 _c
240 -13 208 -10 176 -4 _c
144 1 110 10 76 22 _c
76 117 _l
103 101 133 89 166 81 _c
198 73 232 69 268 69 _c
330 69 377 81 409 105 _c
441 129 458 165 458 212 _c
458 254 443 288 413 312 _c
383 336 341 349 287 349 _c
}_e{202 349 _l
202 430 _l
291 430 _l
339 430 376 439 402 459 _c
428 478 441 506 441 543 _c
441 580 427 609 401 629 _c
374 649 336 659 287 659 _c
260 659 231 656 200 650 _c
169 644 135 635 98 623 _c
98 711 _l
135 721 170 729 203 734 _c
235 739 266 742 296 742 _c
370 742 429 725 473 691 _c
517 657 539 611 539 553 _c
539 513 527 479 504 451 _c
481 423 448 403 406 393 _c
_cl}_e}_d
/four{636 0 49 0 580 729 _sc
378 643 _m
129 254 _l
378 254 _l
378 643 _l
352 729 _m
476 729 _l
476 254 _l
580 254 _l
580 172 _l
476 172 _l
476 0 _l
378 0 _l
378 172 _l
49 172 _l
49 267 _l
352 729 _l
_cl}_d
/five{{636 0 77 -13 549 729 _sc
108 729 _m
495 729 _l
495 646 _l
198 646 _l
198 467 _l
212 472 227 476 241 478 _c
255 480 270 482 284 482 _c
365 482 429 459 477 415 _c
525 370 549 310 549 234 _c
549 155 524 94 475 51 _c
426 8 357 -13 269 -13 _c
238 -13 207 -10 175 -6 _c
143 -1 111 6 77 17 _c
77 116 _l
106 100 136 88 168 80 _c
199 72 232 69 267 69 _c
}_e{323 69 368 83 401 113 _c
433 143 450 183 450 234 _c
450 284 433 324 401 354 _c
368 384 323 399 267 399 _c
241 399 214 396 188 390 _c
162 384 135 375 108 363 _c
108 729 _l
_cl}_e}_d
/equal{838 0 106 172 732 454 _sc
106 454 _m
732 454 _l
732 372 _l
106 372 _l
106 454 _l
106 255 _m
732 255 _l
732 172 _l
106 172 _l
106 255 _l
_cl}_d
/Y{611 0 -1 0 613 729 _sc
-1 729 _m
104 729 _l
306 429 _l
507 729 _l
613 729 _l
355 347 _l
355 0 _l
256 0 _l
256 347 _l
-1 729 _l
_cl}_d
/h{634 0 91 0 549 760 _sc
549 330 _m
549 0 _l
459 0 _l
459 327 _l
459 379 448 417 428 443 _c
408 469 378 482 338 482 _c
289 482 251 466 223 435 _c
195 404 181 362 181 309 _c
181 0 _l
91 0 _l
91 760 _l
181 760 _l
181 462 _l
202 494 227 519 257 535 _c
286 551 320 560 358 560 _c
420 560 468 540 500 501 _c
532 462 549 405 549 330 _c
_cl}_d
/t{392 0 27 0 368 702 _sc
183 702 _m
183 547 _l
368 547 _l
368 477 _l
183 477 _l
183 180 _l
183 135 189 106 201 94 _c
213 81 238 75 276 75 _c
368 75 _l
368 0 _l
276 0 _l
206 0 158 13 132 39 _c
106 65 93 112 93 180 _c
93 477 _l
27 477 _l
27 547 _l
93 547 _l
93 702 _l
183 702 _l
_cl}_d
end readonly def

/BuildGlyph
 {exch begin
 CharStrings exch
 2 copy known not{pop /.notdef}if
 true 3 1 roll get exec
 end}_d

/BuildChar {
 1 index /Encoding get exch get
 1 index /BuildGlyph get exec
}_d

FontName currentdict end definefont pop
end
%%EndProlog
mpldict begin
-161.64 151.56 translate
935.28 488.88 0 0 clipbox
gsave
0 0 m
935.28 0 l
935.28 488.88 l
0 488.88 l
cl
1.000 setgray
fill
grestore
gsave
51.217714 34.92 m
915.238286 34.92 l
915.238286 480.732 l
51.217714 480.732 l
cl
1.000 setgray
fill
grestore
0.800 setlinewidth
1 setlinejoin
0 setlinecap
[] 0 setdash
0.000 setgray
gsave
/o {
gsave
newpath
translate
0.8 setlinewidth
1 setlinejoin
0 setlinecap
0 0 m
0 -3.5 l

gsave
0.000 setgray
fill
grestore
stroke
grestore
} bind def
90.4914 34.92 o
grestore
/DejaVuSans findfont
10.000 scalefont
setfont
gsave
87.311689 20.326250 translate
0.000000 rotate
0.000000 0.000000 m /zero glyphshow
grestore
gsave
/o {
gsave
newpath
translate
0.8 setlinewidth
1 setlinejoin
0 setlinecap
0 0 m
0 -3.5 l

gsave
0.000 setgray
fill
grestore
stroke
grestore
} bind def
247.586 34.92 o
grestore
gsave
244.406338 20.326250 translate
0.000000 rotate
0.000000 0.000000 m /one glyphshow
grestore
gsave
/o {
gsave
newpath
translate
0.8 setlinewidth
1 setlinejoin
0 setlinecap
0 0 m
0 -3.5 l

gsave
0.000 setgray
fill
grestore
stroke
grestore
} bind def
404.681 34.92 o
grestore
gsave
401.500988 20.326250 translate
0.000000 rotate
0.000000 0.000000 m /two glyphshow
grestore
gsave
/o {
gsave
newpath
translate
0.8 setlinewidth
1 setlinejoin
0 setlinecap
0 0 m
0 -3.5 l

gsave
0.000 setgray
fill
grestore
stroke
grestore
} bind def
561.775 34.92 o
grestore
gsave
558.595637 20.326250 translate
0.000000 rotate
0.000000 0.000000 m /three glyphshow
grestore
gsave
/o {
gsave
newpath
translate
0.8 setlinewidth
1 setlinejoin
0 setlinecap
0 0 m
0 -3.5 l

gsave
0.000 setgray
fill
grestore
stroke
grestore
} bind def
718.87 34.92 o
grestore
gsave
715.690287 20.326250 translate
0.000000 rotate
0.000000 0.000000 m /four glyphshow
grestore
gsave
/o {
gsave
newpath
translate
0.8 setlinewidth
1 setlinejoin
0 setlinecap
0 0 m
0 -3.5 l

gsave
0.000 setgray
fill
grestore
stroke
grestore
} bind def
875.965 34.92 o
grestore
gsave
872.784936 20.326250 translate
0.000000 rotate
0.000000 0.000000 m /five glyphshow
grestore
gsave
481.267063 6.654375 translate
0.000000 rotate
0.000000 0.000000 m /t glyphshow
grestore
gsave
/o {
gsave
newpath
translate
0.8 setlinewidth
1 setlinejoin
0 setlinecap
0 0 m
-3.5 0 l

gsave
0.000 setgray
fill
grestore
stroke
grestore
} bind def
51.2177 92.5346 o
grestore
gsave
28.311464 88.737683 translate
0.000000 rotate
0.000000 0.000000 m /one glyphshow
6.362305 0.000000 m /period glyphshow
9.541016 0.000000 m /zero glyphshow
grestore
gsave
/o {
gsave
newpath
translate
0.8 setlinewidth
1 setlinejoin
0 setlinecap
0 0 m
-3.5 0 l

gsave
0.000 setgray
fill
grestore
stroke
grestore
} bind def
51.2177 154.581 o
grestore
gsave
28.311464 150.784250 translate
0.000000 rotate
0.000000 0.000000 m /one glyphshow
6.362305 0.000000 m /period glyphshow
9.541016 0.000000 m /five glyphshow
grestore
gsave
/o {
gsave
newpath
translate
0.8 setlinewidth
1 setlinejoin
0 setlinecap
0 0 m
-3.5 0 l

gsave
0.000 setgray
fill
grestore
stroke
grestore
} bind def
51.2177 216.628 o
grestore
gsave
28.311464 212.830817 translate
0.000000 rotate
0.000000 0.000000 m /two glyphshow
6.362305 0.000000 m /period glyphshow
9.541016 0.000000 m /zero glyphshow
grestore
gsave
/o {
gsave
newpath
translate
0.8 setlinewidth
1 setlinejoin
0 setlinecap
0 0 m
-3.5 0 l

gsave
0.000 setgray
fill
grestore
stroke
grestore
} bind def
51.2177 278.674 o
grestore
gsave
28.311464 274.877383 translate
0.000000 rotate
0.000000 0.000000 m /two glyphshow
6.362305 0.000000 m /period glyphshow
9.541016 0.000000 m /five glyphshow
grestore
gsave
/o {
gsave
newpath
translate
0.8 setlinewidth
1 setlinejoin
0 setlinecap
0 0 m
-3.5 0 l

gsave
0.000 setgray
fill
grestore
stroke
grestore
} bind def
51.2177 340.721 o
grestore
gsave
28.311464 336.923950 translate
0.000000 rotate
0.000000 0.000000 m /three glyphshow
6.362305 0.000000 m /period glyphshow
9.541016 0.000000 m /zero glyphshow
grestore
gsave
/o {
gsave
newpath
translate
0.8 setlinewidth
1 setlinejoin
0 setlinecap
0 0 m
-3.5 0 l

gsave
0.000 setgray
fill
grestore
stroke
grestore
} bind def
51.2177 402.767 o
grestore
gsave
28.311464 398.970517 translate
0.000000 rotate
0.000000 0.000000 m /three glyphshow
6.362305 0.000000 m /period glyphshow
9.541016 0.000000 m /five glyphshow
grestore
gsave
/o {
gsave
newpath
translate
0.8 setlinewidth
1 setlinejoin
0 setlinecap
0 0 m
-3.5 0 l

gsave
0.000 setgray
fill
grestore
stroke
grestore
} bind def
51.2177 464.814 o
grestore
gsave
28.311464 461.017084 translate
0.000000 rotate
0.000000 0.000000 m /four glyphshow
6.362305 0.000000 m /period glyphshow
9.541016 0.000000 m /zero glyphshow
grestore
gsave
22.233339 254.771313 translate
90.000000 rotate
0.000000 0.000000 m /Y glyphshow
grestore
1.000 setlinewidth
gsave
864 445.8 51.22 34.92 clipbox
/o {
gsave
newpath
translate
1.0 setlinewidth
1 setlinejoin
0 setlinecap
0 -2.5 m
0.663008 -2.5 1.29895 -2.236584 1.767767 -1.767767 c
2.236584 -1.29895 2.5 -0.663008 2.5 0 c
2.5 0.663008 2.236584 1.29895 1.767767 1.767767 c
1.29895 2.236584 0.663008 2.5 0 2.5 c
-0.663008 2.5 -1.29895 2.236584 -1.767767 1.767767 c
-2.236584 1.29895 -2.5 0.663008 -2.5 0 c
-2.5 -0.663008 -2.236584 -1.29895 -1.767767 -1.767767 c
-1.29895 -2.236584 -0.663008 -2.5 0 -2.5 c
cl

gsave
0.000 setgray
fill
grestore
stroke
grestore
} bind def
90.4914 92.5346 o
169.039 113.778 o
247.586 154.515 o
326.133 191.737 o
404.681 193.382 o
483.228 152.209 o
561.775 99.2576 o
640.323 63.9589 o
718.87 55.1842 o
797.417 88.0963 o
875.965 271.243 o
grestore
0.502 setgray
gsave
864 445.8 51.22 34.92 clipbox
/o {
gsave
newpath
translate
1.0 setlinewidth
1 setlinejoin
0 setlinecap
-5 -5 m
5 5 l
-5 5 m
5 -5 l

gsave
0.502 setgray
fill
grestore
stroke
grestore
} bind def
90.4914 92.5346 o
106.201 93.4513 o
121.91 95.7898 o
137.62 99.3636 o
153.329 104.014 o
169.039 109.593 o
184.748 115.95 o
200.458 122.927 o
216.167 130.347 o
231.877 138.015 o
247.586 145.714 o
263.295 153.213 o
279.005 160.268 o
294.714 166.633 o
310.424 172.07 o
326.133 176.362 o
341.843 179.324 o
357.552 180.815 o
373.262 180.746 o
388.971 179.088 o
404.681 175.876 o
420.39 171.2 o
436.1 165.206 o
451.809 158.083 o
467.519 150.053 o
483.228 141.355 o
498.937 132.236 o
514.647 122.937 o
530.356 113.682 o
546.066 104.674 o
561.775 96.0875 o
577.485 88.0696 o
593.194 80.7403 o
608.904 74.1963 o
624.613 68.5163 o
640.323 63.7687 o
656.032 60.02 o
671.742 57.3456 o
687.451 55.8427 o
703.161 55.6473 o
718.87 56.9565 o
734.579 60.0613 o
750.289 65.3952 o
765.998 73.6096 o
781.708 85.6957 o
797.417 103.186 o
813.127 128.499 o
828.836 165.54 o
844.546 220.801 o
860.255 305.398 o
875.965 439.024 o
grestore
0.000 setgray
gsave
864 445.8 51.22 34.92 clipbox
/o {
gsave
newpath
translate
1.0 setlinewidth
1 setlinejoin
0 setlinecap
0 0 m
0 -5 l
0 0 m
4 2.5 l
0 0 m
-4 2.5 l

gsave
0.000 setgray
fill
grestore
stroke
grestore
} bind def
90.4914 92.5346 o
98.3461 92.7847 o
106.201 93.419 o
114.056 94.4096 o
121.91 95.7318 o
129.765 97.3633 o
137.62 99.2833 o
145.475 101.472 o
153.329 103.912 o
161.184 106.583 o
169.039 109.468 o
176.893 112.547 o
184.748 115.8 o
192.603 119.208 o
200.458 122.749 o
208.312 126.4 o
216.167 130.137 o
224.022 133.935 o
231.877 137.768 o
239.731 141.609 o
247.586 145.428 o
255.441 149.197 o
263.295 152.885 o
271.15 156.462 o
279.005 159.897 o
286.86 163.159 o
294.714 166.22 o
302.569 169.048 o
310.424 171.618 o
318.279 173.902 o
326.133 175.876 o
333.988 177.519 o
341.843 178.812 o
349.698 179.738 o
357.552 180.286 o
365.407 180.445 o
373.262 180.211 o
381.116 179.582 o
388.971 178.56 o
396.826 177.151 o
404.681 175.365 o
412.535 173.215 o
420.39 170.717 o
428.245 167.891 o
436.1 164.759 o
443.954 161.346 o
451.809 157.679 o
459.664 153.785 o
467.519 149.695 o
475.373 145.438 o
483.228 141.045 o
491.083 136.547 o
498.937 131.973 o
506.792 127.354 o
514.647 122.718 o
522.502 118.092 o
530.356 113.502 o
538.211 108.973 o
546.066 104.528 o
553.921 100.187 o
561.775 95.9703 o
569.63 91.8945 o
577.485 87.9758 o
585.34 84.2285 o
593.194 80.6653 o
601.049 77.2977 o
608.904 74.1362 o
616.758 71.1901 o
624.613 68.4683 o
632.468 65.9793 o
640.323 63.7314 o
648.177 61.733 o
656.032 59.9932 o
663.887 58.522 o
671.742 57.3309 o
679.596 56.4329 o
687.451 55.8437 o
695.306 55.5821 o
703.161 55.6706 o
711.015 56.1364 o
718.87 57.0129 o
726.725 58.3404 o
734.579 60.1684 o
742.434 62.5573 o
750.289 65.5815 o
758.144 69.3323 o
765.998 73.9225 o
773.853 79.4921 o
781.708 86.2153 o
789.563 94.3103 o
797.417 104.052 o
805.272 115.787 o
813.127 129.959 o
820.981 147.136 o
828.836 168.053 o
836.691 193.668 o
844.546 225.239 o
852.4 264.433 o
860.255 313.48 o
868.11 375.391 o
875.965 454.272 o
grestore
0.800 setlinewidth
2 setlinecap
gsave
864 445.8 51.22 34.92 clipbox
90.491377 92.534558 m
106.200842 93.408632 l
121.910306 95.713148 l
137.619771 99.257242 l
153.329236 103.878665 l
169.038701 109.426968 l
184.748166 115.751005 l
200.457631 122.689835 l
216.167096 130.066671 l
231.876561 137.685746 l
247.586026 145.332183 l
263.295491 152.774877 l
279.004956 159.772319 l
294.714421 166.081062 l
310.423886 171.466269 l
326.133351 175.713512 l
341.842816 178.640773 l
357.552281 180.109499 l
373.261745 180.033524 l
388.97121 178.384906 l
404.680675 175.195978 l
420.39014 170.557338 l
436.099605 164.61196 l
451.80907 157.546036 l
467.518535 149.577466 l
483.228 140.943171 l
498.937465 131.886395 l
514.64693 122.64511 l
530.356395 113.442384 l
546.06586 104.479302 l
561.775325 95.930714 l
577.48479 87.943813 l
593.194255 80.639334 l
608.903719 74.115052 l
624.613184 68.451242 l
640.322649 63.717845 l
656.032114 59.983285 l
671.741579 57.325177 l
687.451044 55.843616 l
703.160509 55.678408 l
718.869974 57.032609 l
734.579439 60.206461 l
750.288904 65.648583 l
765.998369 74.036355 l
781.707834 86.40647 l
797.417299 104.373778 l
813.126764 130.509483 l
828.836229 169.015646 l
844.545694 226.968482 l
860.255158 316.692381 l
875.964623 460.467818 l
stroke
grestore
0 setlinejoin
[] 0 setdash
gsave
51.217714 34.92 m
51.217714 480.732 l
stroke
grestore
gsave
915.238286 34.92 m
915.238286 480.732 l
stroke
grestore
gsave
51.217714 34.92 m
915.238286 34.92 l
stroke
grestore
gsave
51.217714 480.732 m
915.238286 480.732 l
stroke
grestore
1.000 setlinewidth
0 setlinecap
0.800 setgray
gsave
58.217714 414.0445 m
127.202089 414.0445 l
128.535423 414.0445 129.202089 414.711167 129.202089 416.0445 c
129.202089 473.732 l
129.202089 475.065333 128.535423 475.732 127.202089 475.732 c
58.217714 475.732 l
56.884381 475.732 56.217714 475.065333 56.217714 473.732 c
56.217714 416.0445 l
56.217714 414.711167 56.884381 414.0445 58.217714 414.0445 c
cl
gsave
1.000 setgray
fill
grestore
stroke
grestore
1 setlinejoin
[] 0 setdash
0.000 setgray
gsave
/o {
gsave
newpath
translate
1.0 setlinewidth
1 setlinejoin
0 setlinecap
0 -2.5 m
0.663008 -2.5 1.29895 -2.236584 1.767767 -1.767767 c
2.236584 -1.29895 2.5 -0.663008 2.5 0 c
2.5 0.663008 2.236584 1.29895 1.767767 1.767767 c
1.29895 2.236584 0.663008 2.5 0 2.5 c
-0.663008 2.5 -1.29895 2.236584 -1.767767 1.767767 c
-2.236584 1.29895 -2.5 0.663008 -2.5 0 c
-2.5 -0.663008 -2.236584 -1.29895 -1.767767 -1.767767 c
-1.29895 -2.236584 -0.663008 -2.5 0 -2.5 c
cl

gsave
0.000 setgray
fill
grestore
stroke
grestore
} bind def
70.2177 467.638 o
grestore
gsave
88.217714 464.138250 translate
0.000000 rotate
0.000000 0.000000 m /h glyphshow
6.337891 0.000000 m /equal glyphshow
14.716797 0.000000 m /zero glyphshow
21.079102 0.000000 m /period glyphshow
24.257812 0.000000 m /five glyphshow
grestore
0.502 setgray
gsave
/o {
gsave
newpath
translate
1.0 setlinewidth
1 setlinejoin
0 setlinecap
-5 -5 m
5 5 l
-5 5 m
5 -5 l

gsave
0.502 setgray
fill
grestore
stroke
grestore
} bind def
70.2177 452.966 o
grestore
0.000 setgray
gsave
88.217714 449.466375 translate
0.000000 rotate
0.000000 0.000000 m /h glyphshow
6.337891 0.000000 m /equal glyphshow
14.716797 0.000000 m /zero glyphshow
21.079102 0.000000 m /period glyphshow
24.257812 0.000000 m /one glyphshow
grestore
gsave
/o {
gsave
newpath
translate
1.0 setlinewidth
1 setlinejoin
0 setlinecap
0 0 m
0 -5 l
0 0 m
4 2.5 l
0 0 m
-4 2.5 l

gsave
0.000 setgray
fill
grestore
stroke
grestore
} bind def
70.2177 438.294 o
grestore
gsave
88.217714 434.794500 translate
0.000000 rotate
0.000000 0.000000 m /h glyphshow
6.337891 0.000000 m /equal glyphshow
14.716797 0.000000 m /zero glyphshow
21.079102 0.000000 m /period glyphshow
24.257812 0.000000 m /zero glyphshow
30.620117 0.000000 m /five glyphshow
grestore
0.800 setlinewidth
2 setlinecap
gsave
60.217714 423.622625 m
80.217714 423.622625 l
stroke
grestore
gsave
88.217714 420.122625 translate
0.000000 rotate
0.000000 0.000000 m /Y glyphshow
6.108398 0.000000 m /parenleft glyphshow
10.009766 0.000000 m /t glyphshow
13.930664 0.000000 m /parenright glyphshow
grestore

end
showpage
