%!PS-Adobe-3.0 EPSF-3.0
%%Title: /home/fernando/Desktop/ts_new/imagenes/Taylor_ul.eps
%%Creator: matplotlib version 2.1.1, http://matplotlib.org/
%%CreationDate: Sat Jan 18 11:15:04 2020
%%Orientation: portrait
%%BoundingBox: -161 151 773 640
%%EndComments
%%BeginProlog
/mpldict 8 dict def
mpldict begin
/m { moveto } bind def
/l { lineto } bind def
/r { rlineto } bind def
/c { curveto } bind def
/cl { closepath } bind def
/box {
m
1 index 0 r
0 exch r
neg 0 r
cl
} bind def
/clipbox {
box
clip
newpath
} bind def
%!PS-Adobe-3.0 Resource-Font
%%Title: DejaVu Sans
%%Copyright: Copyright (c) 2003 by Bitstream, Inc. All Rights Reserved. Copyright (c) 2006 by Tavmjong Bah. All Rights Reserved. DejaVu changes are in public domain 
%%Creator: Converted from TrueType to type 3 by PPR
25 dict begin
/_d{bind def}bind def
/_m{moveto}_d
/_l{lineto}_d
/_cl{closepath eofill}_d
/_c{curveto}_d
/_sc{7 -1 roll{setcachedevice}{pop pop pop pop pop pop}ifelse}_d
/_e{exec}_d
/FontName /DejaVuSans def
/PaintType 0 def
/FontMatrix[.001 0 0 .001 0 0]def
/FontBBox[-1021 -463 1793 1232]def
/FontType 3 def
/Encoding [ /parenleft /parenright /period /zero /one /two /three /four /five /equal /Y /h /t ] def
/FontInfo 10 dict dup begin
/FamilyName (DejaVu Sans) def
/FullName (DejaVu Sans) def
/Notice (Copyright (c) 2003 by Bitstream, Inc. All Rights Reserved. Copyright (c) 2006 by Tavmjong Bah. All Rights Reserved. DejaVu changes are in public domain ) def
/Weight (Book) def
/Version (Version 2.35) def
/ItalicAngle 0.0 def
/isFixedPitch false def
/UnderlinePosition -130 def
/UnderlineThickness 90 def
end readonly def
/CharStrings 14 dict dup begin
/.notdef 0 def
/parenleft{390 0 86 -131 310 759 _sc
310 759 _m
266 683 234 609 213 536 _c
191 463 181 389 181 314 _c
181 238 191 164 213 91 _c
234 17 266 -56 310 -131 _c
232 -131 _l
183 -54 146 20 122 94 _c
98 168 86 241 86 314 _c
86 386 98 459 122 533 _c
146 607 182 682 232 759 _c
310 759 _l
_cl}_d
/parenright{390 0 80 -131 304 759 _sc
80 759 _m
158 759 _l
206 682 243 607 267 533 _c
291 459 304 386 304 314 _c
304 241 291 168 267 94 _c
243 20 206 -54 158 -131 _c
80 -131 _l
123 -56 155 17 177 91 _c
198 164 209 238 209 314 _c
209 389 198 463 177 536 _c
155 609 123 683 80 759 _c
_cl}_d
/period{318 0 107 0 210 124 _sc
107 124 _m
210 124 _l
210 0 _l
107 0 _l
107 124 _l
_cl}_d
/zero{636 0 66 -13 570 742 _sc
318 664 _m
267 664 229 639 203 589 _c
177 539 165 464 165 364 _c
165 264 177 189 203 139 _c
229 89 267 64 318 64 _c
369 64 407 89 433 139 _c
458 189 471 264 471 364 _c
471 464 458 539 433 589 _c
407 639 369 664 318 664 _c
318 742 _m
399 742 461 709 505 645 _c
548 580 570 486 570 364 _c
570 241 548 147 505 83 _c
461 19 399 -13 318 -13 _c
236 -13 173 19 130 83 _c
87 147 66 241 66 364 _c
66 486 87 580 130 645 _c
173 709 236 742 318 742 _c
_cl}_d
/one{636 0 110 0 544 729 _sc
124 83 _m
285 83 _l
285 639 _l
110 604 _l
110 694 _l
284 729 _l
383 729 _l
383 83 _l
544 83 _l
544 0 _l
124 0 _l
124 83 _l
_cl}_d
/two{{636 0 73 0 536 742 _sc
192 83 _m
536 83 _l
536 0 _l
73 0 _l
73 83 _l
110 121 161 173 226 239 _c
290 304 331 346 348 365 _c
380 400 402 430 414 455 _c
426 479 433 504 433 528 _c
433 566 419 598 392 622 _c
365 646 330 659 286 659 _c
255 659 222 653 188 643 _c
154 632 117 616 78 594 _c
78 694 _l
118 710 155 722 189 730 _c
223 738 255 742 284 742 _c
}_e{359 742 419 723 464 685 _c
509 647 532 597 532 534 _c
532 504 526 475 515 449 _c
504 422 484 390 454 354 _c
446 344 420 317 376 272 _c
332 227 271 164 192 83 _c
_cl}_e}_d
/three{{636 0 76 -13 556 742 _sc
406 393 _m
453 383 490 362 516 330 _c
542 298 556 258 556 212 _c
556 140 531 84 482 45 _c
432 6 362 -13 271 -13 _c
240 -13 208 -10 176 -4 _c
144 1 110 10 76 22 _c
76 117 _l
103 101 133 89 166 81 _c
198 73 232 69 268 69 _c
330 69 377 81 409 105 _c
441 129 458 165 458 212 _c
458 254 443 288 413 312 _c
383 336 341 349 287 349 _c
}_e{202 349 _l
202 430 _l
291 430 _l
339 430 376 439 402 459 _c
428 478 441 506 441 543 _c
441 580 427 609 401 629 _c
374 649 336 659 287 659 _c
260 659 231 656 200 650 _c
169 644 135 635 98 623 _c
98 711 _l
135 721 170 729 203 734 _c
235 739 266 742 296 742 _c
370 742 429 725 473 691 _c
517 657 539 611 539 553 _c
539 513 527 479 504 451 _c
481 423 448 403 406 393 _c
_cl}_e}_d
/four{636 0 49 0 580 729 _sc
378 643 _m
129 254 _l
378 254 _l
378 643 _l
352 729 _m
476 729 _l
476 254 _l
580 254 _l
580 172 _l
476 172 _l
476 0 _l
378 0 _l
378 172 _l
49 172 _l
49 267 _l
352 729 _l
_cl}_d
/five{{636 0 77 -13 549 729 _sc
108 729 _m
495 729 _l
495 646 _l
198 646 _l
198 467 _l
212 472 227 476 241 478 _c
255 480 270 482 284 482 _c
365 482 429 459 477 415 _c
525 370 549 310 549 234 _c
549 155 524 94 475 51 _c
426 8 357 -13 269 -13 _c
238 -13 207 -10 175 -6 _c
143 -1 111 6 77 17 _c
77 116 _l
106 100 136 88 168 80 _c
199 72 232 69 267 69 _c
}_e{323 69 368 83 401 113 _c
433 143 450 183 450 234 _c
450 284 433 324 401 354 _c
368 384 323 399 267 399 _c
241 399 214 396 188 390 _c
162 384 135 375 108 363 _c
108 729 _l
_cl}_e}_d
/equal{838 0 106 172 732 454 _sc
106 454 _m
732 454 _l
732 372 _l
106 372 _l
106 454 _l
106 255 _m
732 255 _l
732 172 _l
106 172 _l
106 255 _l
_cl}_d
/Y{611 0 -1 0 613 729 _sc
-1 729 _m
104 729 _l
306 429 _l
507 729 _l
613 729 _l
355 347 _l
355 0 _l
256 0 _l
256 347 _l
-1 729 _l
_cl}_d
/h{634 0 91 0 549 760 _sc
549 330 _m
549 0 _l
459 0 _l
459 327 _l
459 379 448 417 428 443 _c
408 469 378 482 338 482 _c
289 482 251 466 223 435 _c
195 404 181 362 181 309 _c
181 0 _l
91 0 _l
91 760 _l
181 760 _l
181 462 _l
202 494 227 519 257 535 _c
286 551 320 560 358 560 _c
420 560 468 540 500 501 _c
532 462 549 405 549 330 _c
_cl}_d
/t{392 0 27 0 368 702 _sc
183 702 _m
183 547 _l
368 547 _l
368 477 _l
183 477 _l
183 180 _l
183 135 189 106 201 94 _c
213 81 238 75 276 75 _c
368 75 _l
368 0 _l
276 0 _l
206 0 158 13 132 39 _c
106 65 93 112 93 180 _c
93 477 _l
27 477 _l
27 547 _l
93 547 _l
93 702 _l
183 702 _l
_cl}_d
end readonly def

/BuildGlyph
 {exch begin
 CharStrings exch
 2 copy known not{pop /.notdef}if
 true 3 1 roll get exec
 end}_d

/BuildChar {
 1 index /Encoding get exch get
 1 index /BuildGlyph get exec
}_d

FontName currentdict end definefont pop
end
%%EndProlog
mpldict begin
-161.64 151.56 translate
935.28 488.88 0 0 clipbox
gsave
0 0 m
935.28 0 l
935.28 488.88 l
0 488.88 l
cl
1.000 setgray
fill
grestore
gsave
53.444571 37.248 m
921.918857 37.248 l
921.918857 469.092 l
53.444571 469.092 l
cl
1.000 setgray
fill
grestore
0.800 setlinewidth
1 setlinejoin
0 setlinecap
[] 0 setdash
0.000 setgray
gsave
/o {
gsave
newpath
translate
0.8 setlinewidth
1 setlinejoin
0 setlinecap
0 0 m
0 -3.5 l

gsave
0.000 setgray
fill
grestore
stroke
grestore
} bind def
92.9207 37.248 o
grestore
/DejaVuSans findfont
10.000 scalefont
setfont
gsave
89.740988 22.654250 translate
0.000000 rotate
0.000000 0.000000 m /zero glyphshow
grestore
gsave
/o {
gsave
newpath
translate
0.8 setlinewidth
1 setlinejoin
0 setlinecap
0 0 m
0 -3.5 l

gsave
0.000 setgray
fill
grestore
stroke
grestore
} bind def
250.825 37.248 o
grestore
gsave
247.645403 22.654250 translate
0.000000 rotate
0.000000 0.000000 m /one glyphshow
grestore
gsave
/o {
gsave
newpath
translate
0.8 setlinewidth
1 setlinejoin
0 setlinecap
0 0 m
0 -3.5 l

gsave
0.000 setgray
fill
grestore
stroke
grestore
} bind def
408.73 37.248 o
grestore
gsave
405.549819 22.654250 translate
0.000000 rotate
0.000000 0.000000 m /two glyphshow
grestore
gsave
/o {
gsave
newpath
translate
0.8 setlinewidth
1 setlinejoin
0 setlinecap
0 0 m
0 -3.5 l

gsave
0.000 setgray
fill
grestore
stroke
grestore
} bind def
566.634 37.248 o
grestore
gsave
563.454235 22.654250 translate
0.000000 rotate
0.000000 0.000000 m /three glyphshow
grestore
gsave
/o {
gsave
newpath
translate
0.8 setlinewidth
1 setlinejoin
0 setlinecap
0 0 m
0 -3.5 l

gsave
0.000 setgray
fill
grestore
stroke
grestore
} bind def
724.538 37.248 o
grestore
gsave
721.358650 22.654250 translate
0.000000 rotate
0.000000 0.000000 m /four glyphshow
grestore
gsave
/o {
gsave
newpath
translate
0.8 setlinewidth
1 setlinejoin
0 setlinecap
0 0 m
0 -3.5 l

gsave
0.000 setgray
fill
grestore
stroke
grestore
} bind def
882.443 37.248 o
grestore
gsave
879.263066 22.654250 translate
0.000000 rotate
0.000000 0.000000 m /five glyphshow
grestore
gsave
485.720777 8.982375 translate
0.000000 rotate
0.000000 0.000000 m /t glyphshow
grestore
gsave
/o {
gsave
newpath
translate
0.8 setlinewidth
1 setlinejoin
0 setlinecap
0 0 m
-3.5 0 l

gsave
0.000 setgray
fill
grestore
stroke
grestore
} bind def
53.4446 93.0574 o
grestore
gsave
30.538321 89.260527 translate
0.000000 rotate
0.000000 0.000000 m /one glyphshow
6.362305 0.000000 m /period glyphshow
9.541016 0.000000 m /zero glyphshow
grestore
gsave
/o {
gsave
newpath
translate
0.8 setlinewidth
1 setlinejoin
0 setlinecap
0 0 m
-3.5 0 l

gsave
0.000 setgray
fill
grestore
stroke
grestore
} bind def
53.4446 153.16 o
grestore
gsave
30.538321 149.363076 translate
0.000000 rotate
0.000000 0.000000 m /one glyphshow
6.362305 0.000000 m /period glyphshow
9.541016 0.000000 m /five glyphshow
grestore
gsave
/o {
gsave
newpath
translate
0.8 setlinewidth
1 setlinejoin
0 setlinecap
0 0 m
-3.5 0 l

gsave
0.000 setgray
fill
grestore
stroke
grestore
} bind def
53.4446 213.263 o
grestore
gsave
30.538321 209.465625 translate
0.000000 rotate
0.000000 0.000000 m /two glyphshow
6.362305 0.000000 m /period glyphshow
9.541016 0.000000 m /zero glyphshow
grestore
gsave
/o {
gsave
newpath
translate
0.8 setlinewidth
1 setlinejoin
0 setlinecap
0 0 m
-3.5 0 l

gsave
0.000 setgray
fill
grestore
stroke
grestore
} bind def
53.4446 273.365 o
grestore
gsave
30.538321 269.568174 translate
0.000000 rotate
0.000000 0.000000 m /two glyphshow
6.362305 0.000000 m /period glyphshow
9.541016 0.000000 m /five glyphshow
grestore
gsave
/o {
gsave
newpath
translate
0.8 setlinewidth
1 setlinejoin
0 setlinecap
0 0 m
-3.5 0 l

gsave
0.000 setgray
fill
grestore
stroke
grestore
} bind def
53.4446 333.468 o
grestore
gsave
30.538321 329.670723 translate
0.000000 rotate
0.000000 0.000000 m /three glyphshow
6.362305 0.000000 m /period glyphshow
9.541016 0.000000 m /zero glyphshow
grestore
gsave
/o {
gsave
newpath
translate
0.8 setlinewidth
1 setlinejoin
0 setlinecap
0 0 m
-3.5 0 l

gsave
0.000 setgray
fill
grestore
stroke
grestore
} bind def
53.4446 393.57 o
grestore
gsave
30.538321 389.773272 translate
0.000000 rotate
0.000000 0.000000 m /three glyphshow
6.362305 0.000000 m /period glyphshow
9.541016 0.000000 m /five glyphshow
grestore
gsave
/o {
gsave
newpath
translate
0.8 setlinewidth
1 setlinejoin
0 setlinecap
0 0 m
-3.5 0 l

gsave
0.000 setgray
fill
grestore
stroke
grestore
} bind def
53.4446 453.673 o
grestore
gsave
30.538321 449.875821 translate
0.000000 rotate
0.000000 0.000000 m /four glyphshow
6.362305 0.000000 m /period glyphshow
9.541016 0.000000 m /zero glyphshow
grestore
gsave
24.460196 250.115312 translate
90.000000 rotate
0.000000 0.000000 m /Y glyphshow
grestore
1.000 setlinewidth
gsave
868.5 431.8 53.44 37.25 clipbox
/o {
gsave
newpath
translate
1.0 setlinewidth
1 setlinejoin
0 setlinecap
0 -2.5 m
0.663008 -2.5 1.29895 -2.236584 1.767767 -1.767767 c
2.236584 -1.29895 2.5 -0.663008 2.5 0 c
2.5 0.663008 2.236584 1.29895 1.767767 1.767767 c
1.29895 2.236584 0.663008 2.5 0 2.5 c
-0.663008 2.5 -1.29895 2.236584 -1.767767 1.767767 c
-2.236584 1.29895 -2.5 0.663008 -2.5 0 c
-2.5 -0.663008 -2.236584 -1.29895 -1.767767 -1.767767 c
-1.29895 -2.236584 -0.663008 -2.5 0 -2.5 c
cl

gsave
0.000 setgray
fill
grestore
stroke
grestore
} bind def
92.9207 93.0574 o
171.873 113.636 o
250.825 153.096 o
329.777 189.152 o
408.73 190.745 o
487.682 150.862 o
566.634 99.5698 o
645.586 65.377 o
724.538 56.8773 o
803.491 88.7582 o
882.443 266.167 o
grestore
0.502 setgray
gsave
868.5 431.8 53.44 37.25 clipbox
/o {
gsave
newpath
translate
1.0 setlinewidth
1 setlinejoin
0 setlinecap
-5 -5 m
5 5 l
-5 5 m
5 -5 l

gsave
0.502 setgray
fill
grestore
stroke
grestore
} bind def
92.9207 93.0574 o
108.711 93.9454 o
124.502 96.2106 o
140.292 99.6725 o
156.082 104.177 o
171.873 109.581 o
187.663 115.739 o
203.454 122.498 o
219.244 129.685 o
235.035 137.113 o
250.825 144.571 o
266.616 151.835 o
282.406 158.669 o
298.196 164.834 o
313.987 170.101 o
329.777 174.259 o
345.568 177.128 o
361.358 178.571 o
377.149 178.505 o
392.939 176.899 o
408.73 173.788 o
424.52 169.258 o
440.31 163.452 o
456.101 156.552 o
471.891 148.774 o
487.682 140.348 o
503.472 131.515 o
519.263 122.507 o
535.053 113.543 o
550.843 104.817 o
566.634 96.499 o
582.424 88.7324 o
598.215 81.6327 o
614.005 75.2937 o
629.796 69.7917 o
645.586 65.1928 o
661.377 61.5616 o
677.167 58.9709 o
692.957 57.5152 o
708.748 57.3259 o
724.538 58.594 o
740.329 61.6016 o
756.119 66.7684 o
771.91 74.7254 o
787.7 86.4329 o
803.491 103.375 o
819.281 127.895 o
835.071 163.776 o
850.862 217.305 o
866.652 299.251 o
882.443 428.691 o
grestore
0.000 setgray
gsave
868.5 431.8 53.44 37.25 clipbox
/o {
gsave
newpath
translate
1.0 setlinewidth
1 setlinejoin
0 setlinecap
0 0 m
0 -5 l
0 0 m
4 2.5 l
0 0 m
-4 2.5 l

gsave
0.000 setgray
fill
grestore
stroke
grestore
} bind def
92.9207 93.0574 o
100.816 93.2997 o
108.711 93.9141 o
116.606 94.8737 o
124.502 96.1545 o
132.397 97.7348 o
140.292 99.5947 o
148.187 101.715 o
156.082 104.078 o
163.978 106.666 o
171.873 109.46 o
179.768 112.443 o
187.663 115.594 o
195.559 118.895 o
203.454 122.325 o
211.349 125.862 o
219.244 129.481 o
227.139 133.161 o
235.035 136.874 o
242.93 140.594 o
250.825 144.294 o
258.72 147.944 o
266.616 151.517 o
274.511 154.982 o
282.406 158.309 o
290.301 161.469 o
298.196 164.434 o
306.092 167.174 o
313.987 169.663 o
321.882 171.875 o
329.777 173.788 o
337.673 175.379 o
345.568 176.631 o
353.463 177.529 o
361.358 178.059 o
369.253 178.213 o
377.149 177.987 o
385.044 177.377 o
392.939 176.387 o
400.834 175.023 o
408.73 173.293 o
416.625 171.21 o
424.52 168.79 o
432.415 166.053 o
440.31 163.019 o
448.206 159.713 o
456.101 156.161 o
463.996 152.389 o
471.891 148.427 o
479.786 144.303 o
487.682 140.048 o
495.577 135.691 o
503.472 131.26 o
511.367 126.786 o
519.263 122.295 o
527.158 117.814 o
535.053 113.368 o
542.948 108.981 o
550.843 104.675 o
558.739 100.47 o
566.634 96.3855 o
574.529 92.4374 o
582.424 88.6415 o
590.32 85.0116 o
598.215 81.56 o
606.11 78.298 o
614.005 75.2354 o
621.9 72.3817 o
629.796 69.7452 o
637.691 67.3342 o
645.586 65.1567 o
653.481 63.2209 o
661.377 61.5356 o
669.272 60.1105 o
677.167 58.9567 o
685.062 58.0868 o
692.957 57.5162 o
700.853 57.2627 o
708.748 57.3484 o
716.643 57.7997 o
724.538 58.6487 o
732.434 59.9346 o
740.329 61.7053 o
748.224 64.0194 o
756.119 66.9488 o
764.014 70.5821 o
771.91 75.0285 o
779.805 80.4236 o
787.7 86.9362 o
795.595 94.7775 o
803.491 104.214 o
811.386 115.581 o
819.281 129.309 o
827.176 145.948 o
835.071 166.21 o
842.967 191.022 o
850.862 221.604 o
858.757 259.57 o
866.652 307.08 o
874.548 367.052 o
882.443 443.461 o
grestore
0.800 setlinewidth
2 setlinecap
gsave
868.5 431.8 53.44 37.25 clipbox
92.920675 93.057402 m
108.711117 93.90409 l
124.501558 96.136402 l
140.292 99.569454 l
156.082442 104.04608 l
171.872883 109.420546 l
187.663325 115.546441 l
203.453766 122.267867 l
219.244208 129.413574 l
235.034649 136.793931 l
250.825091 144.200794 l
266.615532 151.410296 l
282.405974 158.188497 l
298.196416 164.299577 l
313.986857 169.516057 l
329.777299 173.630227 l
345.56774 176.465773 l
361.358182 177.888481 l
377.148623 177.814886 l
392.939065 176.217922 l
408.729506 173.128909 l
424.519948 168.635604 l
440.31039 162.876504 l
456.100831 156.031967 l
471.891273 148.313065 l
487.681714 139.949296 l
503.472156 131.176283 l
519.262597 122.224542 l
535.053039 113.310153 l
550.843481 104.627898 l
566.633922 96.347151 l
582.424364 88.610493 l
598.214805 81.534874 l
614.005247 75.215009 l
629.795688 69.728655 l
645.58613 65.143563 l
661.376571 61.526012 l
677.167013 58.951187 l
692.957455 57.516046 l
708.747896 57.356014 l
724.538338 58.667786 l
740.328779 61.742196 l
756.119221 67.013808 l
771.909662 75.138777 l
787.700104 87.121317 l
803.490545 104.52568 l
819.280987 129.842512 l
835.071429 167.142216 l
850.86187 223.279297 l
866.652312 310.192004 l
882.442753 449.462727 l
stroke
grestore
0 setlinejoin
[] 0 setdash
gsave
53.444571 37.248 m
53.444571 469.092 l
stroke
grestore
gsave
921.918857 37.248 m
921.918857 469.092 l
stroke
grestore
gsave
53.444571 37.248 m
921.918857 37.248 l
stroke
grestore
gsave
53.444571 469.092 m
921.918857 469.092 l
stroke
grestore
1.000 setlinewidth
0 setlinecap
0.800 setgray
gsave
63.944571 369.0295 m
167.428946 369.0295 l
169.428946 369.0295 170.428946 370.0295 170.428946 372.0295 c
170.428946 458.592 l
170.428946 460.592 169.428946 461.592 167.428946 461.592 c
63.944571 461.592 l
61.944571 461.592 60.944571 460.592 60.944571 458.592 c
60.944571 372.0295 l
60.944571 370.0295 61.944571 369.0295 63.944571 369.0295 c
cl
gsave
1.000 setgray
fill
grestore
stroke
grestore
1 setlinejoin
[] 0 setdash
0.000 setgray
gsave
/o {
gsave
newpath
translate
1.0 setlinewidth
1 setlinejoin
0 setlinecap
0 -2.5 m
0.663008 -2.5 1.29895 -2.236584 1.767767 -1.767767 c
2.236584 -1.29895 2.5 -0.663008 2.5 0 c
2.5 0.663008 2.236584 1.29895 1.767767 1.767767 c
1.29895 2.236584 0.663008 2.5 0 2.5 c
-0.663008 2.5 -1.29895 2.236584 -1.767767 1.767767 c
-2.236584 1.29895 -2.5 0.663008 -2.5 0 c
-2.5 -0.663008 -2.236584 -1.29895 -1.767767 -1.767767 c
-1.29895 -2.236584 -0.663008 -2.5 0 -2.5 c
cl

gsave
0.000 setgray
fill
grestore
stroke
grestore
} bind def
81.9446 449.451 o
grestore
/DejaVuSans findfont
15.000 scalefont
setfont
gsave
108.944571 444.201375 translate
0.000000 rotate
0.000000 0.000000 m /h glyphshow
9.506836 0.000000 m /equal glyphshow
22.075195 0.000000 m /zero glyphshow
31.618652 0.000000 m /period glyphshow
36.386719 0.000000 m /five glyphshow
grestore
0.502 setgray
gsave
/o {
gsave
newpath
translate
1.0 setlinewidth
1 setlinejoin
0 setlinecap
-5 -5 m
5 5 l
-5 5 m
5 -5 l

gsave
0.502 setgray
fill
grestore
stroke
grestore
} bind def
81.9446 427.436 o
grestore
0.000 setgray
gsave
108.944571 422.185750 translate
0.000000 rotate
0.000000 0.000000 m /h glyphshow
9.506836 0.000000 m /equal glyphshow
22.075195 0.000000 m /zero glyphshow
31.618652 0.000000 m /period glyphshow
36.386719 0.000000 m /one glyphshow
grestore
gsave
/o {
gsave
newpath
translate
1.0 setlinewidth
1 setlinejoin
0 setlinecap
0 0 m
0 -5 l
0 0 m
4 2.5 l
0 0 m
-4 2.5 l

gsave
0.000 setgray
fill
grestore
stroke
grestore
} bind def
81.9446 405.42 o
grestore
gsave
108.944571 400.170125 translate
0.000000 rotate
0.000000 0.000000 m /h glyphshow
9.506836 0.000000 m /equal glyphshow
22.075195 0.000000 m /zero glyphshow
31.618652 0.000000 m /period glyphshow
36.386719 0.000000 m /zero glyphshow
45.930176 0.000000 m /five glyphshow
grestore
0.800 setlinewidth
2 setlinecap
gsave
66.944571 383.4045 m
96.944571 383.4045 l
stroke
grestore
gsave
108.944571 378.154500 translate
0.000000 rotate
0.000000 0.000000 m /Y glyphshow
9.162598 0.000000 m /parenleft glyphshow
15.014648 0.000000 m /t glyphshow
20.895996 0.000000 m /parenright glyphshow
grestore

end
showpage
