%!PS-Adobe-3.0 EPSF-3.0
%%Title: /home/fernando/Desktop/ts_new/imagenes/Taylor_bn.eps
%%Creator: matplotlib version 2.1.1, http://matplotlib.org/
%%CreationDate: Sat Jan 18 10:22:03 2020
%%Orientation: portrait
%%BoundingBox: -161 151 773 640
%%EndComments
%%BeginProlog
/mpldict 8 dict def
mpldict begin
/m { moveto } bind def
/l { lineto } bind def
/r { rlineto } bind def
/c { curveto } bind def
/cl { closepath } bind def
/box {
m
1 index 0 r
0 exch r
neg 0 r
cl
} bind def
/clipbox {
box
clip
newpath
} bind def
%!PS-Adobe-3.0 Resource-Font
%%Title: DejaVu Sans
%%Copyright: Copyright (c) 2003 by Bitstream, Inc. All Rights Reserved. Copyright (c) 2006 by Tavmjong Bah. All Rights Reserved. DejaVu changes are in public domain 
%%Creator: Converted from TrueType to type 3 by PPR
25 dict begin
/_d{bind def}bind def
/_m{moveto}_d
/_l{lineto}_d
/_cl{closepath eofill}_d
/_c{curveto}_d
/_sc{7 -1 roll{setcachedevice}{pop pop pop pop pop pop}ifelse}_d
/_e{exec}_d
/FontName /DejaVuSans def
/PaintType 0 def
/FontMatrix[.001 0 0 .001 0 0]def
/FontBBox[-1021 -463 1793 1232]def
/FontType 3 def
/Encoding [ /parenleft /parenright /period /zero /one /two /three /four /five /equal /Y /h /t ] def
/FontInfo 10 dict dup begin
/FamilyName (DejaVu Sans) def
/FullName (DejaVu Sans) def
/Notice (Copyright (c) 2003 by Bitstream, Inc. All Rights Reserved. Copyright (c) 2006 by Tavmjong Bah. All Rights Reserved. DejaVu changes are in public domain ) def
/Weight (Book) def
/Version (Version 2.35) def
/ItalicAngle 0.0 def
/isFixedPitch false def
/UnderlinePosition -130 def
/UnderlineThickness 90 def
end readonly def
/CharStrings 14 dict dup begin
/.notdef 0 def
/parenleft{390 0 86 -131 310 759 _sc
310 759 _m
266 683 234 609 213 536 _c
191 463 181 389 181 314 _c
181 238 191 164 213 91 _c
234 17 266 -56 310 -131 _c
232 -131 _l
183 -54 146 20 122 94 _c
98 168 86 241 86 314 _c
86 386 98 459 122 533 _c
146 607 182 682 232 759 _c
310 759 _l
_cl}_d
/parenright{390 0 80 -131 304 759 _sc
80 759 _m
158 759 _l
206 682 243 607 267 533 _c
291 459 304 386 304 314 _c
304 241 291 168 267 94 _c
243 20 206 -54 158 -131 _c
80 -131 _l
123 -56 155 17 177 91 _c
198 164 209 238 209 314 _c
209 389 198 463 177 536 _c
155 609 123 683 80 759 _c
_cl}_d
/period{318 0 107 0 210 124 _sc
107 124 _m
210 124 _l
210 0 _l
107 0 _l
107 124 _l
_cl}_d
/zero{636 0 66 -13 570 742 _sc
318 664 _m
267 664 229 639 203 589 _c
177 539 165 464 165 364 _c
165 264 177 189 203 139 _c
229 89 267 64 318 64 _c
369 64 407 89 433 139 _c
458 189 471 264 471 364 _c
471 464 458 539 433 589 _c
407 639 369 664 318 664 _c
318 742 _m
399 742 461 709 505 645 _c
548 580 570 486 570 364 _c
570 241 548 147 505 83 _c
461 19 399 -13 318 -13 _c
236 -13 173 19 130 83 _c
87 147 66 241 66 364 _c
66 486 87 580 130 645 _c
173 709 236 742 318 742 _c
_cl}_d
/one{636 0 110 0 544 729 _sc
124 83 _m
285 83 _l
285 639 _l
110 604 _l
110 694 _l
284 729 _l
383 729 _l
383 83 _l
544 83 _l
544 0 _l
124 0 _l
124 83 _l
_cl}_d
/two{{636 0 73 0 536 742 _sc
192 83 _m
536 83 _l
536 0 _l
73 0 _l
73 83 _l
110 121 161 173 226 239 _c
290 304 331 346 348 365 _c
380 400 402 430 414 455 _c
426 479 433 504 433 528 _c
433 566 419 598 392 622 _c
365 646 330 659 286 659 _c
255 659 222 653 188 643 _c
154 632 117 616 78 594 _c
78 694 _l
118 710 155 722 189 730 _c
223 738 255 742 284 742 _c
}_e{359 742 419 723 464 685 _c
509 647 532 597 532 534 _c
532 504 526 475 515 449 _c
504 422 484 390 454 354 _c
446 344 420 317 376 272 _c
332 227 271 164 192 83 _c
_cl}_e}_d
/three{{636 0 76 -13 556 742 _sc
406 393 _m
453 383 490 362 516 330 _c
542 298 556 258 556 212 _c
556 140 531 84 482 45 _c
432 6 362 -13 271 -13 _c
240 -13 208 -10 176 -4 _c
144 1 110 10 76 22 _c
76 117 _l
103 101 133 89 166 81 _c
198 73 232 69 268 69 _c
330 69 377 81 409 105 _c
441 129 458 165 458 212 _c
458 254 443 288 413 312 _c
383 336 341 349 287 349 _c
}_e{202 349 _l
202 430 _l
291 430 _l
339 430 376 439 402 459 _c
428 478 441 506 441 543 _c
441 580 427 609 401 629 _c
374 649 336 659 287 659 _c
260 659 231 656 200 650 _c
169 644 135 635 98 623 _c
98 711 _l
135 721 170 729 203 734 _c
235 739 266 742 296 742 _c
370 742 429 725 473 691 _c
517 657 539 611 539 553 _c
539 513 527 479 504 451 _c
481 423 448 403 406 393 _c
_cl}_e}_d
/four{636 0 49 0 580 729 _sc
378 643 _m
129 254 _l
378 254 _l
378 643 _l
352 729 _m
476 729 _l
476 254 _l
580 254 _l
580 172 _l
476 172 _l
476 0 _l
378 0 _l
378 172 _l
49 172 _l
49 267 _l
352 729 _l
_cl}_d
/five{{636 0 77 -13 549 729 _sc
108 729 _m
495 729 _l
495 646 _l
198 646 _l
198 467 _l
212 472 227 476 241 478 _c
255 480 270 482 284 482 _c
365 482 429 459 477 415 _c
525 370 549 310 549 234 _c
549 155 524 94 475 51 _c
426 8 357 -13 269 -13 _c
238 -13 207 -10 175 -6 _c
143 -1 111 6 77 17 _c
77 116 _l
106 100 136 88 168 80 _c
199 72 232 69 267 69 _c
}_e{323 69 368 83 401 113 _c
433 143 450 183 450 234 _c
450 284 433 324 401 354 _c
368 384 323 399 267 399 _c
241 399 214 396 188 390 _c
162 384 135 375 108 363 _c
108 729 _l
_cl}_e}_d
/equal{838 0 106 172 732 454 _sc
106 454 _m
732 454 _l
732 372 _l
106 372 _l
106 454 _l
106 255 _m
732 255 _l
732 172 _l
106 172 _l
106 255 _l
_cl}_d
/Y{611 0 -1 0 613 729 _sc
-1 729 _m
104 729 _l
306 429 _l
507 729 _l
613 729 _l
355 347 _l
355 0 _l
256 0 _l
256 347 _l
-1 729 _l
_cl}_d
/h{634 0 91 0 549 760 _sc
549 330 _m
549 0 _l
459 0 _l
459 327 _l
459 379 448 417 428 443 _c
408 469 378 482 338 482 _c
289 482 251 466 223 435 _c
195 404 181 362 181 309 _c
181 0 _l
91 0 _l
91 760 _l
181 760 _l
181 462 _l
202 494 227 519 257 535 _c
286 551 320 560 358 560 _c
420 560 468 540 500 501 _c
532 462 549 405 549 330 _c
_cl}_d
/t{392 0 27 0 368 702 _sc
183 702 _m
183 547 _l
368 547 _l
368 477 _l
183 477 _l
183 180 _l
183 135 189 106 201 94 _c
213 81 238 75 276 75 _c
368 75 _l
368 0 _l
276 0 _l
206 0 158 13 132 39 _c
106 65 93 112 93 180 _c
93 477 _l
27 477 _l
27 547 _l
93 547 _l
93 702 _l
183 702 _l
_cl}_d
end readonly def

/BuildGlyph
 {exch begin
 CharStrings exch
 2 copy known not{pop /.notdef}if
 true 3 1 roll get exec
 end}_d

/BuildChar {
 1 index /Encoding get exch get
 1 index /BuildGlyph get exec
}_d

FontName currentdict end definefont pop
end
%%EndProlog
mpldict begin
-161.64 151.56 translate
935.28 488.88 0 0 clipbox
gsave
0 0 m
935.28 0 l
935.28 488.88 l
0 488.88 l
cl
1.000 setgray
fill
grestore
gsave
48.990857 36.084 m
917.465143 36.084 l
917.465143 476.076 l
48.990857 476.076 l
cl
1.000 setgray
fill
grestore
0.800 setlinewidth
1 setlinejoin
0 setlinecap
[] 0 setdash
0.000 setgray
gsave
/o {
gsave
newpath
translate
0.8 setlinewidth
1 setlinejoin
0 setlinecap
0 0 m
0 -3.5 l

gsave
0.000 setgray
fill
grestore
stroke
grestore
} bind def
88.467 36.084 o
grestore
/DejaVuSans findfont
10.000 scalefont
setfont
gsave
85.287274 21.490250 translate
0.000000 rotate
0.000000 0.000000 m /zero glyphshow
grestore
gsave
/o {
gsave
newpath
translate
0.8 setlinewidth
1 setlinejoin
0 setlinecap
0 0 m
0 -3.5 l

gsave
0.000 setgray
fill
grestore
stroke
grestore
} bind def
246.371 36.084 o
grestore
gsave
243.191689 21.490250 translate
0.000000 rotate
0.000000 0.000000 m /one glyphshow
grestore
gsave
/o {
gsave
newpath
translate
0.8 setlinewidth
1 setlinejoin
0 setlinecap
0 0 m
0 -3.5 l

gsave
0.000 setgray
fill
grestore
stroke
grestore
} bind def
404.276 36.084 o
grestore
gsave
401.096105 21.490250 translate
0.000000 rotate
0.000000 0.000000 m /two glyphshow
grestore
gsave
/o {
gsave
newpath
translate
0.8 setlinewidth
1 setlinejoin
0 setlinecap
0 0 m
0 -3.5 l

gsave
0.000 setgray
fill
grestore
stroke
grestore
} bind def
562.18 36.084 o
grestore
gsave
559.000520 21.490250 translate
0.000000 rotate
0.000000 0.000000 m /three glyphshow
grestore
gsave
/o {
gsave
newpath
translate
0.8 setlinewidth
1 setlinejoin
0 setlinecap
0 0 m
0 -3.5 l

gsave
0.000 setgray
fill
grestore
stroke
grestore
} bind def
720.085 36.084 o
grestore
gsave
716.904936 21.490250 translate
0.000000 rotate
0.000000 0.000000 m /four glyphshow
grestore
gsave
/o {
gsave
newpath
translate
0.8 setlinewidth
1 setlinejoin
0 setlinecap
0 0 m
0 -3.5 l

gsave
0.000 setgray
fill
grestore
stroke
grestore
} bind def
877.989 36.084 o
grestore
gsave
874.809351 21.490250 translate
0.000000 rotate
0.000000 0.000000 m /five glyphshow
grestore
gsave
481.267063 7.818375 translate
0.000000 rotate
0.000000 0.000000 m /t glyphshow
grestore
gsave
/o {
gsave
newpath
translate
0.8 setlinewidth
1 setlinejoin
0 setlinecap
0 0 m
-3.5 0 l

gsave
0.000 setgray
fill
grestore
stroke
grestore
} bind def
48.9909 92.9464 o
grestore
gsave
26.084607 89.149535 translate
0.000000 rotate
0.000000 0.000000 m /one glyphshow
6.362305 0.000000 m /period glyphshow
9.541016 0.000000 m /zero glyphshow
grestore
gsave
/o {
gsave
newpath
translate
0.8 setlinewidth
1 setlinejoin
0 setlinecap
0 0 m
-3.5 0 l

gsave
0.000 setgray
fill
grestore
stroke
grestore
} bind def
48.9909 154.183 o
grestore
gsave
26.084607 150.386094 translate
0.000000 rotate
0.000000 0.000000 m /one glyphshow
6.362305 0.000000 m /period glyphshow
9.541016 0.000000 m /five glyphshow
grestore
gsave
/o {
gsave
newpath
translate
0.8 setlinewidth
1 setlinejoin
0 setlinecap
0 0 m
-3.5 0 l

gsave
0.000 setgray
fill
grestore
stroke
grestore
} bind def
48.9909 215.42 o
grestore
gsave
26.084607 211.622653 translate
0.000000 rotate
0.000000 0.000000 m /two glyphshow
6.362305 0.000000 m /period glyphshow
9.541016 0.000000 m /zero glyphshow
grestore
gsave
/o {
gsave
newpath
translate
0.8 setlinewidth
1 setlinejoin
0 setlinecap
0 0 m
-3.5 0 l

gsave
0.000 setgray
fill
grestore
stroke
grestore
} bind def
48.9909 276.656 o
grestore
gsave
26.084607 272.859213 translate
0.000000 rotate
0.000000 0.000000 m /two glyphshow
6.362305 0.000000 m /period glyphshow
9.541016 0.000000 m /five glyphshow
grestore
gsave
/o {
gsave
newpath
translate
0.8 setlinewidth
1 setlinejoin
0 setlinecap
0 0 m
-3.5 0 l

gsave
0.000 setgray
fill
grestore
stroke
grestore
} bind def
48.9909 337.893 o
grestore
gsave
26.084607 334.095772 translate
0.000000 rotate
0.000000 0.000000 m /three glyphshow
6.362305 0.000000 m /period glyphshow
9.541016 0.000000 m /zero glyphshow
grestore
gsave
/o {
gsave
newpath
translate
0.8 setlinewidth
1 setlinejoin
0 setlinecap
0 0 m
-3.5 0 l

gsave
0.000 setgray
fill
grestore
stroke
grestore
} bind def
48.9909 399.129 o
grestore
gsave
26.084607 395.332332 translate
0.000000 rotate
0.000000 0.000000 m /three glyphshow
6.362305 0.000000 m /period glyphshow
9.541016 0.000000 m /five glyphshow
grestore
gsave
/o {
gsave
newpath
translate
0.8 setlinewidth
1 setlinejoin
0 setlinecap
0 0 m
-3.5 0 l

gsave
0.000 setgray
fill
grestore
stroke
grestore
} bind def
48.9909 460.366 o
grestore
gsave
26.084607 456.568891 translate
0.000000 rotate
0.000000 0.000000 m /four glyphshow
6.362305 0.000000 m /period glyphshow
9.541016 0.000000 m /zero glyphshow
grestore
gsave
20.006482 253.025312 translate
90.000000 rotate
0.000000 0.000000 m /Y glyphshow
grestore
1.000 setlinewidth
gsave
868.5 440 48.99 36.08 clipbox
/o {
gsave
newpath
translate
1.0 setlinewidth
1 setlinejoin
0 setlinecap
0 -2.5 m
0.663008 -2.5 1.29895 -2.236584 1.767767 -1.767767 c
2.236584 -1.29895 2.5 -0.663008 2.5 0 c
2.5 0.663008 2.236584 1.29895 1.767767 1.767767 c
1.29895 2.236584 0.663008 2.5 0 2.5 c
-0.663008 2.5 -1.29895 2.236584 -1.767767 1.767767 c
-2.236584 1.29895 -2.5 0.663008 -2.5 0 c
-2.5 -0.663008 -2.236584 -1.29895 -1.767767 -1.767767 c
-1.29895 -2.236584 -0.663008 -2.5 0 -2.5 c
cl

gsave
0.000 setgray
fill
grestore
stroke
grestore
} bind def
88.467 92.9464 o
167.419 113.913 o
246.371 154.118 o
325.324 190.854 o
404.276 192.477 o
483.228 151.842 o
562.18 99.5816 o
641.132 64.7438 o
720.085 56.0836 o
799.037 88.5661 o
877.989 269.322 o
grestore
gsave
868.5 440 48.99 36.08 clipbox
/o {
gsave
newpath
translate
1.0 setlinewidth
1 setlinejoin
0 setlinecap
-5 -5 m
5 5 l
-5 5 m
5 -5 l

gsave
0.000 setgray
fill
grestore
stroke
grestore
} bind def
88.467 92.9464 o
104.257 93.8512 o
120.048 96.1591 o
135.838 99.6863 o
151.629 104.276 o
167.419 109.782 o
183.21 116.056 o
199 122.942 o
214.79 130.265 o
230.581 137.833 o
246.371 145.432 o
262.162 152.833 o
277.952 159.796 o
293.743 166.078 o
309.533 171.444 o
325.324 175.68 o
341.114 178.603 o
356.904 180.074 o
372.695 180.006 o
388.485 178.37 o
404.276 175.2 o
420.066 170.585 o
435.857 164.669 o
451.647 157.639 o
467.438 149.714 o
483.228 141.13 o
499.018 132.13 o
514.809 122.952 o
530.599 113.818 o
546.39 104.927 o
562.18 96.453 o
577.971 88.5398 o
593.761 81.3062 o
609.552 74.8475 o
625.342 69.2417 o
641.132 64.5561 o
656.923 60.8563 o
672.713 58.2168 o
688.504 56.7336 o
704.294 56.5407 o
720.085 57.8328 o
735.875 60.8971 o
751.666 66.1613 o
767.456 74.2685 o
783.246 86.1969 o
799.037 103.459 o
814.827 128.441 o
830.618 164.999 o
846.408 219.539 o
862.199 303.031 o
877.989 434.913 o
grestore
gsave
868.5 440 48.99 36.08 clipbox
/o {
gsave
newpath
translate
1.0 setlinewidth
1 setlinejoin
0 setlinecap
0 0 m
0 -5 l
0 0 m
4 2.5 l
0 0 m
-4 2.5 l

gsave
0.000 setgray
fill
grestore
stroke
grestore
} bind def
88.467 92.9464 o
96.3622 93.1933 o
104.257 93.8193 o
112.153 94.797 o
120.048 96.1019 o
127.943 97.7121 o
135.838 99.607 o
143.734 101.768 o
151.629 104.175 o
159.524 106.812 o
167.419 109.659 o
175.314 112.697 o
183.21 115.909 o
191.105 119.272 o
199 122.766 o
206.895 126.369 o
214.79 130.058 o
222.686 133.806 o
230.581 137.589 o
238.476 141.38 o
246.371 145.149 o
254.267 148.869 o
262.162 152.509 o
270.057 156.039 o
277.952 159.429 o
285.847 162.649 o
293.743 165.67 o
301.638 168.461 o
309.533 170.997 o
317.428 173.251 o
325.324 175.2 o
333.219 176.821 o
341.114 178.097 o
349.009 179.011 o
356.904 179.552 o
364.8 179.709 o
372.695 179.478 o
380.59 178.857 o
388.485 177.849 o
396.381 176.458 o
404.276 174.695 o
412.171 172.573 o
420.066 170.108 o
427.961 167.319 o
435.857 164.228 o
443.752 160.86 o
451.647 157.24 o
459.542 153.398 o
467.438 149.361 o
475.333 145.159 o
483.228 140.824 o
491.123 136.384 o
499.018 131.87 o
506.914 127.311 o
514.809 122.735 o
522.704 118.17 o
530.599 113.64 o
538.495 109.171 o
546.39 104.783 o
554.285 100.499 o
562.18 96.3373 o
570.075 92.3147 o
577.971 88.4472 o
585.866 84.7488 o
593.761 81.2321 o
601.656 77.9085 o
609.552 74.7882 o
617.447 71.8806 o
625.342 69.1944 o
633.237 66.7378 o
641.132 64.5192 o
649.028 62.5469 o
656.923 60.8299 o
664.818 59.3779 o
672.713 58.2023 o
680.609 57.316 o
688.504 56.7346 o
696.399 56.4764 o
704.294 56.5637 o
712.189 57.0234 o
720.085 57.8884 o
727.98 59.1986 o
735.875 61.0027 o
743.77 63.3605 o
751.666 66.3452 o
759.561 70.047 o
767.456 74.5773 o
775.351 80.0742 o
783.246 86.7097 o
791.142 94.699 o
799.037 104.313 o
806.932 115.895 o
814.827 129.882 o
822.722 146.835 o
830.618 167.479 o
838.513 192.76 o
846.408 223.918 o
854.303 262.601 o
862.199 311.008 o
870.094 372.11 o
877.989 449.961 o
grestore
0.800 setlinewidth
2 setlinecap
gsave
868.5 440 48.99 36.08 clipbox
88.466961 92.94641 m
104.257403 93.809072 l
120.047844 96.083504 l
135.838286 99.58133 l
151.628727 104.142421 l
167.419169 109.618293 l
183.20961 115.85977 l
199.000052 122.708015 l
214.790494 129.988547 l
230.580935 137.508157 l
246.371377 145.054771 l
262.161818 152.400302 l
277.95226 159.306393 l
293.742701 165.532777 l
309.533143 170.847681 l
325.323584 175.039476 l
341.114026 177.928523 l
356.904468 179.378074 l
372.694909 179.303091 l
388.485351 177.675996 l
404.275792 174.528699 l
420.066234 169.950615 l
435.856675 164.082853 l
451.647117 157.109174 l
467.437558 149.244632 l
483.228 140.723056 l
499.018442 131.784515 l
514.808883 122.663873 l
530.599325 113.581288 l
546.389766 104.735217 l
562.180208 96.29823 l
577.970649 88.415596 l
593.761091 81.206476 l
609.551532 74.767367 l
625.341974 69.177498 l
641.132416 64.505894 l
656.922857 60.820088 l
672.713299 58.196681 l
688.50374 56.734462 l
704.294182 56.57141 l
720.084623 57.907933 l
735.875065 61.040351 l
751.665506 66.411427 l
767.455948 74.689697 l
783.24639 86.898323 l
799.036831 104.63107 l
814.827273 130.425578 l
830.617714 168.42905 l
846.408156 225.625322 l
862.198597 314.177891 l
877.989039 456.076364 l
stroke
grestore
0 setlinejoin
[] 0 setdash
gsave
48.990857 36.084 m
48.990857 476.076 l
stroke
grestore
gsave
917.465143 36.084 m
917.465143 476.076 l
stroke
grestore
gsave
48.990857 36.084 m
917.465143 36.084 l
stroke
grestore
gsave
48.990857 476.076 m
917.465143 476.076 l
stroke
grestore
1.000 setlinewidth
0 setlinecap
0.800 setgray
gsave
55.990857 409.3885 m
124.975232 409.3885 l
126.308565 409.3885 126.975232 410.055167 126.975232 411.3885 c
126.975232 469.076 l
126.975232 470.409333 126.308565 471.076 124.975232 471.076 c
55.990857 471.076 l
54.657524 471.076 53.990857 470.409333 53.990857 469.076 c
53.990857 411.3885 l
53.990857 410.055167 54.657524 409.3885 55.990857 409.3885 c
cl
gsave
1.000 setgray
fill
grestore
stroke
grestore
1 setlinejoin
[] 0 setdash
0.000 setgray
gsave
/o {
gsave
newpath
translate
1.0 setlinewidth
1 setlinejoin
0 setlinecap
0 -2.5 m
0.663008 -2.5 1.29895 -2.236584 1.767767 -1.767767 c
2.236584 -1.29895 2.5 -0.663008 2.5 0 c
2.5 0.663008 2.236584 1.29895 1.767767 1.767767 c
1.29895 2.236584 0.663008 2.5 0 2.5 c
-0.663008 2.5 -1.29895 2.236584 -1.767767 1.767767 c
-2.236584 1.29895 -2.5 0.663008 -2.5 0 c
-2.5 -0.663008 -2.236584 -1.29895 -1.767767 -1.767767 c
-1.29895 -2.236584 -0.663008 -2.5 0 -2.5 c
cl

gsave
0.000 setgray
fill
grestore
stroke
grestore
} bind def
67.9909 462.982 o
grestore
gsave
85.990857 459.482250 translate
0.000000 rotate
0.000000 0.000000 m /h glyphshow
6.337891 0.000000 m /equal glyphshow
14.716797 0.000000 m /zero glyphshow
21.079102 0.000000 m /period glyphshow
24.257812 0.000000 m /five glyphshow
grestore
gsave
/o {
gsave
newpath
translate
1.0 setlinewidth
1 setlinejoin
0 setlinecap
-5 -5 m
5 5 l
-5 5 m
5 -5 l

gsave
0.000 setgray
fill
grestore
stroke
grestore
} bind def
67.9909 448.31 o
grestore
gsave
85.990857 444.810375 translate
0.000000 rotate
0.000000 0.000000 m /h glyphshow
6.337891 0.000000 m /equal glyphshow
14.716797 0.000000 m /zero glyphshow
21.079102 0.000000 m /period glyphshow
24.257812 0.000000 m /one glyphshow
grestore
gsave
/o {
gsave
newpath
translate
1.0 setlinewidth
1 setlinejoin
0 setlinecap
0 0 m
0 -5 l
0 0 m
4 2.5 l
0 0 m
-4 2.5 l

gsave
0.000 setgray
fill
grestore
stroke
grestore
} bind def
67.9909 433.639 o
grestore
gsave
85.990857 430.138500 translate
0.000000 rotate
0.000000 0.000000 m /h glyphshow
6.337891 0.000000 m /equal glyphshow
14.716797 0.000000 m /zero glyphshow
21.079102 0.000000 m /period glyphshow
24.257812 0.000000 m /zero glyphshow
30.620117 0.000000 m /five glyphshow
grestore
0.800 setlinewidth
2 setlinecap
gsave
57.990857 418.966625 m
77.990857 418.966625 l
stroke
grestore
gsave
85.990857 415.466625 translate
0.000000 rotate
0.000000 0.000000 m /Y glyphshow
6.108398 0.000000 m /parenleft glyphshow
10.009766 0.000000 m /t glyphshow
13.930664 0.000000 m /parenright glyphshow
grestore

end
showpage
