%!PS-Adobe-3.0 EPSF-3.0
%%Title: /home/fernando/Desktop/ts_new/imagenes/Taylor.eps
%%Creator: matplotlib version 2.1.1, http://matplotlib.org/
%%CreationDate: Sat Jan 18 01:12:39 2020
%%Orientation: portrait
%%BoundingBox: -161 151 773 640
%%EndComments
%%BeginProlog
/mpldict 8 dict def
mpldict begin
/m { moveto } bind def
/l { lineto } bind def
/r { rlineto } bind def
/c { curveto } bind def
/cl { closepath } bind def
/box {
m
1 index 0 r
0 exch r
neg 0 r
cl
} bind def
/clipbox {
box
clip
newpath
} bind def
%!PS-Adobe-3.0 Resource-Font
%%Title: DejaVu Sans
%%Copyright: Copyright (c) 2003 by Bitstream, Inc. All Rights Reserved. Copyright (c) 2006 by Tavmjong Bah. All Rights Reserved. DejaVu changes are in public domain 
%%Creator: Converted from TrueType to type 3 by PPR
25 dict begin
/_d{bind def}bind def
/_m{moveto}_d
/_l{lineto}_d
/_cl{closepath eofill}_d
/_c{curveto}_d
/_sc{7 -1 roll{setcachedevice}{pop pop pop pop pop pop}ifelse}_d
/_e{exec}_d
/FontName /DejaVuSans def
/PaintType 0 def
/FontMatrix[.001 0 0 .001 0 0]def
/FontBBox[-1021 -463 1793 1232]def
/FontType 3 def
/Encoding [ /parenleft /parenright /period /zero /one /two /three /four /five /equal /Y /h /t ] def
/FontInfo 10 dict dup begin
/FamilyName (DejaVu Sans) def
/FullName (DejaVu Sans) def
/Notice (Copyright (c) 2003 by Bitstream, Inc. All Rights Reserved. Copyright (c) 2006 by Tavmjong Bah. All Rights Reserved. DejaVu changes are in public domain ) def
/Weight (Book) def
/Version (Version 2.35) def
/ItalicAngle 0.0 def
/isFixedPitch false def
/UnderlinePosition -130 def
/UnderlineThickness 90 def
end readonly def
/CharStrings 14 dict dup begin
/.notdef 0 def
/parenleft{390 0 86 -131 310 759 _sc
310 759 _m
266 683 234 609 213 536 _c
191 463 181 389 181 314 _c
181 238 191 164 213 91 _c
234 17 266 -56 310 -131 _c
232 -131 _l
183 -54 146 20 122 94 _c
98 168 86 241 86 314 _c
86 386 98 459 122 533 _c
146 607 182 682 232 759 _c
310 759 _l
_cl}_d
/parenright{390 0 80 -131 304 759 _sc
80 759 _m
158 759 _l
206 682 243 607 267 533 _c
291 459 304 386 304 314 _c
304 241 291 168 267 94 _c
243 20 206 -54 158 -131 _c
80 -131 _l
123 -56 155 17 177 91 _c
198 164 209 238 209 314 _c
209 389 198 463 177 536 _c
155 609 123 683 80 759 _c
_cl}_d
/period{318 0 107 0 210 124 _sc
107 124 _m
210 124 _l
210 0 _l
107 0 _l
107 124 _l
_cl}_d
/zero{636 0 66 -13 570 742 _sc
318 664 _m
267 664 229 639 203 589 _c
177 539 165 464 165 364 _c
165 264 177 189 203 139 _c
229 89 267 64 318 64 _c
369 64 407 89 433 139 _c
458 189 471 264 471 364 _c
471 464 458 539 433 589 _c
407 639 369 664 318 664 _c
318 742 _m
399 742 461 709 505 645 _c
548 580 570 486 570 364 _c
570 241 548 147 505 83 _c
461 19 399 -13 318 -13 _c
236 -13 173 19 130 83 _c
87 147 66 241 66 364 _c
66 486 87 580 130 645 _c
173 709 236 742 318 742 _c
_cl}_d
/one{636 0 110 0 544 729 _sc
124 83 _m
285 83 _l
285 639 _l
110 604 _l
110 694 _l
284 729 _l
383 729 _l
383 83 _l
544 83 _l
544 0 _l
124 0 _l
124 83 _l
_cl}_d
/two{{636 0 73 0 536 742 _sc
192 83 _m
536 83 _l
536 0 _l
73 0 _l
73 83 _l
110 121 161 173 226 239 _c
290 304 331 346 348 365 _c
380 400 402 430 414 455 _c
426 479 433 504 433 528 _c
433 566 419 598 392 622 _c
365 646 330 659 286 659 _c
255 659 222 653 188 643 _c
154 632 117 616 78 594 _c
78 694 _l
118 710 155 722 189 730 _c
223 738 255 742 284 742 _c
}_e{359 742 419 723 464 685 _c
509 647 532 597 532 534 _c
532 504 526 475 515 449 _c
504 422 484 390 454 354 _c
446 344 420 317 376 272 _c
332 227 271 164 192 83 _c
_cl}_e}_d
/three{{636 0 76 -13 556 742 _sc
406 393 _m
453 383 490 362 516 330 _c
542 298 556 258 556 212 _c
556 140 531 84 482 45 _c
432 6 362 -13 271 -13 _c
240 -13 208 -10 176 -4 _c
144 1 110 10 76 22 _c
76 117 _l
103 101 133 89 166 81 _c
198 73 232 69 268 69 _c
330 69 377 81 409 105 _c
441 129 458 165 458 212 _c
458 254 443 288 413 312 _c
383 336 341 349 287 349 _c
}_e{202 349 _l
202 430 _l
291 430 _l
339 430 376 439 402 459 _c
428 478 441 506 441 543 _c
441 580 427 609 401 629 _c
374 649 336 659 287 659 _c
260 659 231 656 200 650 _c
169 644 135 635 98 623 _c
98 711 _l
135 721 170 729 203 734 _c
235 739 266 742 296 742 _c
370 742 429 725 473 691 _c
517 657 539 611 539 553 _c
539 513 527 479 504 451 _c
481 423 448 403 406 393 _c
_cl}_e}_d
/four{636 0 49 0 580 729 _sc
378 643 _m
129 254 _l
378 254 _l
378 643 _l
352 729 _m
476 729 _l
476 254 _l
580 254 _l
580 172 _l
476 172 _l
476 0 _l
378 0 _l
378 172 _l
49 172 _l
49 267 _l
352 729 _l
_cl}_d
/five{{636 0 77 -13 549 729 _sc
108 729 _m
495 729 _l
495 646 _l
198 646 _l
198 467 _l
212 472 227 476 241 478 _c
255 480 270 482 284 482 _c
365 482 429 459 477 415 _c
525 370 549 310 549 234 _c
549 155 524 94 475 51 _c
426 8 357 -13 269 -13 _c
238 -13 207 -10 175 -6 _c
143 -1 111 6 77 17 _c
77 116 _l
106 100 136 88 168 80 _c
199 72 232 69 267 69 _c
}_e{323 69 368 83 401 113 _c
433 143 450 183 450 234 _c
450 284 433 324 401 354 _c
368 384 323 399 267 399 _c
241 399 214 396 188 390 _c
162 384 135 375 108 363 _c
108 729 _l
_cl}_e}_d
/equal{838 0 106 172 732 454 _sc
106 454 _m
732 454 _l
732 372 _l
106 372 _l
106 454 _l
106 255 _m
732 255 _l
732 172 _l
106 172 _l
106 255 _l
_cl}_d
/Y{611 0 -1 0 613 729 _sc
-1 729 _m
104 729 _l
306 429 _l
507 729 _l
613 729 _l
355 347 _l
355 0 _l
256 0 _l
256 347 _l
-1 729 _l
_cl}_d
/h{634 0 91 0 549 760 _sc
549 330 _m
549 0 _l
459 0 _l
459 327 _l
459 379 448 417 428 443 _c
408 469 378 482 338 482 _c
289 482 251 466 223 435 _c
195 404 181 362 181 309 _c
181 0 _l
91 0 _l
91 760 _l
181 760 _l
181 462 _l
202 494 227 519 257 535 _c
286 551 320 560 358 560 _c
420 560 468 540 500 501 _c
532 462 549 405 549 330 _c
_cl}_d
/t{392 0 27 0 368 702 _sc
183 702 _m
183 547 _l
368 547 _l
368 477 _l
183 477 _l
183 180 _l
183 135 189 106 201 94 _c
213 81 238 75 276 75 _c
368 75 _l
368 0 _l
276 0 _l
206 0 158 13 132 39 _c
106 65 93 112 93 180 _c
93 477 _l
27 477 _l
27 547 _l
93 547 _l
93 702 _l
183 702 _l
_cl}_d
end readonly def

/BuildGlyph
 {exch begin
 CharStrings exch
 2 copy known not{pop /.notdef}if
 true 3 1 roll get exec
 end}_d

/BuildChar {
 1 index /Encoding get exch get
 1 index /BuildGlyph get exec
}_d

FontName currentdict end definefont pop
end
%%EndProlog
mpldict begin
-161.64 151.56 translate
935.28 488.88 0 0 clipbox
gsave
0 0 m
935.28 0 l
935.28 488.88 l
0 488.88 l
cl
1.000 setgray
fill
grestore
gsave
116.91 53.7768 m
841.752 53.7768 l
841.752 430.2144 l
116.91 430.2144 l
cl
1.000 setgray
fill
grestore
0.800 setlinewidth
1 setlinejoin
0 setlinecap
[] 0 setdash
0.000 setgray
gsave
/o {
gsave
newpath
translate
0.8 setlinewidth
1 setlinejoin
0 setlinecap
0 0 m
0 -3.5 l

gsave
0.000 setgray
fill
grestore
stroke
grestore
} bind def
149.857 53.7768 o
grestore
/DejaVuSans findfont
10.000 scalefont
setfont
gsave
146.677676 39.183050 translate
0.000000 rotate
0.000000 0.000000 m /zero glyphshow
grestore
gsave
/o {
gsave
newpath
translate
0.8 setlinewidth
1 setlinejoin
0 setlinecap
0 0 m
0 -3.5 l

gsave
0.000 setgray
fill
grestore
stroke
grestore
} bind def
281.647 53.7768 o
grestore
gsave
278.467131 39.183050 translate
0.000000 rotate
0.000000 0.000000 m /one glyphshow
grestore
gsave
/o {
gsave
newpath
translate
0.8 setlinewidth
1 setlinejoin
0 setlinecap
0 0 m
0 -3.5 l

gsave
0.000 setgray
fill
grestore
stroke
grestore
} bind def
413.436 53.7768 o
grestore
gsave
410.256585 39.183050 translate
0.000000 rotate
0.000000 0.000000 m /two glyphshow
grestore
gsave
/o {
gsave
newpath
translate
0.8 setlinewidth
1 setlinejoin
0 setlinecap
0 0 m
0 -3.5 l

gsave
0.000 setgray
fill
grestore
stroke
grestore
} bind def
545.226 53.7768 o
grestore
gsave
542.046040 39.183050 translate
0.000000 rotate
0.000000 0.000000 m /three glyphshow
grestore
gsave
/o {
gsave
newpath
translate
0.8 setlinewidth
1 setlinejoin
0 setlinecap
0 0 m
0 -3.5 l

gsave
0.000 setgray
fill
grestore
stroke
grestore
} bind def
677.015 53.7768 o
grestore
gsave
673.835494 39.183050 translate
0.000000 rotate
0.000000 0.000000 m /four glyphshow
grestore
gsave
/o {
gsave
newpath
translate
0.8 setlinewidth
1 setlinejoin
0 setlinecap
0 0 m
0 -3.5 l

gsave
0.000 setgray
fill
grestore
stroke
grestore
} bind def
808.805 53.7768 o
grestore
gsave
805.624949 39.183050 translate
0.000000 rotate
0.000000 0.000000 m /five glyphshow
grestore
gsave
477.370063 25.511175 translate
0.000000 rotate
0.000000 0.000000 m /t glyphshow
grestore
gsave
/o {
gsave
newpath
translate
0.8 setlinewidth
1 setlinejoin
0 setlinecap
0 0 m
-3.5 0 l

gsave
0.000 setgray
fill
grestore
stroke
grestore
} bind def
116.91 102.426 o
grestore
gsave
94.003750 98.628875 translate
0.000000 rotate
0.000000 0.000000 m /one glyphshow
6.362305 0.000000 m /period glyphshow
9.541016 0.000000 m /zero glyphshow
grestore
gsave
/o {
gsave
newpath
translate
0.8 setlinewidth
1 setlinejoin
0 setlinecap
0 0 m
-3.5 0 l

gsave
0.000 setgray
fill
grestore
stroke
grestore
} bind def
116.91 154.817 o
grestore
gsave
94.003750 151.020154 translate
0.000000 rotate
0.000000 0.000000 m /one glyphshow
6.362305 0.000000 m /period glyphshow
9.541016 0.000000 m /five glyphshow
grestore
gsave
/o {
gsave
newpath
translate
0.8 setlinewidth
1 setlinejoin
0 setlinecap
0 0 m
-3.5 0 l

gsave
0.000 setgray
fill
grestore
stroke
grestore
} bind def
116.91 207.208 o
grestore
gsave
94.003750 203.411433 translate
0.000000 rotate
0.000000 0.000000 m /two glyphshow
6.362305 0.000000 m /period glyphshow
9.541016 0.000000 m /zero glyphshow
grestore
gsave
/o {
gsave
newpath
translate
0.8 setlinewidth
1 setlinejoin
0 setlinecap
0 0 m
-3.5 0 l

gsave
0.000 setgray
fill
grestore
stroke
grestore
} bind def
116.91 259.6 o
grestore
gsave
94.003750 255.802711 translate
0.000000 rotate
0.000000 0.000000 m /two glyphshow
6.362305 0.000000 m /period glyphshow
9.541016 0.000000 m /five glyphshow
grestore
gsave
/o {
gsave
newpath
translate
0.8 setlinewidth
1 setlinejoin
0 setlinecap
0 0 m
-3.5 0 l

gsave
0.000 setgray
fill
grestore
stroke
grestore
} bind def
116.91 311.991 o
grestore
gsave
94.003750 308.193990 translate
0.000000 rotate
0.000000 0.000000 m /three glyphshow
6.362305 0.000000 m /period glyphshow
9.541016 0.000000 m /zero glyphshow
grestore
gsave
/o {
gsave
newpath
translate
0.8 setlinewidth
1 setlinejoin
0 setlinecap
0 0 m
-3.5 0 l

gsave
0.000 setgray
fill
grestore
stroke
grestore
} bind def
116.91 364.382 o
grestore
gsave
94.003750 360.585268 translate
0.000000 rotate
0.000000 0.000000 m /three glyphshow
6.362305 0.000000 m /period glyphshow
9.541016 0.000000 m /five glyphshow
grestore
gsave
/o {
gsave
newpath
translate
0.8 setlinewidth
1 setlinejoin
0 setlinecap
0 0 m
-3.5 0 l

gsave
0.000 setgray
fill
grestore
stroke
grestore
} bind def
116.91 416.773 o
grestore
gsave
94.003750 412.976547 translate
0.000000 rotate
0.000000 0.000000 m /four glyphshow
6.362305 0.000000 m /period glyphshow
9.541016 0.000000 m /zero glyphshow
grestore
gsave
87.925625 238.940913 translate
90.000000 rotate
0.000000 0.000000 m /Y glyphshow
grestore
1.000 setlinewidth
gsave
724.8 376.4 116.9 53.78 clipbox
/o {
gsave
newpath
translate
1.0 setlinewidth
1 setlinejoin
0 setlinecap
0 -1.5 m
0.397805 -1.5 0.77937 -1.341951 1.06066 -1.06066 c
1.341951 -0.77937 1.5 -0.397805 1.5 0 c
1.5 0.397805 1.341951 0.77937 1.06066 1.06066 c
0.77937 1.341951 0.397805 1.5 0 1.5 c
-0.397805 1.5 -0.77937 1.341951 -1.06066 1.06066 c
-1.341951 0.77937 -1.5 0.397805 -1.5 0 c
-1.5 -0.397805 -1.341951 -0.77937 -1.06066 -1.06066 c
-0.77937 -1.341951 -0.397805 -1.5 0 -1.5 c
cl

gsave
0.000 setgray
fill
grestore
stroke
grestore
} bind def
149.857 102.426 o
215.752 120.364 o
281.647 154.761 o
347.542 186.191 o
413.436 187.58 o
479.331 152.814 o
545.226 108.103 o
611.12 78.2968 o
677.015 70.8876 o
742.91 98.6781 o
808.805 253.325 o
grestore
gsave
724.8 376.4 116.9 53.78 clipbox
/o {
gsave
newpath
translate
1.0 setlinewidth
1 setlinejoin
0 setlinecap
-3 -3 m
3 3 l
-3 3 m
3 -3 l

gsave
0.000 setgray
fill
grestore
stroke
grestore
} bind def
149.857 102.426 o
163.036 103.2 o
176.215 105.174 o
189.394 108.192 o
202.573 112.119 o
215.752 116.829 o
228.931 122.198 o
242.11 128.089 o
255.289 134.354 o
268.468 140.829 o
281.647 147.33 o
294.826 153.662 o
308.005 159.619 o
321.184 164.994 o
334.363 169.585 o
347.542 173.209 o
360.72 175.71 o
373.899 176.968 o
387.078 176.91 o
400.257 175.511 o
413.436 172.798 o
426.615 168.85 o
439.794 163.789 o
452.973 157.774 o
466.152 150.993 o
479.331 143.649 o
492.51 135.949 o
505.689 128.097 o
518.868 120.283 o
532.047 112.676 o
545.226 105.426 o
558.405 98.6556 o
571.584 92.4669 o
584.763 86.9412 o
597.942 82.1451 o
611.12 78.1362 o
624.299 74.9709 o
637.478 72.7126 o
650.657 71.4437 o
663.836 71.2786 o
677.015 72.3841 o
690.194 75.0058 o
703.373 79.5096 o
716.552 86.4458 o
729.731 96.6512 o
742.91 111.42 o
756.089 132.793 o
769.268 164.071 o
782.447 210.732 o
795.626 282.165 o
808.805 394.997 o
grestore
gsave
724.8 376.4 116.9 53.78 clipbox
/o {
gsave
newpath
translate
1.0 setlinewidth
1 setlinejoin
0 setlinecap
0 0 m
0 -3 l
0 0 m
2.4 1.5 l
0 0 m
-2.4 1.5 l

gsave
0.000 setgray
fill
grestore
stroke
grestore
} bind def
149.857 102.426 o
156.447 102.637 o
163.036 103.173 o
169.626 104.009 o
176.215 105.125 o
182.805 106.503 o
189.394 108.124 o
195.984 109.973 o
202.573 112.033 o
209.163 114.288 o
215.752 116.724 o
222.342 119.324 o
228.931 122.071 o
235.521 124.949 o
242.11 127.938 o
248.699 131.021 o
255.289 134.177 o
261.878 137.384 o
268.468 140.62 o
275.057 143.863 o
281.647 147.088 o
288.236 150.271 o
294.826 153.385 o
301.415 156.405 o
308.005 159.306 o
314.594 162.06 o
321.184 164.644 o
327.773 167.033 o
334.363 169.203 o
340.952 171.131 o
347.542 172.798 o
354.131 174.186 o
360.72 175.277 o
367.31 176.059 o
373.899 176.521 o
380.489 176.656 o
387.078 176.459 o
393.668 175.927 o
400.257 175.064 o
406.847 173.875 o
413.436 172.367 o
420.026 170.551 o
426.615 168.442 o
433.205 166.056 o
439.794 163.411 o
446.384 160.529 o
452.973 157.433 o
459.563 154.145 o
466.152 150.691 o
472.742 147.097 o
479.331 143.387 o
485.92 139.589 o
492.51 135.727 o
499.099 131.827 o
505.689 127.912 o
512.278 124.006 o
518.868 120.131 o
525.457 116.306 o
532.047 112.553 o
538.636 108.888 o
545.226 105.327 o
551.815 101.885 o
558.405 98.5764 o
564.994 95.4122 o
571.584 92.4035 o
578.173 89.56 o
584.763 86.8904 o
591.352 84.4028 o
597.942 82.1046 o
604.531 80.0029 o
611.12 78.1047 o
617.71 76.4173 o
624.299 74.9483 o
630.889 73.706 o
637.478 72.7002 o
644.068 71.942 o
650.657 71.4445 o
657.247 71.2236 o
663.836 71.2983 o
670.426 71.6917 o
677.015 72.4317 o
683.605 73.5526 o
690.194 75.0962 o
696.784 77.1134 o
703.373 79.667 o
709.963 82.8341 o
716.552 86.71 o
723.141 91.4129 o
729.731 97.0899 o
736.32 103.925 o
742.91 112.151 o
749.499 122.06 o
756.089 134.026 o
762.678 148.53 o
769.268 166.193 o
775.857 187.822 o
782.447 214.48 o
789.036 247.574 o
795.626 288.989 o
802.215 341.266 o
808.805 407.872 o
grestore
0.800 setlinewidth
2 setlinecap
gsave
724.8 376.4 116.9 53.78 clipbox
149.857364 102.42575 m
163.036309 103.163806 l
176.215255 105.109709 l
189.3942 108.102294 l
202.573145 112.00456 l
215.752091 116.689473 l
228.931036 122.029403 l
242.109982 127.888457 l
255.288927 134.117357 l
268.467873 140.550801 l
281.646818 147.007348 l
294.825764 153.291858 l
308.004709 159.200403 l
321.183655 164.52742 l
334.3626 169.074616 l
347.541545 172.66093 l
360.720491 175.13267 l
373.899436 176.372841 l
387.078382 176.308689 l
400.257327 174.916619 l
413.436273 172.223932 l
426.615218 168.307126 l
439.794164 163.28693 l
452.973109 157.32056 l
466.152055 150.592008 l
479.331 143.301326 l
492.509945 135.653907 l
505.688891 127.850692 l
518.867836 120.080035 l
532.046782 112.51173 l
545.225727 105.293419 l
558.404673 98.549388 l
571.583618 92.381585 l
584.762564 86.87257 l
597.941509 82.090126 l
611.120455 78.09331 l
624.2994 74.939898 l
637.478345 72.695427 l
650.657291 71.444417 l
663.836236 71.304918 l
677.015182 72.448387 l
690.194127 75.128344 l
703.373073 79.723599 l
716.552018 86.806119 l
729.730964 97.251277 l
742.909909 112.422627 l
756.088855 134.491261 l
769.2678 167.005343 l
782.446745 215.939931 l
795.625691 291.701573 l
808.804636 413.1036 l
stroke
grestore
0 setlinejoin
[] 0 setdash
gsave
116.91 53.7768 m
116.91 430.2144 l
stroke
grestore
gsave
841.752 53.7768 m
841.752 430.2144 l
stroke
grestore
gsave
116.91 53.7768 m
841.752 53.7768 l
stroke
grestore
gsave
116.91 430.2144 m
841.752 430.2144 l
stroke
grestore
1.000 setlinewidth
0 setlinecap
0.800 setgray
gsave
123.91 363.5269 m
192.894375 363.5269 l
194.227708 363.5269 194.894375 364.193567 194.894375 365.5269 c
194.894375 423.2144 l
194.894375 424.547733 194.227708 425.2144 192.894375 425.2144 c
123.91 425.2144 l
122.576667 425.2144 121.91 424.547733 121.91 423.2144 c
121.91 365.5269 l
121.91 364.193567 122.576667 363.5269 123.91 363.5269 c
cl
gsave
1.000 setgray
fill
grestore
stroke
grestore
1 setlinejoin
[] 0 setdash
0.000 setgray
gsave
/o {
gsave
newpath
translate
1.0 setlinewidth
1 setlinejoin
0 setlinecap
0 -1.5 m
0.397805 -1.5 0.77937 -1.341951 1.06066 -1.06066 c
1.341951 -0.77937 1.5 -0.397805 1.5 0 c
1.5 0.397805 1.341951 0.77937 1.06066 1.06066 c
0.77937 1.341951 0.397805 1.5 0 1.5 c
-0.397805 1.5 -0.77937 1.341951 -1.06066 1.06066 c
-1.341951 0.77937 -1.5 0.397805 -1.5 0 c
-1.5 -0.397805 -1.341951 -0.77937 -1.06066 -1.06066 c
-0.77937 -1.341951 -0.397805 -1.5 0 -1.5 c
cl

gsave
0.000 setgray
fill
grestore
stroke
grestore
} bind def
135.91 417.121 o
grestore
gsave
153.910000 413.620650 translate
0.000000 rotate
0.000000 0.000000 m /h glyphshow
6.337891 0.000000 m /equal glyphshow
14.716797 0.000000 m /zero glyphshow
21.079102 0.000000 m /period glyphshow
24.257812 0.000000 m /five glyphshow
grestore
gsave
/o {
gsave
newpath
translate
1.0 setlinewidth
1 setlinejoin
0 setlinecap
-3 -3 m
3 3 l
-3 3 m
3 -3 l

gsave
0.000 setgray
fill
grestore
stroke
grestore
} bind def
135.91 402.449 o
grestore
gsave
153.910000 398.948775 translate
0.000000 rotate
0.000000 0.000000 m /h glyphshow
6.337891 0.000000 m /equal glyphshow
14.716797 0.000000 m /zero glyphshow
21.079102 0.000000 m /period glyphshow
24.257812 0.000000 m /one glyphshow
grestore
gsave
/o {
gsave
newpath
translate
1.0 setlinewidth
1 setlinejoin
0 setlinecap
0 0 m
0 -3 l
0 0 m
2.4 1.5 l
0 0 m
-2.4 1.5 l

gsave
0.000 setgray
fill
grestore
stroke
grestore
} bind def
135.91 387.777 o
grestore
gsave
153.910000 384.276900 translate
0.000000 rotate
0.000000 0.000000 m /h glyphshow
6.337891 0.000000 m /equal glyphshow
14.716797 0.000000 m /zero glyphshow
21.079102 0.000000 m /period glyphshow
24.257812 0.000000 m /zero glyphshow
30.620117 0.000000 m /five glyphshow
grestore
0.800 setlinewidth
2 setlinecap
gsave
125.91 373.105025 m
145.91 373.105025 l
stroke
grestore
gsave
153.910000 369.605025 translate
0.000000 rotate
0.000000 0.000000 m /Y glyphshow
6.108398 0.000000 m /parenleft glyphshow
10.009766 0.000000 m /t glyphshow
13.930664 0.000000 m /parenright glyphshow
grestore

end
showpage
