# Created by Octave 4.0.0, Mon Jun 18 01:44:07 2018 CDT <fernandod@fernandod-Lenovo-G560e>
# name: M2
# type: matrix
# rows: 51
# columns: 2
 0 1
 0.1 1.00684163733125
 0.2 1.025218575030877
 0.3 1.053584938627131
 0.4 1.090627581324578
 0.5 1.135130574622346
 0.6000000000000001 1.185874425111753
 0.7000000000000001 1.241562729292228
 0.8 1.300773139000798
 0.9 1.36193193090804
 1 1.423312550712711
 1.1 1.483058461152557
 1.2 1.539229643606648
 1.3 1.589870403792506
 1.4 1.63309400963474
 1.5 1.667177522301993
 1.6 1.690658395058749
 1.7 1.702423415917594
 1.8 1.701780666949853
 1.9 1.688506499445666
 2 1.662861993566869
 2.1 1.62557667630568
 2.2 1.577800934311789
 2.3 1.521032022087519
 2.4 1.457021309427941
 2.5 1.38767205273256
 2.6 1.314937341541127
 2.7 1.240727024480008
 2.8 1.166830618572428
 2.9 1.094860844019665
 3 1.026219937442265
 3.1 0.9620886754522635
 3.2 0.9034363859924212
 3.3 0.8510493159782911
 3.4 0.8055746310611195
 3.5 0.7675780498682753
 3.6 0.7376146584076446
 3.7 0.7163148820067587
 3.8 0.7044911605314221
 3.9 0.7032761510165642
 4 0.7143114131635385
 4.100000000000001 0.740018674666609
 4.2 0.7840079504143844
 4.3 0.8517155880746493
 4.4 0.9514353172283865
 4.5 1.096035333970066
 4.600000000000001 1.305902563895413
 4.7 1.614142816828871
 4.800000000000001 2.076053132776443
 4.9 2.786947962989971
 5 3.916888559889574


