\relax 
\providecommand\hyper@newdestlabel[2]{}
\providecommand\HyperFirstAtBeginDocument{\AtBeginDocument}
\HyperFirstAtBeginDocument{\ifx\hyper@anchor\@undefined
\global\let\oldcontentsline\contentsline
\gdef\contentsline#1#2#3#4{\oldcontentsline{#1}{#2}{#3}}
\global\let\oldnewlabel\newlabel
\gdef\newlabel#1#2{\newlabelxx{#1}#2}
\gdef\newlabelxx#1#2#3#4#5#6{\oldnewlabel{#1}{{#2}{#3}}}
\AtEndDocument{\ifx\hyper@anchor\@undefined
\let\contentsline\oldcontentsline
\let\newlabel\oldnewlabel
\fi}
\fi}
\global\let\hyper@last\relax 
\gdef\HyperFirstAtBeginDocument#1{#1}
\providecommand\HyField@AuxAddToFields[1]{}
\providecommand\HyField@AuxAddToCoFields[2]{}
\catcode `"\active 
\catcode `<\active 
\catcode `>\active 
\@nameuse{es@quoting}
\providecommand\pbs@newkey[2]{}
\providecommand\pbs@seq@push@cx[2]{}
\providecommand\pbs@at@end@dvi@check{}
\pbs@at@end@dvi@check
\providecommand\@anim@newkey[2]{}
\pbs@newkey{pbs@last@page}{1}
\babel@aux{spanish}{}
\@writefile{nav}{\headcommand {\slideentry {0}{0}{1}{1/1}{}{0}}}
\@writefile{nav}{\headcommand {\beamer@framepages {1}{1}}}
\pbs@newkey{pbs@last@page}{2}
\@writefile{nav}{\headcommand {\slideentry {0}{0}{2}{2/2}{}{0}}}
\@writefile{nav}{\headcommand {\beamer@framepages {2}{2}}}
\pbs@newkey{pbs@last@page}{3}
\@writefile{nav}{\headcommand {\slideentry {0}{0}{3}{3/3}{}{0}}}
\@writefile{nav}{\headcommand {\beamer@framepages {3}{3}}}
\pbs@newkey{pbs@last@page}{4}
\@writefile{toc}{\beamer@sectionintoc {1}{Introducci\IeC {\'o}n}{4}{0}{1}}
\@writefile{nav}{\headcommand {\beamer@sectionpages {1}{3}}}
\@writefile{nav}{\headcommand {\beamer@subsectionpages {1}{3}}}
\@writefile{nav}{\headcommand {\sectionentry {1}{Introducci\IeC {\'o}n}{4}{Introducci\IeC {\'o}n}{0}}}
\@writefile{nav}{\headcommand {\slideentry {1}{0}{1}{4/4}{}{0}}}
\@writefile{nav}{\headcommand {\beamer@framepages {4}{4}}}
\pbs@newkey{pbs@last@page}{5}
\@writefile{nav}{\headcommand {\slideentry {1}{0}{2}{5/5}{}{0}}}
\@writefile{nav}{\headcommand {\beamer@framepages {5}{5}}}
\pbs@newkey{pbs@last@page}{6}
\@writefile{nav}{\headcommand {\slideentry {1}{0}{3}{6/6}{}{0}}}
\@writefile{nav}{\headcommand {\beamer@framepages {6}{6}}}
\pbs@newkey{pbs@last@page}{7}
\@writefile{nav}{\headcommand {\slideentry {1}{0}{4}{7/7}{}{0}}}
\@writefile{nav}{\headcommand {\beamer@framepages {7}{7}}}
\pbs@newkey{pbs@last@page}{8}
\@writefile{nav}{\headcommand {\slideentry {1}{0}{5}{8/8}{}{0}}}
\@writefile{nav}{\headcommand {\beamer@framepages {8}{8}}}
\pbs@newkey{pbs@last@page}{9}
\@writefile{toc}{\beamer@sectionintoc {2}{Ecuaciones Diferenciales Ordinarias}{9}{0}{2}}
\@writefile{nav}{\headcommand {\beamer@sectionpages {4}{8}}}
\@writefile{nav}{\headcommand {\beamer@subsectionpages {4}{8}}}
\@writefile{nav}{\headcommand {\sectionentry {2}{Ecuaciones Diferenciales Ordinarias}{9}{Ecuaciones Diferenciales Ordinarias}{0}}}
\newlabel{PVI1}{{1a}{9}{Ecuaciones Diferenciales Ordinarias}{Doc-Start}{}}
\@writefile{snm}{\beamer@slide {PVI1}{9}}
\newlabel{PVI2}{{1b}{9}{Ecuaciones Diferenciales Ordinarias}{Doc-Start}{}}
\@writefile{snm}{\beamer@slide {PVI2}{9}}
\newlabel{ExistenciaUnicidad}{{2.1}{9}{Existencia y Unicidad}{Doc-Start}{}}
\@writefile{snm}{\beamer@slide {ExistenciaUnicidad}{9}}
\@writefile{nav}{\headcommand {\slideentry {2}{0}{1}{9/9}{}{0}}}
\@writefile{nav}{\headcommand {\beamer@framepages {9}{9}}}
\pbs@newkey{pbs@last@page}{10}
\newlabel{PVI1}{{4a}{10}{Ecuaciones Diferenciales Ordinarias}{Doc-Start}{}}
\@writefile{snm}{\beamer@slide {PVI1}{10}}
\newlabel{PVI2}{{4b}{10}{Ecuaciones Diferenciales Ordinarias}{Doc-Start}{}}
\@writefile{snm}{\beamer@slide {PVI2}{10}}
\@writefile{nav}{\headcommand {\slideentry {2}{0}{2}{10/10}{}{0}}}
\@writefile{nav}{\headcommand {\beamer@framepages {10}{10}}}
\pbs@newkey{pbs@last@page}{11}
\@writefile{nav}{\headcommand {\slideentry {2}{0}{3}{11/11}{}{0}}}
\@writefile{nav}{\headcommand {\beamer@framepages {11}{11}}}
\pbs@newkey{pbs@last@page}{12}
\providecommand*\caption@xref[2]{\@setref\relax\@undefined{#1}}
\newlabel{tabla:primera}{{1}{12}{Métodos Numéricos de un paso.\relax }{Doc-Start}{}}
\@writefile{snm}{\beamer@slide {tabla:primera}{12}}
\@writefile{nav}{\headcommand {\slideentry {2}{0}{4}{12/12}{}{0}}}
\@writefile{nav}{\headcommand {\beamer@framepages {12}{12}}}
\pbs@newkey{pbs@last@page}{13}
\@writefile{nav}{\headcommand {\slideentry {2}{0}{5}{13/13}{}{0}}}
\@writefile{nav}{\headcommand {\beamer@framepages {13}{13}}}
\pbs@newkey{pbs@last@page}{14}
\@writefile{nav}{\headcommand {\slideentry {2}{0}{6}{14/14}{}{0}}}
\@writefile{nav}{\headcommand {\beamer@framepages {14}{14}}}
\pbs@newkey{pbs@last@page}{15}
\@writefile{nav}{\headcommand {\slideentry {2}{0}{7}{15/15}{}{0}}}
\@writefile{nav}{\headcommand {\beamer@framepages {15}{15}}}
\pbs@newkey{pbs@last@page}{16}
\@writefile{nav}{\headcommand {\slideentry {2}{0}{8}{16/16}{}{0}}}
\@writefile{nav}{\headcommand {\beamer@framepages {16}{16}}}
\pbs@newkey{pbs@last@page}{17}
\@writefile{nav}{\headcommand {\slideentry {2}{0}{9}{17/17}{}{0}}}
\@writefile{nav}{\headcommand {\beamer@framepages {17}{17}}}
\pbs@newkey{pbs@last@page}{18}
\@writefile{nav}{\headcommand {\slideentry {2}{0}{10}{18/18}{}{0}}}
\@writefile{nav}{\headcommand {\beamer@framepages {18}{18}}}
\pbs@newkey{pbs@last@page}{19}
\@writefile{toc}{\beamer@sectionintoc {3}{An\IeC {\'a}lisis del problema y requisitos del prototipo}{19}{0}{3}}
\@writefile{nav}{\headcommand {\beamer@sectionpages {9}{18}}}
\@writefile{nav}{\headcommand {\beamer@subsectionpages {9}{18}}}
\@writefile{nav}{\headcommand {\sectionentry {3}{An\IeC {\'a}lisis del problema y requisitos del prototipo}{19}{An\IeC {\'a}lisis del problema y requisitos del prototipo}{0}}}
\newlabel{f:intro}{{1a}{19}{Subfigure 1a}{Doc-Start}{}}
\@writefile{snm}{\beamer@slide {f:intro}{19}}
\newlabel{sub@f:intro}{{(a)}{a}{Subfigure 1a\relax }{Doc-Start}{}}
\newlabel{f:menu}{{1b}{19}{Subfigure 1b}{Doc-Start}{}}
\@writefile{snm}{\beamer@slide {f:menu}{19}}
\newlabel{sub@f:menu}{{(b)}{b}{Subfigure 1b\relax }{Doc-Start}{}}
\newlabel{f:solver}{{1c}{19}{Subfigure 1c}{Doc-Start}{}}
\@writefile{snm}{\beamer@slide {f:solver}{19}}
\newlabel{sub@f:solver}{{(c)}{c}{Subfigure 1c\relax }{Doc-Start}{}}
\newlabel{AppFinal}{{\caption@xref {AppFinal}{ on input line 700}}{19}{Análisis del problema y requisitos del prototipo}{Doc-Start}{}}
\@writefile{snm}{\beamer@slide {AppFinal}{19}}
\@writefile{nav}{\headcommand {\slideentry {3}{0}{1}{19/19}{}{0}}}
\@writefile{nav}{\headcommand {\beamer@framepages {19}{19}}}
\pbs@newkey{pbs@last@page}{20}
\@writefile{nav}{\headcommand {\slideentry {3}{0}{2}{20/20}{}{0}}}
\@writefile{nav}{\headcommand {\beamer@framepages {20}{20}}}
\pbs@newkey{pbs@last@page}{21}
\@writefile{nav}{\headcommand {\slideentry {3}{0}{3}{21/21}{}{0}}}
\@writefile{nav}{\headcommand {\beamer@framepages {21}{21}}}
\pbs@newkey{pbs@last@page}{22}
\@writefile{nav}{\headcommand {\slideentry {3}{0}{4}{22/22}{}{0}}}
\@writefile{nav}{\headcommand {\beamer@framepages {22}{22}}}
\pbs@newkey{pbs@last@page}{23}
\@writefile{nav}{\headcommand {\slideentry {3}{0}{5}{23/23}{}{0}}}
\@writefile{nav}{\headcommand {\beamer@framepages {23}{23}}}
\pbs@newkey{pbs@last@page}{24}
\@writefile{nav}{\headcommand {\slideentry {3}{0}{6}{24/24}{}{0}}}
\@writefile{nav}{\headcommand {\beamer@framepages {24}{24}}}
\pbs@newkey{pbs@last@page}{25}
\@writefile{nav}{\headcommand {\slideentry {3}{0}{7}{25/25}{}{0}}}
\@writefile{nav}{\headcommand {\beamer@framepages {25}{25}}}
\pbs@newkey{pbs@last@page}{26}
\@writefile{nav}{\headcommand {\slideentry {3}{0}{8}{26/26}{}{0}}}
\@writefile{nav}{\headcommand {\beamer@framepages {26}{26}}}
\pbs@newkey{pbs@last@page}{27}
\@writefile{nav}{\headcommand {\slideentry {3}{0}{9}{27/27}{}{0}}}
\@writefile{nav}{\headcommand {\beamer@framepages {27}{27}}}
\pbs@newkey{pbs@last@page}{28}
\@writefile{nav}{\headcommand {\slideentry {3}{0}{10}{28/28}{}{0}}}
\@writefile{nav}{\headcommand {\beamer@framepages {28}{28}}}
\pbs@newkey{pbs@last@page}{29}
\@writefile{nav}{\headcommand {\slideentry {3}{0}{11}{29/29}{}{0}}}
\@writefile{nav}{\headcommand {\beamer@framepages {29}{29}}}
\pbs@newkey{pbs@last@page}{30}
\@writefile{nav}{\headcommand {\slideentry {3}{0}{12}{30/30}{}{0}}}
\@writefile{nav}{\headcommand {\beamer@framepages {30}{30}}}
\pbs@newkey{pbs@last@page}{31}
\newlabel{ fig7}{{\caption@xref { fig7}{ on input line 3}}{31}{Análisis del problema y requisitos del prototipo}{Doc-Start}{}}
\@writefile{snm}{\beamer@slide { fig7}{31}}
\@writefile{nav}{\headcommand {\slideentry {3}{0}{13}{31/31}{}{0}}}
\@writefile{nav}{\headcommand {\beamer@framepages {31}{31}}}
\pbs@newkey{pbs@last@page}{32}
\@writefile{nav}{\headcommand {\slideentry {3}{0}{14}{32/32}{}{0}}}
\@writefile{nav}{\headcommand {\beamer@framepages {32}{32}}}
\pbs@newkey{pbs@last@page}{33}
\@writefile{nav}{\headcommand {\slideentry {3}{0}{15}{33/33}{}{0}}}
\@writefile{nav}{\headcommand {\beamer@framepages {33}{33}}}
\pbs@newkey{pbs@last@page}{34}
\@writefile{nav}{\headcommand {\slideentry {3}{0}{16}{34/34}{}{0}}}
\@writefile{nav}{\headcommand {\beamer@framepages {34}{34}}}
\pbs@newkey{pbs@last@page}{35}
\@writefile{nav}{\headcommand {\slideentry {3}{0}{17}{35/35}{}{0}}}
\@writefile{nav}{\headcommand {\beamer@framepages {35}{35}}}
\pbs@newkey{pbs@last@page}{36}
\@writefile{nav}{\headcommand {\slideentry {3}{0}{18}{36/36}{}{0}}}
\@writefile{nav}{\headcommand {\beamer@framepages {36}{36}}}
\pbs@newkey{pbs@last@page}{37}
\@writefile{nav}{\headcommand {\slideentry {3}{0}{19}{37/37}{}{0}}}
\@writefile{nav}{\headcommand {\beamer@framepages {37}{37}}}
\pbs@newkey{pbs@last@page}{38}
\@writefile{nav}{\headcommand {\slideentry {3}{0}{20}{38/38}{}{0}}}
\@writefile{nav}{\headcommand {\beamer@framepages {38}{38}}}
\pbs@newkey{pbs@last@page}{39}
\@writefile{nav}{\headcommand {\slideentry {3}{0}{21}{39/39}{}{0}}}
\@writefile{nav}{\headcommand {\beamer@framepages {39}{39}}}
\pbs@newkey{pbs@last@page}{40}
\@writefile{nav}{\headcommand {\slideentry {3}{0}{22}{40/40}{}{0}}}
\@writefile{nav}{\headcommand {\beamer@framepages {40}{40}}}
\pbs@newkey{pbs@last@page}{41}
\@writefile{nav}{\headcommand {\slideentry {3}{0}{23}{41/41}{}{0}}}
\@writefile{nav}{\headcommand {\beamer@framepages {41}{41}}}
\pbs@newkey{pbs@last@page}{42}
\@writefile{nav}{\headcommand {\slideentry {3}{0}{24}{42/42}{}{0}}}
\@writefile{nav}{\headcommand {\beamer@framepages {42}{42}}}
\pbs@newkey{pbs@last@page}{43}
\@writefile{nav}{\headcommand {\slideentry {3}{0}{25}{43/43}{}{0}}}
\@writefile{nav}{\headcommand {\beamer@framepages {43}{43}}}
\pbs@newkey{pbs@last@page}{44}
\@writefile{nav}{\headcommand {\slideentry {3}{0}{26}{44/44}{}{0}}}
\@writefile{nav}{\headcommand {\beamer@framepages {44}{44}}}
\pbs@newkey{pbs@last@page}{45}
\@writefile{nav}{\headcommand {\slideentry {3}{0}{27}{45/45}{}{0}}}
\@writefile{nav}{\headcommand {\beamer@framepages {45}{45}}}
\@writefile{nav}{\headcommand {\beamer@partpages {1}{45}}}
\@writefile{nav}{\headcommand {\beamer@subsectionpages {19}{45}}}
\@writefile{nav}{\headcommand {\beamer@sectionpages {19}{45}}}
\@writefile{nav}{\headcommand {\beamer@documentpages {45}}}
\@writefile{nav}{\headcommand {\gdef \inserttotalframenumber {45}}}
