\babel@toc {spanish}{}
\beamer@sectionintoc {1}{Introducci\IeC {\'o}n}{4}{0}{1}
\beamer@sectionintoc {2}{Ecuaciones Diferenciales Ordinarias}{9}{0}{2}
\beamer@sectionintoc {3}{An\IeC {\'a}lisis del problema y requisitos del prototipo}{19}{0}{3}
