\relax 
\providecommand\hyper@newdestlabel[2]{}
\providecommand\HyperFirstAtBeginDocument{\AtBeginDocument}
\HyperFirstAtBeginDocument{\ifx\hyper@anchor\@undefined
\global\let\oldcontentsline\contentsline
\gdef\contentsline#1#2#3#4{\oldcontentsline{#1}{#2}{#3}}
\global\let\oldnewlabel\newlabel
\gdef\newlabel#1#2{\newlabelxx{#1}#2}
\gdef\newlabelxx#1#2#3#4#5#6{\oldnewlabel{#1}{{#2}{#3}}}
\AtEndDocument{\ifx\hyper@anchor\@undefined
\let\contentsline\oldcontentsline
\let\newlabel\oldnewlabel
\fi}
\fi}
\global\let\hyper@last\relax 
\gdef\HyperFirstAtBeginDocument#1{#1}
\providecommand\HyField@AuxAddToFields[1]{}
\providecommand\HyField@AuxAddToCoFields[2]{}
\catcode `:\active 
\catcode `;\active 
\catcode `!\active 
\catcode `?\active 
\babel@aux{french}{}
\@writefile{nav}{\headcommand {\slideentry {0}{0}{1}{1/75}{}{0}}}
\@writefile{nav}{\headcommand {\beamer@framepages {1}{75}}}
\@writefile{nav}{\headcommand {\beamer@partpages {1}{75}}}
\@writefile{nav}{\headcommand {\beamer@subsectionpages {1}{75}}}
\@writefile{nav}{\headcommand {\beamer@sectionpages {1}{75}}}
\@writefile{nav}{\headcommand {\beamer@documentpages {75}}}
\@writefile{nav}{\headcommand {\gdef \inserttotalframenumber {1}}}
