\headcommand {\slideentry {0}{0}{1}{1/75}{}{0}}
\headcommand {\beamer@framepages {1}{75}}
\headcommand {\beamer@partpages {1}{75}}
\headcommand {\beamer@subsectionpages {1}{75}}
\headcommand {\beamer@sectionpages {1}{75}}
\headcommand {\beamer@documentpages {75}}
\headcommand {\gdef \inserttotalframenumber {1}}
